<?xml version="1.0" encoding="UTF-8" standalone="no"?>
<!-- Created with Inkscape (http://www.inkscape.org/) -->
<svg
   xmlns:dc="http://purl.org/dc/elements/1.1/"
   xmlns:cc="http://web.resource.org/cc/"
   xmlns:rdf="http://www.w3.org/1999/02/22-rdf-syntax-ns#"
   xmlns:svg="http://www.w3.org/2000/svg"
   xmlns="http://www.w3.org/2000/svg"
   xmlns:xlink="http://www.w3.org/1999/xlink"
   xmlns:sodipodi="http://inkscape.sourceforge.net/DTD/sodipodi-0.dtd"
   xmlns:inkscape="http://www.inkscape.org/namespaces/inkscape"
   width="64px"
   height="64px"
   id="svg1307"
   sodipodi:version="0.32"
   inkscape:version="0.43"
   sodipodi:docbase="C:\Visual Studio 2008\Projects\GameLoader 2008\Resources\Inkscape"
   sodipodi:docname="IconMinimize.svg"
   inkscape:export-filename="C:\Visual Studio 2008\Projects\GameLoader 2008\Resources\Inkscape\IconMinimize.png"
   inkscape:export-xdpi="90"
   inkscape:export-ydpi="90">
  <defs
     id="defs1309">
    <linearGradient
       id="linearGradient3213">
      <stop
         id="stop3215"
         offset="0"
         style="stop-color:#5ea600;stop-opacity:1;" />
      <stop
         id="stop3217"
         offset="1"
         style="stop-color:#5ea600;stop-opacity:0;" />
    </linearGradient>
    <linearGradient
       id="linearGradient3203">
      <stop
         style="stop-color:#5ea600;stop-opacity:1;"
         offset="0"
         id="stop3205" />
      <stop
         style="stop-color:#5ea600;stop-opacity:0;"
         offset="1"
         id="stop3207" />
    </linearGradient>
    <linearGradient
       id="linearGradient3165">
      <stop
         style="stop-color:#000000;stop-opacity:1;"
         offset="0"
         id="stop3167" />
      <stop
         style="stop-color:#000000;stop-opacity:0;"
         offset="1"
         id="stop3169" />
    </linearGradient>
    <linearGradient
       inkscape:collect="always"
       xlink:href="#linearGradient3213"
       id="linearGradient7805"
       x1="51.486649"
       y1="-31.999998"
       x2="115.48676"
       y2="-31.999998"
       gradientUnits="userSpaceOnUse"
       gradientTransform="matrix(0.53029,0,0,0.86753,-22.60949,-8.948705)" />
    <linearGradient
       inkscape:collect="always"
       xlink:href="#linearGradient3213"
       id="linearGradient9700"
       gradientUnits="userSpaceOnUse"
       gradientTransform="matrix(0.994942,0,0,1.004335,0.78539,1.171793e-2)"
       x1="51.486649"
       y1="-31.999998"
       x2="115.48676"
       y2="-31.999998" />
  </defs>
  <sodipodi:namedview
     id="base"
     pagecolor="#ffffff"
     bordercolor="#666666"
     borderopacity="1.0"
     inkscape:pageopacity="0.0"
     inkscape:pageshadow="2"
     inkscape:zoom="12.515628"
     inkscape:cx="31.999993"
     inkscape:cy="34.981473"
     inkscape:current-layer="layer1"
     showgrid="true"
     inkscape:document-units="px"
     inkscape:grid-bbox="true"
     inkscape:window-width="1400"
     inkscape:window-height="981"
     inkscape:window-x="-4"
     inkscape:window-y="-4"
     inkscape:guide-points="true"
     inkscape:grid-points="true" />
  <metadata
     id="metadata1312">
    <rdf:RDF>
      <cc:Work
         rdf:about="">
        <dc:format>image/svg+xml</dc:format>
        <dc:type
           rdf:resource="http://purl.org/dc/dcmitype/StillImage" />
      </cc:Work>
    </rdf:RDF>
  </metadata>
  <g
     id="layer1"
     inkscape:label="Layer 1"
     inkscape:groupmode="layer">
    <rect
       inkscape:export-ydpi="90"
       inkscape:export-xdpi="90"
       transform="matrix(0,1,-1,0,0,0)"
       y="-61.768223"
       x="54.485836"
       height="59.282387"
       width="58.728058"
       id="use8692"
       style="opacity:1;fill:none;fill-opacity:1;fill-rule:evenodd;stroke:url(#linearGradient9700);stroke-width:4.97167492;stroke-linecap:butt;stroke-miterlimit:4;stroke-dasharray:none;stroke-opacity:1" />
    <path
       id="path9578"
       d="M 12.105263,71.705843 C 66,71.705843 66,71.705843 66,71.705843"
       style="fill:none;fill-opacity:0.75;fill-rule:evenodd;stroke:#5da600;stroke-width:4.58831453;stroke-linecap:butt;stroke-linejoin:miter;stroke-miterlimit:4;stroke-dasharray:none;stroke-opacity:1" />
  </g>
</svg>
