<?xml version="1.0" encoding="UTF-8" standalone="no"?>
<!-- Created with Inkscape (http://www.inkscape.org/) -->

<svg
   xmlns:dc="http://purl.org/dc/elements/1.1/"
   xmlns:cc="http://creativecommons.org/ns#"
   xmlns:rdf="http://www.w3.org/1999/02/22-rdf-syntax-ns#"
   xmlns:svg="http://www.w3.org/2000/svg"
   xmlns="http://www.w3.org/2000/svg"
   xmlns:xlink="http://www.w3.org/1999/xlink"
   xmlns:sodipodi="http://sodipodi.sourceforge.net/DTD/sodipodi-0.dtd"
   xmlns:inkscape="http://www.inkscape.org/namespaces/inkscape"
   id="svg2"
   version="1.1"
   inkscape:version="0.47 r22583"
   width="32"
   height="32"
   sodipodi:docname="Setup.svg"
   inkscape:export-filename="C:\Users\Marek\Documents\Visual Studio 2008\Projects\ProGammaX\Resources\Inkscape\Web\Setup.png"
   inkscape:export-xdpi="180"
   inkscape:export-ydpi="180">
  <metadata
     id="metadata8">
    <rdf:RDF>
      <cc:Work
         rdf:about="">
        <dc:format>image/svg+xml</dc:format>
        <dc:type
           rdf:resource="http://purl.org/dc/dcmitype/StillImage" />
        <dc:title></dc:title>
      </cc:Work>
    </rdf:RDF>
  </metadata>
  <defs
     id="defs6">
    <linearGradient
       id="linearGradient3955">
      <stop
         id="stop3957"
         offset="0"
         style="stop-color:#000000;stop-opacity:0;" />
      <stop
         id="stop3959"
         offset="1"
         style="stop-color:#000000;stop-opacity:0.49193549;" />
    </linearGradient>
    <linearGradient
       id="linearGradient3860">
      <stop
         style="stop-color:#000000;stop-opacity:1;"
         offset="0"
         id="stop3862" />
      <stop
         style="stop-color:#000000;stop-opacity:0;"
         offset="1"
         id="stop3864" />
    </linearGradient>
    <linearGradient
       inkscape:collect="always"
       id="linearGradient3850">
      <stop
         style="stop-color:#000000;stop-opacity:1;"
         offset="0"
         id="stop3852" />
      <stop
         style="stop-color:#000000;stop-opacity:0;"
         offset="1"
         id="stop3854" />
    </linearGradient>
    <linearGradient
       id="linearGradient3836">
      <stop
         id="stop3838"
         offset="0"
         style="stop-color:#000000;stop-opacity:0.40322581;" />
      <stop
         id="stop3840"
         offset="1"
         style="stop-color:#48689e;stop-opacity:0.66399997;" />
    </linearGradient>
    <linearGradient
       id="linearGradient3698">
      <stop
         style="stop-color:#000000;stop-opacity:1;"
         offset="0"
         id="stop3700" />
      <stop
         style="stop-color:#edc097;stop-opacity:0.704;"
         offset="1"
         id="stop3702" />
    </linearGradient>
    <linearGradient
       id="linearGradient3690">
      <stop
         id="stop3692"
         offset="0"
         style="stop-color:#000000;stop-opacity:1;" />
      <stop
         style="stop-color:#a591eb;stop-opacity:0.49803922;"
         offset="0.5"
         id="stop3694" />
      <stop
         id="stop3696"
         offset="1"
         style="stop-color:#0058ed;stop-opacity:1;" />
    </linearGradient>
    <linearGradient
       id="linearGradient3638">
      <stop
         style="stop-color:#000000;stop-opacity:0.33870968;"
         offset="0"
         id="stop3640" />
      <stop
         id="stop3646"
         offset="0.5"
         style="stop-color:#a591eb;stop-opacity:0.49803922;" />
      <stop
         style="stop-color:#0058ed;stop-opacity:0;"
         offset="1"
         id="stop3642" />
    </linearGradient>
    <inkscape:perspective
       sodipodi:type="inkscape:persp3d"
       inkscape:vp_x="0 : 0.5 : 1"
       inkscape:vp_y="0 : 1000 : 0"
       inkscape:vp_z="1 : 0.5 : 1"
       inkscape:persp3d-origin="0.5 : 0.33333333 : 1"
       id="perspective10" />
    <inkscape:perspective
       id="perspective3613"
       inkscape:persp3d-origin="0.5 : 0.33333333 : 1"
       inkscape:vp_z="1 : 0.5 : 1"
       inkscape:vp_y="0 : 1000 : 0"
       inkscape:vp_x="0 : 0.5 : 1"
       sodipodi:type="inkscape:persp3d" />
    <inkscape:perspective
       id="perspective3613-7"
       inkscape:persp3d-origin="0.5 : 0.33333333 : 1"
       inkscape:vp_z="1 : 0.5 : 1"
       inkscape:vp_y="0 : 1000 : 0"
       inkscape:vp_x="0 : 0.5 : 1"
       sodipodi:type="inkscape:persp3d" />
    <linearGradient
       inkscape:collect="always"
       xlink:href="#linearGradient3638"
       id="linearGradient3650"
       x1="15.067743"
       y1="6.9516411"
       x2="27.023088"
       y2="6.9516411"
       gradientUnits="userSpaceOnUse" />
    <inkscape:perspective
       id="perspective3662"
       inkscape:persp3d-origin="0.5 : 0.33333333 : 1"
       inkscape:vp_z="1 : 0.5 : 1"
       inkscape:vp_y="0 : 1000 : 0"
       inkscape:vp_x="0 : 0.5 : 1"
       sodipodi:type="inkscape:persp3d" />
    <linearGradient
       inkscape:collect="always"
       xlink:href="#linearGradient3690"
       id="linearGradient3688"
       x1="9.9028597"
       y1="22.579899"
       x2="25.764088"
       y2="22.579899"
       gradientUnits="userSpaceOnUse" />
    <inkscape:perspective
       id="perspective3716"
       inkscape:persp3d-origin="0.5 : 0.33333333 : 1"
       inkscape:vp_z="1 : 0.5 : 1"
       inkscape:vp_y="0 : 1000 : 0"
       inkscape:vp_x="0 : 0.5 : 1"
       sodipodi:type="inkscape:persp3d" />
    <linearGradient
       inkscape:collect="always"
       xlink:href="#linearGradient3698-2"
       id="linearGradient3706-8"
       x1="10.820518"
       y1="30.803909"
       x2="18.425617"
       y2="30.803909"
       gradientUnits="userSpaceOnUse"
       gradientTransform="matrix(1.0306672,0,0,1.0565098,-0.5077421,-1.4606726)" />
    <linearGradient
       id="linearGradient3698-2">
      <stop
         style="stop-color:#000000;stop-opacity:1;"
         offset="0"
         id="stop3700-7" />
      <stop
         style="stop-color:#edc097;stop-opacity:0.704;"
         offset="1"
         id="stop3702-7" />
    </linearGradient>
    <inkscape:perspective
       id="perspective3754"
       inkscape:persp3d-origin="0.5 : 0.33333333 : 1"
       inkscape:vp_z="1 : 0.5 : 1"
       inkscape:vp_y="0 : 1000 : 0"
       inkscape:vp_x="0 : 0.5 : 1"
       sodipodi:type="inkscape:persp3d" />
    <linearGradient
       inkscape:collect="always"
       xlink:href="#linearGradient3698-6"
       id="linearGradient3704-2"
       x1="1.8969722"
       y1="22.48402"
       x2="7.2594614"
       y2="22.48402"
       gradientUnits="userSpaceOnUse" />
    <linearGradient
       id="linearGradient3698-6">
      <stop
         style="stop-color:#000000;stop-opacity:1;"
         offset="0"
         id="stop3700-0" />
      <stop
         style="stop-color:#97b7ed;stop-opacity:0.70588237;"
         offset="1"
         id="stop3702-4" />
    </linearGradient>
    <inkscape:perspective
       id="perspective3794"
       inkscape:persp3d-origin="0.5 : 0.33333333 : 1"
       inkscape:vp_z="1 : 0.5 : 1"
       inkscape:vp_y="0 : 1000 : 0"
       inkscape:vp_x="0 : 0.5 : 1"
       sodipodi:type="inkscape:persp3d" />
    <linearGradient
       inkscape:collect="always"
       xlink:href="#linearGradient3698-6"
       id="linearGradient3814"
       x1="6.6429768"
       y1="7.4550052"
       x2="12.053405"
       y2="7.4550052"
       gradientUnits="userSpaceOnUse"
       gradientTransform="matrix(1.0000092,0,0,1.0001733,-0.09104849,-0.07092216)" />
    <linearGradient
       inkscape:collect="always"
       xlink:href="#linearGradient3698-6"
       id="linearGradient3816"
       x1="1.9928515"
       y1="12.824223"
       x2="7.4032798"
       y2="12.824223"
       gradientUnits="userSpaceOnUse"
       gradientTransform="matrix(1.0000092,0,0,1.0001733,-0.09104849,-0.07092216)" />
    <linearGradient
       inkscape:collect="always"
       xlink:href="#linearGradient3638"
       id="linearGradient3826"
       x1="12.862529"
       y1="7.02355"
       x2="29.468"
       y2="7.02355"
       gradientUnits="userSpaceOnUse" />
    <linearGradient
       inkscape:collect="always"
       xlink:href="#linearGradient3836"
       id="linearGradient3834"
       x1="12.307295"
       y1="17.282593"
       x2="31.0779"
       y2="17.282593"
       gradientUnits="userSpaceOnUse"
       gradientTransform="matrix(1.039434,0,0,0.99686503,-1.2149721,-0.47315346)" />
    <radialGradient
       inkscape:collect="always"
       xlink:href="#linearGradient3850"
       id="radialGradient3856"
       cx="21.380991"
       cy="17.042894"
       fx="21.380991"
       fy="17.042894"
       r="9.4953098"
       gradientTransform="matrix(1,0,0,0.32094312,-0.04793944,11.285457)"
       gradientUnits="userSpaceOnUse" />
    <radialGradient
       inkscape:collect="always"
       xlink:href="#linearGradient3850"
       id="radialGradient3858"
       cx="21.165264"
       cy="7.0235501"
       fx="21.165264"
       fy="7.0235501"
       r="8.3027354"
       gradientTransform="matrix(1,0,0,0.85565163,0,1.013838)"
       gradientUnits="userSpaceOnUse" />
    <radialGradient
       inkscape:collect="always"
       xlink:href="#linearGradient3860"
       id="radialGradient3866"
       cx="17.833473"
       cy="22.579899"
       fx="17.833473"
       fy="22.579899"
       r="7.9306135"
       gradientTransform="matrix(1,0,0,0.82167664,0,4.0265235)"
       gradientUnits="userSpaceOnUse" />
    <linearGradient
       inkscape:collect="always"
       xlink:href="#linearGradient3698-6"
       id="linearGradient3890"
       x1="6.6669469"
       y1="17.186712"
       x2="12.029436"
       y2="17.186712"
       gradientUnits="userSpaceOnUse" />
    <linearGradient
       inkscape:collect="always"
       xlink:href="#linearGradient3698-6"
       id="linearGradient3892"
       x1="10.637063"
       y1="31.083963"
       x2="18.490484"
       y2="31.083963"
       gradientUnits="userSpaceOnUse" />
    <linearGradient
       inkscape:collect="always"
       xlink:href="#linearGradient3698-6"
       id="linearGradient3894"
       x1="1.8969722"
       y1="22.48402"
       x2="7.2594614"
       y2="22.48402"
       gradientUnits="userSpaceOnUse" />
    <linearGradient
       inkscape:collect="always"
       xlink:href="#linearGradient3698-6"
       id="linearGradient3896"
       x1="4.4414654"
       y1="25.913229"
       x2="12.294888"
       y2="25.913229"
       gradientUnits="userSpaceOnUse" />
    <inkscape:perspective
       id="perspective3906"
       inkscape:persp3d-origin="0.5 : 0.33333333 : 1"
       inkscape:vp_z="1 : 0.5 : 1"
       inkscape:vp_y="0 : 1000 : 0"
       inkscape:vp_x="0 : 0.5 : 1"
       sodipodi:type="inkscape:persp3d" />
    <linearGradient
       inkscape:collect="always"
       xlink:href="#linearGradient3638-9"
       id="linearGradient3826-9"
       x1="12.862529"
       y1="7.02355"
       x2="29.468"
       y2="7.02355"
       gradientUnits="userSpaceOnUse" />
    <linearGradient
       id="linearGradient3638-9">
      <stop
         style="stop-color:#000000;stop-opacity:0.33870968;"
         offset="0"
         id="stop3640-8" />
      <stop
         id="stop3646-3"
         offset="0.5"
         style="stop-color:#a591eb;stop-opacity:0.49803922;" />
      <stop
         style="stop-color:#0058ed;stop-opacity:0;"
         offset="1"
         id="stop3642-8" />
    </linearGradient>
    <radialGradient
       inkscape:collect="always"
       xlink:href="#linearGradient3850-9"
       id="radialGradient3858-6"
       cx="21.165264"
       cy="7.02355"
       fx="21.165264"
       fy="7.02355"
       r="8.3027353"
       gradientTransform="matrix(1,0,0,0.85565163,0,1.013838)"
       gradientUnits="userSpaceOnUse" />
    <linearGradient
       inkscape:collect="always"
       id="linearGradient3850-9">
      <stop
         style="stop-color:#000000;stop-opacity:1;"
         offset="0"
         id="stop3852-8" />
      <stop
         style="stop-color:#000000;stop-opacity:0;"
         offset="1"
         id="stop3854-6" />
    </linearGradient>
    <linearGradient
       gradientTransform="translate(1.7018499,0.04793965)"
       y2="7.02355"
       x2="29.468"
       y1="7.02355"
       x1="12.862529"
       gradientUnits="userSpaceOnUse"
       id="linearGradient3920"
       xlink:href="#linearGradient3955"
       inkscape:collect="always" />
    <radialGradient
       r="8.3027353"
       fy="7.02355"
       fx="21.165264"
       cy="7.02355"
       cx="21.165264"
       gradientTransform="matrix(1,0,0,0.85565163,1.7018499,1.0617777)"
       gradientUnits="userSpaceOnUse"
       id="radialGradient3922"
       xlink:href="#linearGradient3850-9"
       inkscape:collect="always" />
    <linearGradient
       inkscape:collect="always"
       xlink:href="#linearGradient3955"
       id="linearGradient3965"
       gradientUnits="userSpaceOnUse"
       gradientTransform="matrix(0.37347818,0,0,1.0111997,19.444688,-0.03072238)"
       x1="12.862529"
       y1="7.02355"
       x2="29.468"
       y2="7.02355" />
    <radialGradient
       inkscape:collect="always"
       xlink:href="#linearGradient3850-9"
       id="radialGradient3967"
       gradientUnits="userSpaceOnUse"
       gradientTransform="matrix(0.37347818,0,0,0.86523465,19.444688,0.99447037)"
       cx="21.165264"
       cy="7.02355"
       fx="21.165264"
       fy="7.02355"
       r="8.3027353" />
    <inkscape:perspective
       id="perspective3977"
       inkscape:persp3d-origin="0.5 : 0.33333333 : 1"
       inkscape:vp_z="1 : 0.5 : 1"
       inkscape:vp_y="0 : 1000 : 0"
       inkscape:vp_x="0 : 0.5 : 1"
       sodipodi:type="inkscape:persp3d" />
    <linearGradient
       inkscape:collect="always"
       xlink:href="#linearGradient3836-3"
       id="linearGradient3834-2"
       x1="12.307295"
       y1="17.282593"
       x2="31.0779"
       y2="17.282593"
       gradientUnits="userSpaceOnUse"
       gradientTransform="matrix(1.039434,0,0,0.99686503,-1.2149721,-0.47315346)" />
    <linearGradient
       id="linearGradient3836-3">
      <stop
         id="stop3838-8"
         offset="0"
         style="stop-color:#000000;stop-opacity:0.40322581;" />
      <stop
         id="stop3840-2"
         offset="1"
         style="stop-color:#48689e;stop-opacity:0.66399997;" />
    </linearGradient>
    <radialGradient
       inkscape:collect="always"
       xlink:href="#linearGradient3850-2"
       id="radialGradient3856-6"
       cx="21.380991"
       cy="17.042894"
       fx="21.380991"
       fy="17.042894"
       r="9.4953098"
       gradientTransform="matrix(1,0,0,0.32094312,-0.04793944,11.285457)"
       gradientUnits="userSpaceOnUse" />
    <linearGradient
       inkscape:collect="always"
       id="linearGradient3850-2">
      <stop
         style="stop-color:#000000;stop-opacity:1;"
         offset="0"
         id="stop3852-7" />
      <stop
         style="stop-color:#000000;stop-opacity:0;"
         offset="1"
         id="stop3854-5" />
    </linearGradient>
    <linearGradient
       y2="17.282593"
       x2="31.0779"
       y1="17.282593"
       x1="12.307295"
       gradientTransform="matrix(0.26109057,0,0,1.0069123,23.914903,-0.50297854)"
       gradientUnits="userSpaceOnUse"
       id="linearGradient3990"
       xlink:href="#linearGradient3955"
       inkscape:collect="always" />
    <radialGradient
       r="9.4953098"
       fy="17.042894"
       fx="21.380991"
       cy="17.042894"
       cx="21.380991"
       gradientTransform="matrix(0.25118533,0,0,0.32417785,24.208045,11.374144)"
       gradientUnits="userSpaceOnUse"
       id="radialGradient3992"
       xlink:href="#linearGradient3850-2"
       inkscape:collect="always" />
    <linearGradient
       inkscape:collect="always"
       xlink:href="#linearGradient3690"
       id="linearGradient4036"
       gradientUnits="userSpaceOnUse"
       x1="9.9028597"
       y1="22.579899"
       x2="25.764088"
       y2="22.579899"
       gradientTransform="matrix(0.99258233,0,0,1.2418348,2.0978,-3.9984514)" />
    <radialGradient
       inkscape:collect="always"
       xlink:href="#linearGradient3860"
       id="radialGradient4038"
       gradientUnits="userSpaceOnUse"
       gradientTransform="matrix(0.99258233,0,0,1.0203866,2.0978,1.0018256)"
       cx="17.833473"
       cy="22.579899"
       fx="17.833473"
       fy="22.579899"
       r="7.9306135" />
    <linearGradient
       inkscape:collect="always"
       xlink:href="#linearGradient3690"
       id="linearGradient4043"
       gradientUnits="userSpaceOnUse"
       gradientTransform="matrix(0.91374123,0.38768111,-0.48503372,1.1431955,14.452677,-8.2116271)"
       x1="9.9028597"
       y1="22.579899"
       x2="25.764088"
       y2="22.579899" />
    <radialGradient
       inkscape:collect="always"
       xlink:href="#linearGradient3638"
       id="radialGradient4045"
       gradientUnits="userSpaceOnUse"
       gradientTransform="matrix(0.91374123,0.38768111,-0.39854086,0.939337,12.499677,-3.6085235)"
       cx="17.833473"
       cy="22.579899"
       fx="17.833473"
       fy="22.579899"
       r="7.9306135" />
    <inkscape:perspective
       id="perspective4055"
       inkscape:persp3d-origin="0.5 : 0.33333333 : 1"
       inkscape:vp_z="1 : 0.5 : 1"
       inkscape:vp_y="0 : 1000 : 0"
       inkscape:vp_x="0 : 0.5 : 1"
       sodipodi:type="inkscape:persp3d" />
    <inkscape:perspective
       id="perspective4069"
       inkscape:persp3d-origin="0.5 : 0.33333333 : 1"
       inkscape:vp_z="1 : 0.5 : 1"
       inkscape:vp_y="0 : 1000 : 0"
       inkscape:vp_x="0 : 0.5 : 1"
       sodipodi:type="inkscape:persp3d" />
    <linearGradient
       inkscape:collect="always"
       xlink:href="#linearGradient3638-2"
       id="linearGradient3826-8"
       x1="12.862529"
       y1="7.02355"
       x2="29.468"
       y2="7.02355"
       gradientUnits="userSpaceOnUse" />
    <linearGradient
       id="linearGradient3638-2">
      <stop
         style="stop-color:#000000;stop-opacity:0.33870968;"
         offset="0"
         id="stop3640-7" />
      <stop
         id="stop3646-8"
         offset="0.5"
         style="stop-color:#d4cbf6;stop-opacity:0.49803922;" />
      <stop
         style="stop-color:#0058ed;stop-opacity:0;"
         offset="1"
         id="stop3642-0" />
    </linearGradient>
    <radialGradient
       inkscape:collect="always"
       xlink:href="#linearGradient3850-0"
       id="radialGradient3858-2"
       cx="21.165264"
       cy="7.02355"
       fx="21.165264"
       fy="7.02355"
       r="8.3027353"
       gradientTransform="matrix(1,0,0,0.85565163,0,1.013838)"
       gradientUnits="userSpaceOnUse" />
    <linearGradient
       inkscape:collect="always"
       id="linearGradient3850-0">
      <stop
         style="stop-color:#000000;stop-opacity:1;"
         offset="0"
         id="stop3852-89" />
      <stop
         style="stop-color:#000000;stop-opacity:0;"
         offset="1"
         id="stop3854-2" />
    </linearGradient>
    <linearGradient
       gradientTransform="matrix(1.3355331,0,0,1.2826772,55.2436,-7.2107965)"
       y2="7.02355"
       x2="29.468"
       y1="7.02355"
       x1="12.862529"
       gradientUnits="userSpaceOnUse"
       id="linearGradient4083"
       xlink:href="#linearGradient3638-2"
       inkscape:collect="always" />
    <radialGradient
       r="8.3027353"
       fy="7.02355"
       fx="21.165264"
       cy="7.02355"
       cx="21.165264"
       gradientTransform="matrix(1.3355331,0,0,1.0975248,55.2436,-5.9103696)"
       gradientUnits="userSpaceOnUse"
       id="radialGradient4085"
       xlink:href="#linearGradient3850-0"
       inkscape:collect="always" />
  </defs>
  <sodipodi:namedview
     pagecolor="#ffffff"
     bordercolor="#666666"
     borderopacity="1"
     objecttolerance="10"
     gridtolerance="10"
     guidetolerance="10"
     inkscape:pageopacity="0"
     inkscape:pageshadow="2"
     inkscape:window-width="1400"
     inkscape:window-height="989"
     id="namedview4"
     showgrid="false"
     inkscape:zoom="5.2149125"
     inkscape:cx="66.950366"
     inkscape:cy="13.05705"
     inkscape:window-x="-9"
     inkscape:window-y="25"
     inkscape:window-maximized="1"
     inkscape:current-layer="svg2" />
  <path
     sodipodi:type="arc"
     style="fill:none;stroke:#000000;fill-opacity:1;stroke-opacity:1"
     id="path2824"
     sodipodi:cx="-9.7796459"
     sodipodi:cy="8.6295214"
     sodipodi:rx="1.9655172"
     sodipodi:ry="1.9415474"
     d="m -7.8141288,8.6295214 a 1.9655172,1.9415474 0 1 1 -3.9310342,0 1.9655172,1.9415474 0 1 1 3.9310342,0 z" />
  <rect
     style="fill:url(#linearGradient3990);fill-opacity:1;stroke:url(#radialGradient3992);stroke-width:0.25185165;stroke-linejoin:miter;stroke-miterlimit:10;stroke-opacity:1;stroke-dasharray:none"
     id="rect3600-4-7"
     width="4.6445727"
     height="5.6512995"
     x="27.25635"
     y="14.073426"
     rx="0.31527731" />
  <rect
     style="fill:url(#linearGradient3965);fill-opacity:1;stroke:url(#radialGradient3967);stroke-width:0.24654192;stroke-linejoin:miter;stroke-miterlimit:5.69999981;stroke-opacity:1;stroke-dasharray:none"
     id="rect3600-1-6"
     width="6.0519495"
     height="13.961955"
     x="24.323479"
     y="0.090511806"
     rx="0.41081119" />
  <rect
     style="fill:url(#linearGradient3650);stroke:#000000;stroke-width:0.35399999999999998;stroke-linejoin:miter;stroke-miterlimit:5.70000000000000020;stroke-opacity:1;stroke-dasharray:none;fill-opacity:1"
     id="rect3598"
     width="11.601345"
     height="9.5399494"
     x="15.244743"
     y="2.1816666"
     rx="5.3931875"
     ry="0" />
  <rect
     style="fill:none;stroke:#000000;stroke-width:0.33972445;stroke-linejoin:miter;stroke-miterlimit:5.69999981;stroke-opacity:1;stroke-dasharray:none"
     id="rect3600"
     width="13.533198"
     height="11.855318"
     x="14.230877"
     y="1.0719216"
     rx="0.91864443" />
  <rect
     style="fill:url(#linearGradient3826);stroke:url(#radialGradient3858);stroke-width:0.40118036000000001;stroke-linejoin:miter;stroke-miterlimit:5.69999980999999960;stroke-opacity:1;stroke-dasharray:none;fill-opacity:1"
     id="rect3600-1"
     width="16.20429"
     height="13.807318"
     x="13.063119"
     y="0.11989119"
     rx="1.0999603" />
  <rect
     style="fill:url(#linearGradient3834);fill-opacity:1;stroke:url(#radialGradient3856);stroke-width:0.5;stroke-linejoin:miter;stroke-miterlimit:10;stroke-opacity:1;stroke-dasharray:none"
     id="rect3600-4"
     width="18.49062"
     height="5.5949087"
     x="12.087742"
     y="13.957803"
     rx="1.2551582" />
  <path
     style="fill:none;stroke:#000000;stroke-width:0.97429997px;stroke-linecap:butt;stroke-linejoin:miter;stroke-opacity:1"
     d="m 23.956871,18.132651 c 5.526686,0.12158 5.490799,0.12158 5.490799,0.12158 l 0,0"
     id="path3636" />
  <rect
     style="fill:url(#linearGradient3890);fill-opacity:1.0;stroke:#5a5a5a;stroke-width:1;stroke-linejoin:round;stroke-miterlimit:10;stroke-opacity:1;stroke-dasharray:none"
     id="rect3652-9"
     width="4.3624892"
     height="16.059713"
     x="7.1669469"
     y="9.1568556"
     rx="0" />
  <rect
     style="fill:url(#linearGradient3892);fill-opacity:1.0;stroke:#5a5a5a;stroke-width:1.22665942000000010;stroke-linejoin:round;stroke-miterlimit:10;stroke-opacity:1;stroke-dasharray:none"
     id="rect3652-0"
     width="6.6267629"
     height="15.908122"
     x="11.250393"
     y="23.129902"
     rx="0"
     transform="matrix(0.6281735,-0.7780733,0.0071929,0.99997413,0,0)" />
  <path
     style="fill:url(#linearGradient4043);fill-opacity:1;stroke:url(#radialGradient4045);stroke-width:1.11023569;stroke-linejoin:miter;stroke-miterlimit:10;stroke-opacity:1;stroke-dasharray:none"
     d="m 22.729632,17.635139 c -3.749825,-1.590972 -8.09468,0.196419 -9.706334,3.99499 -1.611653,3.798571 0.122246,8.165049 3.87207,9.75602 3.749825,1.590972 8.09468,-0.196419 9.706334,-3.99499 1.611653,-3.798571 -0.122246,-8.165049 -3.87207,-9.75602 z m -2.421925,5.388293 c 0.82869,0.351595 1.2416,1.314131 0.890004,2.142821 -0.351595,0.828689 -1.330694,1.200626 -2.159383,0.84903 -0.82869,-0.351595 -1.212832,-1.301926 -0.861236,-2.130615 0.351595,-0.82869 1.301926,-1.212832 2.130615,-0.861236 z"
     id="path3676" />
  <rect
     style="fill:url(#linearGradient3896);fill-opacity:1.0;stroke:#5a5a5a;stroke-width:1.22665942000000010;stroke-linejoin:round;stroke-miterlimit:10;stroke-opacity:1;stroke-dasharray:none"
     id="rect3652-0-1"
     width="6.6267629"
     height="15.908122"
     x="5.0547953"
     y="17.959167"
     rx="0"
     transform="matrix(0.65558692,-0.75511972,-0.02855925,0.9995921,0,0)" />
  <rect
     style="fill:url(#linearGradient3894);fill-opacity:1.0;stroke:#5a5a5a;stroke-width:1;stroke-linejoin:round;stroke-miterlimit:10;stroke-opacity:1;stroke-dasharray:none"
     id="rect3652"
     width="4.3624892"
     height="16.059713"
     x="2.3969722"
     y="14.454164"
     rx="0" />
  <path
     sodipodi:type="arc"
     style="fill:none;stroke:#1f1f1f;stroke-width:1;stroke-linejoin:round;stroke-miterlimit:10;stroke-opacity:1;stroke-dasharray:none"
     id="path3818"
     sodipodi:cx="27.349453"
     sodipodi:cy="16.659378"
     sodipodi:rx="0.98275858"
     sodipodi:ry="0.14381833"
     d="m 28.332212,16.659378 a 0.98275858,0.14381833 0 1 1 -1.965518,0 0.98275858,0.14381833 0 1 1 1.965518,0 z" />
  <image
     y="-12.032801"
     x="41.82674"
     id="image4057"
     height="64"
     width="64"
     xlink:href="file:///C:/Users/Marek/Documents/Moja%20str%C3%A1nka/data/images/Setup.png"
     inkscape:export-filename="C:\Users\Marek\Documents\Visual Studio 2008\Projects\ProGammaX\Resources\Inkscape\Web\Setup.png"
     inkscape:export-xdpi="90"
     inkscape:export-ydpi="90" />
  <rect
     style="fill:url(#linearGradient4083);fill-opacity:1;stroke:url(#radialGradient4085);stroke-width:0.5250802;stroke-linejoin:miter;stroke-miterlimit:5.69999981;stroke-opacity:1;stroke-dasharray:none"
     id="rect3600-1-8"
     width="21.641365"
     height="17.710331"
     x="72.689827"
     y="-7.0570145"
     rx="1.4690334" />
</svg>
