<?xml version="1.0" encoding="UTF-8" standalone="no"?>
<!-- Created with Inkscape (http://www.inkscape.org/) -->

<svg
   xmlns:dc="http://purl.org/dc/elements/1.1/"
   xmlns:cc="http://creativecommons.org/ns#"
   xmlns:rdf="http://www.w3.org/1999/02/22-rdf-syntax-ns#"
   xmlns:svg="http://www.w3.org/2000/svg"
   xmlns="http://www.w3.org/2000/svg"
   xmlns:xlink="http://www.w3.org/1999/xlink"
   xmlns:sodipodi="http://sodipodi.sourceforge.net/DTD/sodipodi-0.dtd"
   xmlns:inkscape="http://www.inkscape.org/namespaces/inkscape"
   width="64px"
   height="64px"
   id="svg22934"
   sodipodi:version="0.32"
   inkscape:version="0.48.4 r9939"
   sodipodi:docname="CPU2.svg"
   inkscape:export-filename="Z:\Visual Studio 2008\Projects\GameLoader 2008\Resources\Inkscape\Profiles_TabPageIcons\CPU.png"
   inkscape:export-xdpi="90"
   inkscape:export-ydpi="90"
   version="1.1">
  <defs
     id="defs22936">
    <linearGradient
       inkscape:collect="always"
       id="linearGradient3817">
      <stop
         style="stop-color:#002953;stop-opacity:1;"
         offset="0"
         id="stop3819" />
      <stop
         style="stop-color:#002953;stop-opacity:0;"
         offset="1"
         id="stop3821" />
    </linearGradient>
    <linearGradient
       inkscape:collect="always"
       xlink:href="#linearGradient3817"
       id="linearGradient3823"
       x1="11.515509"
       y1="24.377268"
       x2="25.166474"
       y2="24.377268"
       gradientUnits="userSpaceOnUse" />
    <linearGradient
       inkscape:collect="always"
       xlink:href="#linearGradient3817"
       id="linearGradient3825"
       x1="11.515509"
       y1="24.377268"
       x2="25.166474"
       y2="24.377268"
       gradientUnits="userSpaceOnUse" />
    <linearGradient
       inkscape:collect="always"
       xlink:href="#linearGradient3817"
       id="linearGradient3827"
       x1="84.105134"
       y1="13.726971"
       x2="90.72745"
       y2="13.726971"
       gradientUnits="userSpaceOnUse" />
    <linearGradient
       inkscape:collect="always"
       xlink:href="#linearGradient3817"
       id="linearGradient3829"
       x1="87.875589"
       y1="17.954675"
       x2="94.718519"
       y2="17.954675"
       gradientUnits="userSpaceOnUse" />
    <linearGradient
       inkscape:collect="always"
       xlink:href="#linearGradient3817"
       id="linearGradient3831"
       x1="89.775057"
       y1="23.018258"
       x2="95.999997"
       y2="23.018258"
       gradientUnits="userSpaceOnUse" />
    <linearGradient
       inkscape:collect="always"
       xlink:href="#linearGradient3817"
       id="linearGradient3833"
       x1="88.413857"
       y1="27.57417"
       x2="95.121239"
       y2="27.57417"
       gradientUnits="userSpaceOnUse" />
    <linearGradient
       inkscape:collect="always"
       xlink:href="#linearGradient3817"
       id="linearGradient3835"
       x1="85.208018"
       y1="31.861216"
       x2="91.990372"
       y2="31.861216"
       gradientUnits="userSpaceOnUse" />
    <linearGradient
       inkscape:collect="always"
       xlink:href="#linearGradient3817"
       id="linearGradient3837"
       x1="81.210072"
       y1="34.855708"
       x2="87.510409"
       y2="34.855708"
       gradientUnits="userSpaceOnUse" />
    <linearGradient
       inkscape:collect="always"
       xlink:href="#linearGradient3817"
       id="linearGradient3839"
       x1="76.782532"
       y1="35.273403"
       x2="82.81863"
       y2="35.273403"
       gradientUnits="userSpaceOnUse" />
    <linearGradient
       inkscape:collect="always"
       xlink:href="#linearGradient3817"
       id="linearGradient3841"
       x1="71.90412"
       y1="33.154762"
       x2="78.424841"
       y2="33.154762"
       gradientUnits="userSpaceOnUse" />
    <linearGradient
       inkscape:collect="always"
       xlink:href="#linearGradient3817"
       id="linearGradient3843"
       x1="68.056174"
       y1="29.505392"
       x2="74.90981"
       y2="29.505392"
       gradientUnits="userSpaceOnUse" />
    <linearGradient
       inkscape:collect="always"
       xlink:href="#linearGradient3817"
       id="linearGradient3845"
       x1="66.27119"
       y1="24.820931"
       x2="72.692804"
       y2="24.820931"
       gradientUnits="userSpaceOnUse" />
    <linearGradient
       inkscape:collect="always"
       xlink:href="#linearGradient3817"
       id="linearGradient3847"
       x1="66.569457"
       y1="20.444234"
       x2="73.152295"
       y2="20.444234"
       gradientUnits="userSpaceOnUse" />
    <linearGradient
       inkscape:collect="always"
       xlink:href="#linearGradient3817"
       id="linearGradient3849"
       x1="69.357433"
       y1="16.281325"
       x2="76.188942"
       y2="16.281325"
       gradientUnits="userSpaceOnUse" />
    <linearGradient
       inkscape:collect="always"
       xlink:href="#linearGradient3817"
       id="linearGradient3851"
       x1="74.18001"
       y1="12.784872"
       x2="80.59144"
       y2="12.784872"
       gradientUnits="userSpaceOnUse" />
    <linearGradient
       inkscape:collect="always"
       xlink:href="#linearGradient3817"
       id="linearGradient3853"
       x1="79.445176"
       y1="11.505735"
       x2="85.454903"
       y2="11.505735"
       gradientUnits="userSpaceOnUse" />
  </defs>
  <sodipodi:namedview
     id="base"
     pagecolor="#ffffff"
     bordercolor="#666666"
     borderopacity="1.0"
     inkscape:pageopacity="0.0"
     inkscape:pageshadow="2"
     inkscape:zoom="6.4609375"
     inkscape:cx="61.597149"
     inkscape:cy="36.929212"
     inkscape:current-layer="layer1"
     showgrid="true"
     inkscape:document-units="px"
     inkscape:grid-bbox="true"
     inkscape:window-width="1400"
     inkscape:window-height="994"
     inkscape:window-x="-4"
     inkscape:window-y="-4"
     inkscape:window-maximized="0" />
  <metadata
     id="metadata22939">
    <rdf:RDF>
      <cc:Work
         rdf:about="">
        <dc:format>image/svg+xml</dc:format>
        <dc:type
           rdf:resource="http://purl.org/dc/dcmitype/StillImage" />
        <dc:title></dc:title>
      </cc:Work>
    </rdf:RDF>
  </metadata>
  <g
     id="layer1"
     inkscape:label="Layer 1"
     inkscape:groupmode="layer">
    <g
       id="g24886"
       transform="translate(-1.181367,-4.841289)">
      <path
         id="path23064"
         d="M 17.508212,12.981976 C 17.508212,9.5747593 18.923676,8.7229543 18.923676,8.7229543 L 20.339142,8.7229543 M 21.754607,12.981976 C 21.754607,9.5747593 20.339142,8.7229543 20.339142,8.7229543"
         style="fill:none;fill-opacity:0.75;fill-rule:evenodd;stroke:#000000;stroke-width:1.76333141;stroke-linecap:butt;stroke-linejoin:miter;stroke-miterlimit:4;stroke-dasharray:none;stroke-opacity:1" />
      <path
         style="fill:none;fill-opacity:0.75;fill-rule:evenodd;stroke:#000000;stroke-width:1.76333141;stroke-linecap:butt;stroke-linejoin:miter;stroke-miterlimit:4;stroke-dasharray:none;stroke-opacity:1"
         d="M 13.042603,14.663761 C 11.612134,11.575774 12.537362,10.20161 12.537362,10.20161 L 13.82021,9.5994433 M 16.891144,12.85726 C 15.460675,9.7692733 13.82021,9.5994433 13.82021,9.5994433"
         id="path23072" />
      <path
         id="path23074"
         d="M 9.7591163,18.118334 C 7.166226,15.928217 7.4278454,14.289192 7.4278454,14.289192 L 8.3376892,13.197693 M 12.488646,14.843842 C 9.8957563,12.653725 8.3376892,13.197693 8.3376892,13.197693"
         style="fill:none;fill-opacity:0.75;fill-rule:evenodd;stroke:#000000;stroke-width:1.76333141;stroke-linecap:butt;stroke-linejoin:miter;stroke-miterlimit:4;stroke-dasharray:none;stroke-opacity:1" />
      <path
         style="fill:none;fill-opacity:0.75;fill-rule:evenodd;stroke:#000000;stroke-width:1.76333141;stroke-linecap:butt;stroke-linejoin:miter;stroke-miterlimit:4;stroke-dasharray:none;stroke-opacity:1"
         d="M 8.3529506,22.021235 C 5.0835056,21.139382 4.6324928,19.542622 4.6324928,19.542622 L 4.9988419,18.166323 M 9.4519993,17.892341 C 6.1825535,17.010487 4.9988419,18.166323 4.9988419,18.166323"
         id="path23076" />
      <path
         id="path23078"
         d="M 8.9925083,26.193214 C 5.6591526,26.784871 4.5800201,25.529585 4.5800201,25.529585 L 4.3342265,24.126382 M 8.2551299,21.983608 C 4.9217733,22.575264 4.3342265,24.126382 4.3342265,24.126382"
         style="fill:none;fill-opacity:0.75;fill-rule:evenodd;stroke:#000000;stroke-width:1.76333141;stroke-linecap:butt;stroke-linejoin:miter;stroke-miterlimit:4;stroke-dasharray:none;stroke-opacity:1" />
      <path
         style="fill:none;fill-opacity:0.75;fill-rule:evenodd;stroke:#000000;stroke-width:1.76333141;stroke-linecap:butt;stroke-linejoin:miter;stroke-miterlimit:4;stroke-dasharray:none;stroke-opacity:1"
         d="M 11.209514,29.908027 C 8.4368663,31.862327 6.9318263,31.183735 6.9318263,31.183735 L 6.1199478,30.016567 M 8.7738813,26.406525 C 6.0012325,28.360823 6.1199478,30.016567 6.1199478,30.016567"
         id="path23080" />
      <path
         id="path23082"
         d="M 14.724545,32.082129 C 13.032155,35.032867 11.38323,35.058127 11.38323,35.058127 L 10.157399,34.345704 M 11.047058,29.944858 C 9.3546673,32.895593 10.157399,34.345704 10.157399,34.345704"
         style="fill:none;fill-opacity:0.75;fill-rule:evenodd;stroke:#000000;stroke-width:1.76333141;stroke-linecap:butt;stroke-linejoin:miter;stroke-miterlimit:4;stroke-dasharray:none;stroke-opacity:1" />
      <path
         style="fill:none;fill-opacity:0.75;fill-rule:evenodd;stroke:#000000;stroke-width:1.76333141;stroke-linecap:butt;stroke-linejoin:miter;stroke-miterlimit:4;stroke-dasharray:none;stroke-opacity:1"
         d="M 19.118334,32.747091 C 18.823332,36.141345 17.339502,36.865724 17.339502,36.865724 L 15.929422,36.741541 M 14.888098,32.374542 C 14.593093,35.768793 15.929422,36.741541 15.929422,36.741541"
         id="path23084" />
      <path
         id="path23086"
         d="M 23.263413,31.714024 C 24.421077,34.915763 23.380391,36.203524 23.380391,36.203524 L 22.050288,36.690852 M 19.273108,33.176007 C 20.430768,36.377744 22.050288,36.690852 22.050288,36.690852"
         style="fill:none;fill-opacity:0.75;fill-rule:evenodd;stroke:#000000;stroke-width:1.76333141;stroke-linecap:butt;stroke-linejoin:miter;stroke-miterlimit:4;stroke-dasharray:none;stroke-opacity:1" />
      <path
         style="fill:none;fill-opacity:0.75;fill-rule:evenodd;stroke:#000000;stroke-width:1.76333141;stroke-linecap:butt;stroke-linejoin:miter;stroke-miterlimit:4;stroke-dasharray:none;stroke-opacity:1"
         d="M 26.273707,28.681798 C 28.667109,31.091065 28.264574,32.700901 28.264574,32.700901 L 27.263689,33.708423 M 23.271054,31.704359 C 25.664452,34.113627 27.263689,33.708423 27.263689,33.708423"
         id="path23088" />
      <path
         id="path23090"
         d="M 27.929245,24.637358 C 31.109899,25.802695 31.420943,27.432948 31.420943,27.432948 L 30.936826,28.771869 M 26.476893,28.654117 C 29.657544,29.819456 30.936826,28.771869 30.936826,28.771869"
         style="fill:none;fill-opacity:0.75;fill-rule:evenodd;stroke:#000000;stroke-width:1.76333141;stroke-linecap:butt;stroke-linejoin:miter;stroke-miterlimit:4;stroke-dasharray:none;stroke-opacity:1" />
      <path
         style="fill:none;fill-opacity:0.75;fill-rule:evenodd;stroke:#000000;stroke-width:1.76333141;stroke-linecap:butt;stroke-linejoin:miter;stroke-miterlimit:4;stroke-dasharray:none;stroke-opacity:1"
         d="M 27.838093,20.257255 C 31.209993,19.960295 32.176333,21.305481 32.176333,21.305481 L 32.299701,22.724909 M 28.208192,24.515533 C 31.580091,24.218578 32.299701,22.724909 32.299701,22.724909"
         id="path23092" />
      <path
         id="path23094"
         d="M 25.938625,15.994004 C 28.869931,14.290393 30.310488,15.098447 30.310488,15.098447 L 31.018223,16.332402 M 28.061824,19.695867 C 30.99313,17.992262 31.018223,16.332402 31.018223,16.332402"
         style="fill:none;fill-opacity:0.75;fill-rule:evenodd;stroke:#000000;stroke-width:1.76333141;stroke-linecap:butt;stroke-linejoin:miter;stroke-miterlimit:4;stroke-dasharray:none;stroke-opacity:1" />
      <path
         style="fill:none;fill-opacity:0.75;fill-rule:evenodd;stroke:#000000;stroke-width:1.76333141;stroke-linecap:butt;stroke-linejoin:miter;stroke-miterlimit:4;stroke-dasharray:none;stroke-opacity:1"
         d="M 22.16817,13.183948 C 24.1096,10.392917 25.754438,10.51242 25.754438,10.51242 L 26.913921,11.32968 M 25.646613,15.635726 C 27.588046,12.844698 26.913921,11.32968 26.913921,11.32968"
         id="path23096" />
      <path
         transform="matrix(1.097368,0,0,1.213432,-1.873497,-6.605538)"
         sodipodi:open="true"
         sodipodi:end="6.2749955"
         sodipodi:start="0"
         d="m 24.29988,24.377268 c 0,3.077301 -2.667885,5.571946 -5.958888,5.571946 -3.291003,0 -5.958888,-2.494645 -5.958888,-5.571946 0,-3.077301 2.667885,-5.571947 5.958888,-5.571947 3.27196,0 5.931891,2.466921 5.958688,5.526314"
         sodipodi:ry="5.5719466"
         sodipodi:rx="5.9588876"
         sodipodi:cy="24.377268"
         sodipodi:cx="18.340992"
         id="path23999"
         style="opacity:1;fill:none;fill-opacity:1;fill-rule:evenodd;stroke:#000000;stroke-width:1.73318982;stroke-linecap:round;stroke-linejoin:round;stroke-miterlimit:4;stroke-dasharray:none;stroke-dashoffset:0;stroke-opacity:1"
         sodipodi:type="arc" />
      <path
         sodipodi:type="arc"
         style="opacity:1;fill:none;fill-opacity:1;fill-rule:evenodd;stroke:#000000;stroke-width:1.73318982;stroke-linecap:round;stroke-linejoin:round;stroke-miterlimit:4;stroke-dasharray:none;stroke-dashoffset:0;stroke-opacity:1"
         id="path24884"
         sodipodi:cx="18.340992"
         sodipodi:cy="24.377268"
         sodipodi:rx="5.9588876"
         sodipodi:ry="5.5719466"
         d="m 24.29988,24.377268 c 0,3.077301 -2.667885,5.571946 -5.958888,5.571946 -3.291003,0 -5.958888,-2.494645 -5.958888,-5.571946 0,-3.077301 2.667885,-5.571947 5.958888,-5.571947 3.27196,0 5.931891,2.466921 5.958688,5.526314"
         sodipodi:start="0"
         sodipodi:end="6.2749955"
         sodipodi:open="true"
         transform="matrix(0.530248,0,0,0.604732,8.624314,8.118544)" />
    </g>
    <g
       transform="matrix(1.244584,0,0,1.300942,18.67843,7.917955)"
       id="g24904">
      <path
         style="fill:none;fill-opacity:0.75;fill-rule:evenodd;stroke:#000000;stroke-width:1.76333141;stroke-linecap:butt;stroke-linejoin:miter;stroke-miterlimit:4;stroke-dasharray:none;stroke-opacity:1"
         d="M 17.508212,12.981976 C 17.508212,9.5747593 18.923676,8.7229543 18.923676,8.7229543 L 20.339142,8.7229543 M 21.754607,12.981976 C 21.754607,9.5747593 20.339142,8.7229543 20.339142,8.7229543"
         id="path24906" />
      <path
         id="path24908"
         d="M 13.042603,14.663761 C 11.612134,11.575774 12.537362,10.20161 12.537362,10.20161 L 13.82021,9.5994433 M 16.891144,12.85726 C 15.460675,9.7692733 13.82021,9.5994433 13.82021,9.5994433"
         style="fill:none;fill-opacity:0.75;fill-rule:evenodd;stroke:#000000;stroke-width:1.76333141;stroke-linecap:butt;stroke-linejoin:miter;stroke-miterlimit:4;stroke-dasharray:none;stroke-opacity:1" />
      <path
         style="fill:none;fill-opacity:0.75;fill-rule:evenodd;stroke:#000000;stroke-width:1.76333141;stroke-linecap:butt;stroke-linejoin:miter;stroke-miterlimit:4;stroke-dasharray:none;stroke-opacity:1"
         d="M 9.7591163,18.118334 C 7.166226,15.928217 7.4278454,14.289192 7.4278454,14.289192 L 8.3376892,13.197693 M 12.488646,14.843842 C 9.8957563,12.653725 8.3376892,13.197693 8.3376892,13.197693"
         id="path24910" />
      <path
         id="path24912"
         d="M 8.3529506,22.021235 C 5.0835056,21.139382 4.6324928,19.542622 4.6324928,19.542622 L 4.9988419,18.166323 M 9.4519993,17.892341 C 6.1825535,17.010487 4.9988419,18.166323 4.9988419,18.166323"
         style="fill:none;fill-opacity:0.75;fill-rule:evenodd;stroke:#000000;stroke-width:1.76333141;stroke-linecap:butt;stroke-linejoin:miter;stroke-miterlimit:4;stroke-dasharray:none;stroke-opacity:1" />
      <path
         style="fill:none;fill-opacity:0.75;fill-rule:evenodd;stroke:#000000;stroke-width:1.76333141;stroke-linecap:butt;stroke-linejoin:miter;stroke-miterlimit:4;stroke-dasharray:none;stroke-opacity:1"
         d="M 8.9925083,26.193214 C 5.6591526,26.784871 4.5800201,25.529585 4.5800201,25.529585 L 4.3342265,24.126382 M 8.2551299,21.983608 C 4.9217733,22.575264 4.3342265,24.126382 4.3342265,24.126382"
         id="path24914" />
      <path
         id="path24916"
         d="M 11.209514,29.908027 C 8.4368663,31.862327 6.9318263,31.183735 6.9318263,31.183735 L 6.1199478,30.016567 M 8.7738813,26.406525 C 6.0012325,28.360823 6.1199478,30.016567 6.1199478,30.016567"
         style="fill:none;fill-opacity:0.75;fill-rule:evenodd;stroke:#000000;stroke-width:1.76333141;stroke-linecap:butt;stroke-linejoin:miter;stroke-miterlimit:4;stroke-dasharray:none;stroke-opacity:1" />
      <path
         style="fill:none;fill-opacity:0.75;fill-rule:evenodd;stroke:#000000;stroke-width:1.76333141;stroke-linecap:butt;stroke-linejoin:miter;stroke-miterlimit:4;stroke-dasharray:none;stroke-opacity:1"
         d="M 14.724545,32.082129 C 13.032155,35.032867 11.38323,35.058127 11.38323,35.058127 L 10.157399,34.345704 M 11.047058,29.944858 C 9.3546673,32.895593 10.157399,34.345704 10.157399,34.345704"
         id="path24918" />
      <path
         id="path24920"
         d="M 19.118334,32.747091 C 18.823332,36.141345 17.339502,36.865724 17.339502,36.865724 L 15.929422,36.741541 M 14.888098,32.374542 C 14.593093,35.768793 15.929422,36.741541 15.929422,36.741541"
         style="fill:none;fill-opacity:0.75;fill-rule:evenodd;stroke:#000000;stroke-width:1.76333141;stroke-linecap:butt;stroke-linejoin:miter;stroke-miterlimit:4;stroke-dasharray:none;stroke-opacity:1" />
      <path
         style="fill:none;fill-opacity:0.75;fill-rule:evenodd;stroke:#000000;stroke-width:1.76333141;stroke-linecap:butt;stroke-linejoin:miter;stroke-miterlimit:4;stroke-dasharray:none;stroke-opacity:1"
         d="M 23.263413,31.714024 C 24.421077,34.915763 23.380391,36.203524 23.380391,36.203524 L 22.050288,36.690852 M 19.273108,33.176007 C 20.430768,36.377744 22.050288,36.690852 22.050288,36.690852"
         id="path24922" />
      <path
         id="path24924"
         d="M 26.273707,28.681798 C 28.667109,31.091065 28.264574,32.700901 28.264574,32.700901 L 27.263689,33.708423 M 23.271054,31.704359 C 25.664452,34.113627 27.263689,33.708423 27.263689,33.708423"
         style="fill:none;fill-opacity:0.75;fill-rule:evenodd;stroke:#000000;stroke-width:1.76333141;stroke-linecap:butt;stroke-linejoin:miter;stroke-miterlimit:4;stroke-dasharray:none;stroke-opacity:1" />
      <path
         style="fill:none;fill-opacity:0.75;fill-rule:evenodd;stroke:#000000;stroke-width:1.76333141;stroke-linecap:butt;stroke-linejoin:miter;stroke-miterlimit:4;stroke-dasharray:none;stroke-opacity:1"
         d="M 27.929245,24.637358 C 31.109899,25.802695 31.420943,27.432948 31.420943,27.432948 L 30.936826,28.771869 M 26.476893,28.654117 C 29.657544,29.819456 30.936826,28.771869 30.936826,28.771869"
         id="path24926" />
      <path
         id="path24928"
         d="M 27.838093,20.257255 C 31.209993,19.960295 32.176333,21.305481 32.176333,21.305481 L 32.299701,22.724909 M 28.208192,24.515533 C 31.580091,24.218578 32.299701,22.724909 32.299701,22.724909"
         style="fill:none;fill-opacity:0.75;fill-rule:evenodd;stroke:#000000;stroke-width:1.76333141;stroke-linecap:butt;stroke-linejoin:miter;stroke-miterlimit:4;stroke-dasharray:none;stroke-opacity:1" />
      <path
         style="fill:none;fill-opacity:0.75;fill-rule:evenodd;stroke:#000000;stroke-width:1.76333141;stroke-linecap:butt;stroke-linejoin:miter;stroke-miterlimit:4;stroke-dasharray:none;stroke-opacity:1"
         d="M 25.938625,15.994004 C 28.869931,14.290393 30.310488,15.098447 30.310488,15.098447 L 31.018223,16.332402 M 28.061824,19.695867 C 30.99313,17.992262 31.018223,16.332402 31.018223,16.332402"
         id="path24930" />
      <path
         id="path24932"
         d="M 22.16817,13.183948 C 24.1096,10.392917 25.754438,10.51242 25.754438,10.51242 L 26.913921,11.32968 M 25.646613,15.635726 C 27.588046,12.844698 26.913921,11.32968 26.913921,11.32968"
         style="fill:none;fill-opacity:0.75;fill-rule:evenodd;stroke:#000000;stroke-width:1.76333141;stroke-linecap:butt;stroke-linejoin:miter;stroke-miterlimit:4;stroke-dasharray:none;stroke-opacity:1" />
      <path
         sodipodi:type="arc"
         style="opacity:1;fill:none;fill-opacity:1;fill-rule:evenodd;stroke:#000000;stroke-width:1.73318982;stroke-linecap:round;stroke-linejoin:round;stroke-miterlimit:4;stroke-dasharray:none;stroke-dashoffset:0;stroke-opacity:1"
         id="path24934"
         sodipodi:cx="18.340992"
         sodipodi:cy="24.377268"
         sodipodi:rx="5.9588876"
         sodipodi:ry="5.5719466"
         d="m 24.29988,24.377268 c 0,3.077301 -2.667885,5.571946 -5.958888,5.571946 -3.291003,0 -5.958888,-2.494645 -5.958888,-5.571946 0,-3.077301 2.667885,-5.571947 5.958888,-5.571947 3.27196,0 5.931891,2.466921 5.958688,5.526314"
         sodipodi:start="0"
         sodipodi:end="6.2749955"
         sodipodi:open="true"
         transform="matrix(1.097368,0,0,1.213432,-1.873497,-6.605538)" />
      <path
         transform="matrix(0.530248,0,0,0.604732,8.624314,8.118544)"
         sodipodi:open="true"
         sodipodi:end="6.2749955"
         sodipodi:start="0"
         d="m 24.29988,24.377268 c 0,3.077301 -2.667885,5.571946 -5.958888,5.571946 -3.291003,0 -5.958888,-2.494645 -5.958888,-5.571946 0,-3.077301 2.667885,-5.571947 5.958888,-5.571947 3.27196,0 5.931891,2.466921 5.958688,5.526314"
         sodipodi:ry="5.5719466"
         sodipodi:rx="5.9588876"
         sodipodi:cy="24.377268"
         sodipodi:cx="18.340992"
         id="path24936"
         style="opacity:1;fill:none;fill-opacity:1;fill-rule:evenodd;stroke:#000000;stroke-width:1.73318982;stroke-linecap:round;stroke-linejoin:round;stroke-miterlimit:4;stroke-dasharray:none;stroke-dashoffset:0;stroke-opacity:1"
         sodipodi:type="arc" />
    </g>
    <path
       inkscape:connector-curvature="0"
       id="path25847"
       d="m 80.326842,13.635246 c 0,-3.407217 1.415464,-4.2590217 1.415464,-4.2590217 l 1.415466,0 m 1.415465,4.2590217 c 0,-3.407217 -1.415465,-4.2590217 -1.415465,-4.2590217"
       style="fill:url(#linearGradient3853);stroke:#9d9d9d;stroke-width:1.76333140999999990;stroke-linecap:butt;stroke-linejoin:miter;stroke-miterlimit:4;stroke-opacity:0.78228784;stroke-dasharray:none;fill-opacity:1"
       inkscape:export-filename="C:\Marek\Dokumenty\Visual Studio 2013\Projects\Visual C#\ProGammaX2\Resources\Inkscape\Profiles_TabPageIcons\CPU2.png"
       inkscape:export-xdpi="90"
       inkscape:export-ydpi="90" />
    <path
       inkscape:connector-curvature="0"
       style="fill:url(#linearGradient3851);stroke:#9d9d9d;stroke-width:1.76333140999999990;stroke-linecap:butt;stroke-linejoin:miter;stroke-miterlimit:4;stroke-opacity:0.78228784;stroke-dasharray:none;fill-opacity:1"
       d="M 75.861233,15.317031 C 74.430764,12.229044 75.355992,10.85488 75.355992,10.85488 l 1.282848,-0.602167 m 3.070934,3.257817 C 78.279305,10.422543 76.63884,10.252713 76.63884,10.252713"
       id="path25849"
       inkscape:export-filename="C:\Marek\Dokumenty\Visual Studio 2013\Projects\Visual C#\ProGammaX2\Resources\Inkscape\Profiles_TabPageIcons\CPU2.png"
       inkscape:export-xdpi="90"
       inkscape:export-ydpi="90" />
    <path
       inkscape:connector-curvature="0"
       id="path25851"
       d="m 72.577746,18.771604 c -2.59289,-2.190117 -2.331271,-3.829142 -2.331271,-3.829142 l 0.909844,-1.091499 m 4.150957,1.646149 c -2.59289,-2.190117 -4.150957,-1.646149 -4.150957,-1.646149"
       style="fill:url(#linearGradient3849);stroke:#9d9d9d;stroke-width:1.76333140999999990;stroke-linecap:butt;stroke-linejoin:miter;stroke-miterlimit:4;stroke-opacity:0.78228784;stroke-dasharray:none;fill-opacity:1"
       inkscape:export-filename="C:\Marek\Dokumenty\Visual Studio 2013\Projects\Visual C#\ProGammaX2\Resources\Inkscape\Profiles_TabPageIcons\CPU2.png"
       inkscape:export-xdpi="90"
       inkscape:export-ydpi="90" />
    <path
       inkscape:connector-curvature="0"
       style="fill:url(#linearGradient3847);stroke:#9d9d9d;stroke-width:1.76333140999999990;stroke-linecap:butt;stroke-linejoin:miter;stroke-miterlimit:4;stroke-opacity:0.78228784;stroke-dasharray:none;fill-opacity:1"
       d="m 71.171581,22.674505 c -3.269445,-0.881853 -3.720458,-2.478613 -3.720458,-2.478613 l 0.366349,-1.376299 m 4.453157,-0.273982 c -3.269446,-0.881854 -4.453157,0.273982 -4.453157,0.273982"
       id="path25853"
       inkscape:export-filename="C:\Marek\Dokumenty\Visual Studio 2013\Projects\Visual C#\ProGammaX2\Resources\Inkscape\Profiles_TabPageIcons\CPU2.png"
       inkscape:export-xdpi="90"
       inkscape:export-ydpi="90" />
    <path
       inkscape:connector-curvature="0"
       id="path25855"
       d="M 71.811138,26.846484 C 68.477783,27.438141 67.39865,26.182855 67.39865,26.182855 l -0.245794,-1.403203 m 3.920904,-2.142774 c -3.333357,0.591656 -3.920904,2.142774 -3.920904,2.142774"
       style="fill:url(#linearGradient3845);stroke:#9d9d9d;stroke-width:1.76333140999999990;stroke-linecap:butt;stroke-linejoin:miter;stroke-miterlimit:4;stroke-opacity:0.78228784;stroke-dasharray:none;fill-opacity:1"
       inkscape:export-filename="C:\Marek\Dokumenty\Visual Studio 2013\Projects\Visual C#\ProGammaX2\Resources\Inkscape\Profiles_TabPageIcons\CPU2.png"
       inkscape:export-xdpi="90"
       inkscape:export-ydpi="90" />
    <path
       inkscape:connector-curvature="0"
       style="fill:url(#linearGradient3843);stroke:#9d9d9d;stroke-width:1.76333140999999990;stroke-linecap:butt;stroke-linejoin:miter;stroke-miterlimit:4;stroke-opacity:0.78228784;stroke-dasharray:none;fill-opacity:1"
       d="m 74.028144,30.561297 c -2.772648,1.9543 -4.277688,1.275708 -4.277688,1.275708 l -0.811878,-1.167168 m 2.653933,-3.610042 c -2.772649,1.954298 -2.653933,3.610042 -2.653933,3.610042"
       id="path25857"
       inkscape:export-filename="C:\Marek\Dokumenty\Visual Studio 2013\Projects\Visual C#\ProGammaX2\Resources\Inkscape\Profiles_TabPageIcons\CPU2.png"
       inkscape:export-xdpi="90"
       inkscape:export-ydpi="90" />
    <path
       inkscape:connector-curvature="0"
       id="path25859"
       d="m 77.543175,32.735399 c -1.69239,2.950738 -3.341315,2.975998 -3.341315,2.975998 l -1.225831,-0.712423 m 0.889659,-4.400846 c -1.692391,2.950735 -0.889659,4.400846 -0.889659,4.400846"
       style="fill:url(#linearGradient3841);stroke:#9d9d9d;stroke-width:1.76333140999999990;stroke-linecap:butt;stroke-linejoin:miter;stroke-miterlimit:4;stroke-opacity:0.78228784;stroke-dasharray:none;fill-opacity:1"
       inkscape:export-filename="C:\Marek\Dokumenty\Visual Studio 2013\Projects\Visual C#\ProGammaX2\Resources\Inkscape\Profiles_TabPageIcons\CPU2.png"
       inkscape:export-xdpi="90"
       inkscape:export-ydpi="90" />
    <path
       inkscape:connector-curvature="0"
       style="fill:url(#linearGradient3839);stroke:#9d9d9d;stroke-width:1.76333140999999990;stroke-linecap:butt;stroke-linejoin:miter;stroke-miterlimit:4;stroke-opacity:0.78228784;stroke-dasharray:none;fill-opacity:1"
       d="m 81.936964,33.400361 c -0.295002,3.394254 -1.778832,4.118633 -1.778832,4.118633 l -1.41008,-0.124183 m -1.041324,-4.366999 c -0.295005,3.394251 1.041324,4.366999 1.041324,4.366999"
       id="path25861"
       inkscape:export-filename="C:\Marek\Dokumenty\Visual Studio 2013\Projects\Visual C#\ProGammaX2\Resources\Inkscape\Profiles_TabPageIcons\CPU2.png"
       inkscape:export-xdpi="90"
       inkscape:export-ydpi="90" />
    <path
       inkscape:connector-curvature="0"
       id="path25863"
       d="m 86.082043,32.367294 c 1.157664,3.201739 0.116978,4.4895 0.116978,4.4895 l -1.330103,0.487328 m -2.77718,-3.514845 c 1.15766,3.201737 2.77718,3.514845 2.77718,3.514845"
       style="fill:url(#linearGradient3837);stroke:#9d9d9d;stroke-width:1.76333140999999990;stroke-linecap:butt;stroke-linejoin:miter;stroke-miterlimit:4;stroke-opacity:0.78228784;stroke-dasharray:none;fill-opacity:1"
       inkscape:export-filename="C:\Marek\Dokumenty\Visual Studio 2013\Projects\Visual C#\ProGammaX2\Resources\Inkscape\Profiles_TabPageIcons\CPU2.png"
       inkscape:export-xdpi="90"
       inkscape:export-ydpi="90" />
    <path
       inkscape:connector-curvature="0"
       style="fill:url(#linearGradient3835);stroke:#9d9d9d;stroke-width:1.76333140999999990;stroke-linecap:butt;stroke-linejoin:miter;stroke-miterlimit:4;stroke-opacity:0.78228784;stroke-dasharray:none;fill-opacity:1"
       d="m 89.092337,29.335068 c 2.393402,2.409267 1.990867,4.019103 1.990867,4.019103 l -1.000885,1.007522 m -3.992635,-2.004064 c 2.393398,2.409268 3.992635,2.004064 3.992635,2.004064"
       id="path25865"
       inkscape:export-filename="C:\Marek\Dokumenty\Visual Studio 2013\Projects\Visual C#\ProGammaX2\Resources\Inkscape\Profiles_TabPageIcons\CPU2.png"
       inkscape:export-xdpi="90"
       inkscape:export-ydpi="90" />
    <path
       inkscape:connector-curvature="0"
       id="path25867"
       d="m 90.747875,25.290628 c 3.180654,1.165337 3.491698,2.79559 3.491698,2.79559 l -0.484117,1.338921 m -4.459933,-0.117752 c 3.180651,1.165339 4.459933,0.117752 4.459933,0.117752"
       style="fill:url(#linearGradient3833);stroke:#9d9d9d;stroke-width:1.76333140999999990;stroke-linecap:butt;stroke-linejoin:miter;stroke-miterlimit:4;stroke-opacity:0.78228784;stroke-dasharray:none;fill-opacity:1"
       inkscape:export-filename="C:\Marek\Dokumenty\Visual Studio 2013\Projects\Visual C#\ProGammaX2\Resources\Inkscape\Profiles_TabPageIcons\CPU2.png"
       inkscape:export-xdpi="90"
       inkscape:export-ydpi="90" />
    <path
       inkscape:connector-curvature="0"
       style="fill:url(#linearGradient3831);stroke:#9d9d9d;stroke-width:1.76333140999999990;stroke-linecap:butt;stroke-linejoin:miter;stroke-miterlimit:4;stroke-opacity:0.78228784;stroke-dasharray:none;fill-opacity:1"
       d="m 90.656723,20.910525 c 3.3719,-0.29696 4.33824,1.048226 4.33824,1.048226 l 0.123368,1.419428 m -4.091509,1.790624 c 3.371899,-0.296955 4.091509,-1.790624 4.091509,-1.790624"
       id="path25869"
       inkscape:export-filename="C:\Marek\Dokumenty\Visual Studio 2013\Projects\Visual C#\ProGammaX2\Resources\Inkscape\Profiles_TabPageIcons\CPU2.png"
       inkscape:export-xdpi="90"
       inkscape:export-ydpi="90" />
    <path
       inkscape:connector-curvature="0"
       id="path25871"
       d="m 88.757255,16.647274 c 2.931306,-1.703611 4.371863,-0.895557 4.371863,-0.895557 l 0.707735,1.233955 m -2.956399,3.363465 c 2.931306,-1.703605 2.956399,-3.363465 2.956399,-3.363465"
       style="fill:url(#linearGradient3829);stroke:#9d9d9d;stroke-width:1.76333140999999990;stroke-linecap:butt;stroke-linejoin:miter;stroke-miterlimit:4;stroke-opacity:0.78228784;stroke-dasharray:none;fill-opacity:1"
       inkscape:export-filename="C:\Marek\Dokumenty\Visual Studio 2013\Projects\Visual C#\ProGammaX2\Resources\Inkscape\Profiles_TabPageIcons\CPU2.png"
       inkscape:export-xdpi="90"
       inkscape:export-ydpi="90" />
    <path
       inkscape:connector-curvature="0"
       style="fill:url(#linearGradient3827);stroke:#9d9d9d;stroke-width:1.76333140999999990;stroke-linecap:butt;stroke-linejoin:miter;stroke-miterlimit:4;stroke-opacity:0.78228784;stroke-dasharray:none;fill-opacity:1"
       d="m 84.9868,13.837218 c 1.94143,-2.791031 3.586268,-2.671528 3.586268,-2.671528 l 1.159483,0.81726 m -1.267308,4.306046 c 1.941433,-2.791028 1.267308,-4.306046 1.267308,-4.306046"
       id="path25873"
       inkscape:export-filename="C:\Marek\Dokumenty\Visual Studio 2013\Projects\Visual C#\ProGammaX2\Resources\Inkscape\Profiles_TabPageIcons\CPU2.png"
       inkscape:export-xdpi="90"
       inkscape:export-ydpi="90" />
    <path
       transform="matrix(1.097368,0,0,1.213432,60.945133,-5.952268)"
       sodipodi:open="true"
       sodipodi:end="6.2749955"
       sodipodi:start="0"
       d="m 24.29988,24.377268 a 5.9588876,5.5719466 0 1 1 -2e-4,-0.04563"
       sodipodi:ry="5.5719466"
       sodipodi:rx="5.9588876"
       sodipodi:cy="24.377268"
       sodipodi:cx="18.340992"
       id="path25875"
       style="fill:url(#linearGradient3825);stroke:#9d9d9d;stroke-width:1.73318982000000000;stroke-linecap:round;stroke-linejoin:round;stroke-miterlimit:4;stroke-opacity:0.78228784;stroke-dasharray:none;stroke-dashoffset:0;fill-opacity:1"
       sodipodi:type="arc"
       inkscape:export-filename="C:\Marek\Dokumenty\Visual Studio 2013\Projects\Visual C#\ProGammaX2\Resources\Inkscape\Profiles_TabPageIcons\CPU2.png"
       inkscape:export-xdpi="90"
       inkscape:export-ydpi="90" />
    <path
       sodipodi:type="arc"
       style="fill:url(#linearGradient3823);stroke:#9d9d9d;stroke-width:1.73318982000000000;stroke-linecap:round;stroke-linejoin:round;stroke-miterlimit:4;stroke-opacity:0.78228784;stroke-dasharray:none;stroke-dashoffset:0;fill-opacity:1"
       id="path25877"
       sodipodi:cx="18.340992"
       sodipodi:cy="24.377268"
       sodipodi:rx="5.9588876"
       sodipodi:ry="5.5719466"
       d="m 24.29988,24.377268 a 5.9588876,5.5719466 0 1 1 -2e-4,-0.04563"
       sodipodi:start="0"
       sodipodi:end="6.2749955"
       sodipodi:open="true"
       transform="matrix(0.530248,0,0,0.604732,71.442944,8.771814)"
       inkscape:export-filename="C:\Marek\Dokumenty\Visual Studio 2013\Projects\Visual C#\ProGammaX2\Resources\Inkscape\Profiles_TabPageIcons\CPU2.png"
       inkscape:export-xdpi="90"
       inkscape:export-ydpi="90" />
  </g>
</svg>
