<?xml version="1.0" encoding="UTF-8" standalone="no"?>
<!-- Created with Inkscape (http://www.inkscape.org/) -->
<svg
   xmlns:dc="http://purl.org/dc/elements/1.1/"
   xmlns:cc="http://web.resource.org/cc/"
   xmlns:rdf="http://www.w3.org/1999/02/22-rdf-syntax-ns#"
   xmlns:svg="http://www.w3.org/2000/svg"
   xmlns="http://www.w3.org/2000/svg"
   xmlns:sodipodi="http://inkscape.sourceforge.net/DTD/sodipodi-0.dtd"
   xmlns:inkscape="http://www.inkscape.org/namespaces/inkscape"
   width="64px"
   height="64px"
   id="svg25879"
   sodipodi:version="0.32"
   inkscape:version="0.43"
   sodipodi:docbase="Z:\Visual Studio 2008\Projects\GameLoader 2008\Resources\Inkscape\Profiles_TabPageIcons"
   sodipodi:docname="Keyboard.svg"
   inkscape:export-filename="Z:\Visual Studio 2008\Projects\GameLoader 2008\Resources\Inkscape\Profiles_TabPageIcons\Keyboard4.png"
   inkscape:export-xdpi="90"
   inkscape:export-ydpi="90">
  <defs
     id="defs25881" />
  <sodipodi:namedview
     id="base"
     pagecolor="#ffffff"
     bordercolor="#666666"
     borderopacity="1.0"
     inkscape:pageopacity="0.0"
     inkscape:pageshadow="2"
     inkscape:zoom="12.921875"
     inkscape:cx="38.831506"
     inkscape:cy="35.095526"
     inkscape:current-layer="layer1"
     showgrid="true"
     inkscape:document-units="px"
     inkscape:grid-bbox="true"
     inkscape:window-width="1400"
     inkscape:window-height="994"
     inkscape:window-x="-4"
     inkscape:window-y="-4" />
  <metadata
     id="metadata25884">
    <rdf:RDF>
      <cc:Work
         rdf:about="">
        <dc:format>image/svg+xml</dc:format>
        <dc:type
           rdf:resource="http://purl.org/dc/dcmitype/StillImage" />
      </cc:Work>
    </rdf:RDF>
  </metadata>
  <g
     id="layer1"
     inkscape:label="Layer 1"
     inkscape:groupmode="layer">
    <path
       style="opacity:1;fill:none;fill-opacity:0.75;fill-rule:evenodd;stroke:#000000;stroke-width:3.45797729;stroke-linecap:butt;stroke-linejoin:round;stroke-miterlimit:4;stroke-dasharray:none;stroke-opacity:1"
       d="M 3.6709062,24.966783 L 59.434394,24.966783 L 59.434394,24.966783 L 59.434394,48.603071 L 59.434394,48.603071 L 3.6709062,48.603071 L 3.6709062,24.966783 z "
       id="path25887" />
    <path
       style="fill:none;fill-opacity:0.75;fill-rule:evenodd;stroke:#000000;stroke-width:2.5;stroke-linecap:butt;stroke-linejoin:miter;stroke-miterlimit:4;stroke-dasharray:none;stroke-opacity:1"
       d="M 4.1287467,27.872017 L 59.892235,27.872017"
       id="path26765" />
    <path
       id="path26767"
       d="M 2.7883975,34.421298 L 36.043939,34.421298"
       style="fill:none;fill-opacity:0.75;fill-rule:evenodd;stroke:#000000;stroke-width:2.5;stroke-linecap:butt;stroke-linejoin:miter;stroke-miterlimit:4;stroke-dasharray:none;stroke-opacity:1" />
    <path
       style="fill:none;fill-opacity:0.75;fill-rule:evenodd;stroke:#000000;stroke-width:0.87644458;stroke-linecap:butt;stroke-linejoin:miter;stroke-miterlimit:4;stroke-dasharray:none;stroke-opacity:1"
       d="M 3.8935133,41.512185 L 36.133659,41.512185"
       id="path26769" />
    <path
       id="path26771"
       d="M 4.4065923,37.966742 L 36.027851,37.966742"
       style="fill:none;fill-opacity:0.75;fill-rule:evenodd;stroke:#000000;stroke-width:0.86799157;stroke-linecap:butt;stroke-linejoin:miter;stroke-miterlimit:4;stroke-dasharray:none;stroke-opacity:1" />
    <path
       style="fill:none;fill-opacity:0.75;fill-rule:evenodd;stroke:#000000;stroke-width:0.86794674;stroke-linecap:butt;stroke-linejoin:miter;stroke-miterlimit:4;stroke-dasharray:none;stroke-opacity:1"
       d="M 3.8836938,45.057627 L 35.501686,45.057627"
       id="path26773" />
    <path
       style="fill:none;fill-opacity:0.75;fill-rule:evenodd;stroke:#000000;stroke-width:1.26267493;stroke-linecap:butt;stroke-linejoin:miter;stroke-miterlimit:4;stroke-dasharray:none;stroke-opacity:1"
       d="M 8.6430497,34.477698 C 8.7293583,46.551926 8.8156667,47.241294 8.8156667,47.241294"
       id="path26775" />
    <path
       id="path26777"
       d="M 54.369109,34.477698 C 54.455418,46.551926 54.541727,47.241294 54.541727,47.241294"
       style="fill:none;fill-opacity:0.75;fill-rule:evenodd;stroke:#000000;stroke-width:1.26267493;stroke-linecap:butt;stroke-linejoin:miter;stroke-miterlimit:4;stroke-dasharray:none;stroke-opacity:1" />
    <path
       style="fill:none;fill-opacity:0.75;fill-rule:evenodd;stroke:#000000;stroke-width:1.26267493;stroke-linecap:butt;stroke-linejoin:miter;stroke-miterlimit:4;stroke-dasharray:none;stroke-opacity:1"
       d="M 26.487365,34.601262 C 26.573674,46.675489 26.659983,47.364857 26.659983,47.364857"
       id="path26779" />
    <path
       id="path26781"
       d="M 22.026286,34.477698 C 22.112595,46.551926 22.198904,47.241294 22.198904,47.241294"
       style="fill:none;fill-opacity:0.75;fill-rule:evenodd;stroke:#000000;stroke-width:1.26267493;stroke-linecap:butt;stroke-linejoin:miter;stroke-miterlimit:4;stroke-dasharray:none;stroke-opacity:1" />
    <path
       style="fill:none;fill-opacity:0.75;fill-rule:evenodd;stroke:#000000;stroke-width:1.26267493;stroke-linecap:butt;stroke-linejoin:miter;stroke-miterlimit:4;stroke-dasharray:none;stroke-opacity:1"
       d="M 17.565208,34.477698 C 17.651517,46.551926 17.737824,47.241294 17.737824,47.241294"
       id="path26783" />
    <path
       id="path26785"
       d="M 13.104129,34.601262 C 13.190437,46.675489 13.276746,47.364857 13.276746,47.364857"
       style="fill:none;fill-opacity:0.75;fill-rule:evenodd;stroke:#000000;stroke-width:1.26267493;stroke-linecap:butt;stroke-linejoin:miter;stroke-miterlimit:4;stroke-dasharray:none;stroke-opacity:1" />
    <path
       style="fill:none;fill-opacity:0.75;fill-rule:evenodd;stroke:#000000;stroke-width:1.26267493;stroke-linecap:butt;stroke-linejoin:miter;stroke-miterlimit:4;stroke-dasharray:none;stroke-opacity:1"
       d="M 49.90803,34.601262 C 49.994339,46.675489 50.080648,47.364857 50.080648,47.364857"
       id="path26787" />
    <path
       id="path26789"
       d="M 45.167886,33.872539 C 45.254195,46.602973 45.340503,47.329807 45.340503,47.329807"
       style="fill:none;fill-opacity:0.75;fill-rule:evenodd;stroke:#000000;stroke-width:2.5;stroke-linecap:butt;stroke-linejoin:miter;stroke-miterlimit:4;stroke-dasharray:none;stroke-opacity:1" />
    <path
       style="fill:none;fill-opacity:0.75;fill-rule:evenodd;stroke:#000000;stroke-width:1.26267493;stroke-linecap:butt;stroke-linejoin:miter;stroke-miterlimit:4;stroke-dasharray:none;stroke-opacity:1"
       d="M 30.948445,34.477698 C 31.034753,46.551926 31.121062,47.241294 31.121062,47.241294"
       id="path26791" />
    <path
       id="path26793"
       d="M 35.409524,34.477698 C 35.495833,46.551926 35.58214,47.241294 35.58214,47.241294"
       style="fill:none;fill-opacity:0.75;fill-rule:evenodd;stroke:#000000;stroke-width:2.5;stroke-linecap:butt;stroke-linejoin:miter;stroke-miterlimit:4;stroke-dasharray:none;stroke-opacity:1" />
    <path
       style="fill:none;fill-opacity:0.75;fill-rule:evenodd;stroke:#000000;stroke-width:1.1526593;stroke-linecap:butt;stroke-linejoin:miter;stroke-miterlimit:4;stroke-dasharray:none;stroke-opacity:1"
       d="M 45.117651,37.966742 L 59.892235,37.966742"
       id="path26799" />
    <path
       id="path26802"
       d="M 45.117651,45.057627 L 59.892235,45.057627"
       style="fill:none;fill-opacity:0.75;fill-rule:evenodd;stroke:#000000;stroke-width:1.1526593;stroke-linecap:butt;stroke-linejoin:miter;stroke-miterlimit:4;stroke-dasharray:none;stroke-opacity:1" />
    <path
       style="fill:none;fill-opacity:0.75;fill-rule:evenodd;stroke:#000000;stroke-width:1.1526593;stroke-linecap:butt;stroke-linejoin:miter;stroke-miterlimit:4;stroke-dasharray:none;stroke-opacity:1"
       d="M 45.117651,41.512185 L 59.892235,41.512185"
       id="path26804" />
    <path
       id="path26806"
       d="M 45.117651,34.421298 L 59.892235,34.421298"
       style="fill:none;fill-opacity:0.75;fill-rule:evenodd;stroke:#000000;stroke-width:2.5;stroke-linecap:butt;stroke-linejoin:miter;stroke-miterlimit:4;stroke-dasharray:none;stroke-opacity:1" />
    <path
       id="path26808"
       d="M 4.25,31.25 L 60.013488,31.25"
       style="fill:none;fill-opacity:0.75;fill-rule:evenodd;stroke:#000000;stroke-width:2.5;stroke-linecap:butt;stroke-linejoin:miter;stroke-miterlimit:4;stroke-dasharray:none;stroke-opacity:1" />
    <path
       style="fill:#000000;fill-opacity:1;fill-rule:nonzero;stroke:none;stroke-width:1.00400603;stroke-linecap:butt;stroke-linejoin:miter;stroke-miterlimit:4;stroke-dasharray:none;stroke-opacity:1"
       id="path26810"
       d="M 38.585284,24 C 38.843904,22.664446 39.381268,21.433502 40.005932,20.250831 C 41.168773,18.457439 41.721885,16.319057 42.79859,14.480221 C 44.226201,12.132784 46.278894,11.55592 48.681833,12.265566 C 50.896747,13.157082 52.713352,12.315366 54.757405,11.484747 C 56.930925,10.420621 56.515706,11.527183 57.626454,8.3048549 C 57.97772,6.8654002 58.674061,6.7444285 60.025563,5.9603017 C 60.277027,5.8144044 61.049718,5.4142906 60.798831,5.5613035 C 58.555738,6.875695 59.885813,6.078463 60.409596,5.6089518 C 61.174017,4.8731151 62.004753,4.2203134 62.787062,3.5078688 C 63.31665,2.9523315 63.885504,2.4451115 64.451949,1.933346 L 66,1.2649328 C 65.443231,1.7894308 64.852196,2.2715702 64.333037,2.8403991 C 63.555557,3.5725432 62.709332,4.218281 61.934466,4.9550846 C 61.148196,5.6639748 60.486069,6.0558679 59.51315,6.6604027 C 59.265156,6.8144971 58.491649,7.2169994 58.735602,7.0558224 C 60.857888,5.6536421 59.288366,6.5118757 59.112601,7.5707791 C 58.178426,10.276124 56.023846,11.71215 53.486335,12.541696 C 51.429296,13.39853 49.598594,14.119478 47.383563,13.209659 C 46.720841,13.018428 46.009417,12.73851 45.311585,12.769509 C 45.112515,12.778352 44.5645,13.035763 44.730875,12.919594 C 47.267412,11.148514 44.682811,12.996198 44.297776,13.781383 C 43.173807,15.595858 42.634509,17.731906 41.50083,19.542351 C 40.90009,20.698666 40.284656,21.899832 40.13556,23.228492 L 38.585284,24 z " />
  </g>
</svg>
