<?xml version="1.0" encoding="UTF-8" standalone="no"?>
<!-- Created with Inkscape (http://www.inkscape.org/) -->
<svg
   xmlns:dc="http://purl.org/dc/elements/1.1/"
   xmlns:cc="http://web.resource.org/cc/"
   xmlns:rdf="http://www.w3.org/1999/02/22-rdf-syntax-ns#"
   xmlns:svg="http://www.w3.org/2000/svg"
   xmlns="http://www.w3.org/2000/svg"
   xmlns:xlink="http://www.w3.org/1999/xlink"
   xmlns:sodipodi="http://inkscape.sourceforge.net/DTD/sodipodi-0.dtd"
   xmlns:inkscape="http://www.inkscape.org/namespaces/inkscape"
   width="64px"
   height="64px"
   id="svg5453"
   sodipodi:version="0.32"
   inkscape:version="0.43"
   sodipodi:docbase="Z:\Visual Studio 2008\Projects\GameLoader 2008\Resources\Inkscape\Icons"
   sodipodi:docname="Floppy Gray.svg">
  <defs
     id="defs5455">
    <linearGradient
       id="linearGradient5118">
      <stop
         id="stop5120"
         offset="0"
         style="stop-color:#282828;stop-opacity:1;" />
      <stop
         style="stop-color:#b7b7b7;stop-opacity:1;"
         offset="0.04011009"
         id="stop5128" />
      <stop
         id="stop5124"
         offset="0.96264201"
         style="stop-color:#a7a7a7;stop-opacity:1;" />
      <stop
         id="stop5126"
         offset="1"
         style="stop-color:#cecece;stop-opacity:1;" />
    </linearGradient>
    <linearGradient
       id="linearGradient3232">
      <stop
         style="stop-color:#bbbbbb;stop-opacity:0;"
         offset="0"
         id="stop3234" />
      <stop
         style="stop-color:#dfdfdf;stop-opacity:1;"
         offset="1"
         id="stop3236" />
    </linearGradient>
    <linearGradient
       id="linearGradient3221">
      <stop
         style="stop-color:#464646;stop-opacity:1;"
         offset="0"
         id="stop3223" />
      <stop
         style="stop-color:#e9e9e9;stop-opacity:0.79646015;"
         offset="1"
         id="stop3225" />
    </linearGradient>
    <linearGradient
       id="linearGradient3196">
      <stop
         id="stop3198"
         offset="0"
         style="stop-color:#6a6a6a;stop-opacity:1;" />
      <stop
         id="stop3200"
         offset="1"
         style="stop-color:#383838;stop-opacity:1;" />
    </linearGradient>
    <linearGradient
       id="linearGradient3188">
      <stop
         style="stop-color:#000000;stop-opacity:1;"
         offset="0"
         id="stop3190" />
      <stop
         style="stop-color:#000000;stop-opacity:0;"
         offset="1"
         id="stop3192" />
    </linearGradient>
    <linearGradient
       id="linearGradient3180">
      <stop
         style="stop-color:#acacac;stop-opacity:1;"
         offset="0"
         id="stop3182" />
      <stop
         style="stop-color:#b2b2b2;stop-opacity:1;"
         offset="1"
         id="stop3184" />
    </linearGradient>
    <linearGradient
       id="linearGradient3127">
      <stop
         style="stop-color:#2f2f2f;stop-opacity:1;"
         offset="0"
         id="stop3129" />
      <stop
         id="stop3202"
         offset="0.21875"
         style="stop-color:#5d5d5d;stop-opacity:1;" />
      <stop
         style="stop-color:#7c7c7c;stop-opacity:1;"
         offset="0.94574654"
         id="stop3204" />
      <stop
         style="stop-color:#cecece;stop-opacity:1;"
         offset="1"
         id="stop3131" />
    </linearGradient>
    <linearGradient
       inkscape:collect="always"
       xlink:href="#linearGradient3127"
       id="linearGradient3133"
       x1="4"
       y1="33"
       x2="63"
       y2="33"
       gradientUnits="userSpaceOnUse" />
    <linearGradient
       inkscape:collect="always"
       xlink:href="#linearGradient3180"
       id="linearGradient3186"
       x1="63.999943"
       y1="30.902006"
       x2="1.6416498"
       y2="31.996439"
       gradientUnits="userSpaceOnUse" />
    <linearGradient
       inkscape:collect="always"
       xlink:href="#linearGradient3196"
       id="linearGradient3194"
       x1="4.2324018"
       y1="4.5329905"
       x2="57.76173"
       y2="15.58677"
       gradientUnits="userSpaceOnUse" />
    <linearGradient
       inkscape:collect="always"
       xlink:href="#linearGradient3221"
       id="linearGradient3227"
       x1="17.948713"
       y1="42.986874"
       x2="62.382721"
       y2="70.457161"
       gradientUnits="userSpaceOnUse" />
    <linearGradient
       inkscape:collect="always"
       xlink:href="#linearGradient5118"
       id="linearGradient3246"
       x1="20"
       y1="51"
       x2="58"
       y2="51"
       gradientUnits="userSpaceOnUse" />
    <linearGradient
       inkscape:collect="always"
       xlink:href="#linearGradient5118"
       id="linearGradient5116"
       x1="8"
       y1="21.26965"
       x2="58"
       y2="21.26965"
       gradientUnits="userSpaceOnUse" />
  </defs>
  <sodipodi:namedview
     id="base"
     pagecolor="#ffffff"
     bordercolor="#666666"
     borderopacity="1.0"
     inkscape:pageopacity="0.0"
     inkscape:pageshadow="2"
     inkscape:zoom="9.1371454"
     inkscape:cx="11.163396"
     inkscape:cy="38.544503"
     inkscape:current-layer="layer1"
     showgrid="true"
     inkscape:document-units="px"
     inkscape:grid-bbox="true"
     inkscape:window-width="1400"
     inkscape:window-height="994"
     inkscape:window-x="-4"
     inkscape:window-y="-4" />
  <metadata
     id="metadata5458">
    <rdf:RDF>
      <cc:Work
         rdf:about="">
        <dc:format>image/svg+xml</dc:format>
        <dc:type
           rdf:resource="http://purl.org/dc/dcmitype/StillImage" />
      </cc:Work>
    </rdf:RDF>
  </metadata>
  <g
     id="layer1"
     inkscape:label="Layer 1"
     inkscape:groupmode="layer">
    <image
       id="image5929"
       height="64"
       width="64"
       sodipodi:absref="Z:\Visual Studio 2008\Projects\GameLoader 2008\Resources\Red Floppy 5.ico"
       xlink:href="Z:\Visual Studio 2008\Projects\GameLoader 2008\Resources\Red Floppy 5.ico"
       x="-65"
       y="0.49576783" />
    <path
       style="fill:url(#linearGradient3186);fill-opacity:1;fill-rule:evenodd;stroke:url(#linearGradient3194);stroke-width:2.09184551;stroke-linecap:round;stroke-linejoin:round;stroke-miterlimit:4;stroke-dasharray:none;stroke-opacity:1"
       d="M 1.0533242,0.045992667 L 63.946003,0.045992667 L 63.946003,62.94642 L 1.0533242,62.94642 L 1.0533242,0.045992667 z "
       id="path5932" />
    <rect
       style="opacity:0.70070424;fill:url(#linearGradient3133);fill-opacity:1;fill-rule:evenodd;stroke:#000000;stroke-width:0;stroke-linecap:round;stroke-linejoin:round;stroke-miterlimit:4;stroke-dasharray:none;stroke-dashoffset:0;stroke-opacity:1"
       id="rect5942"
       width="56"
       height="58"
       x="80"
       y="16"
       rx="0" />
    <rect
       style="opacity:0.70070424;fill:url(#linearGradient5116);fill-opacity:1.0;fill-rule:evenodd;stroke:#000000;stroke-width:0;stroke-linecap:round;stroke-linejoin:round;stroke-miterlimit:4;stroke-dasharray:none;stroke-dashoffset:0;stroke-opacity:1"
       id="rect5934"
       width="50"
       height="34.539299"
       x="8"
       y="4"
       rx="23.5"
       ry="0" />
    <rect
       style="opacity:0.702;fill:url(#linearGradient3246);fill-opacity:1.0;fill-rule:evenodd;stroke:#000000;stroke-width:0;stroke-linecap:round;stroke-linejoin:round;stroke-miterlimit:4;stroke-dasharray:none;stroke-dashoffset:0;stroke-opacity:1"
       id="rect5944"
       width="38"
       height="22"
       x="20"
       y="40" />
    <rect
       style="opacity:1;fill:url(#linearGradient3227);fill-opacity:1.0;fill-rule:evenodd;stroke:#000000;stroke-width:0;stroke-linecap:round;stroke-linejoin:round;stroke-miterlimit:4;stroke-dasharray:none;stroke-dashoffset:0;stroke-opacity:1"
       id="rect5946"
       width="32"
       height="20.452236"
       x="16"
       y="41.547764" />
    <rect
       style="opacity:1;fill:#bbbbbb;fill-opacity:1;fill-rule:evenodd;stroke:#000000;stroke-width:0;stroke-linecap:round;stroke-linejoin:round;stroke-miterlimit:4;stroke-dasharray:none;stroke-dashoffset:0;stroke-opacity:1"
       id="rect5948"
       width="9"
       height="18"
       x="25"
       y="44" />
    <g
       id="g5136">
      <rect
         ry="0"
         rx="23.603386"
         y="1"
         x="10"
         height="8.7502413"
         width="46"
         id="rect5940"
         style="opacity:1;fill:#d9d9d9;fill-opacity:1;fill-rule:evenodd;stroke:#cccccc;stroke-width:0;stroke-linecap:round;stroke-linejoin:round;stroke-miterlimit:4;stroke-dasharray:none;stroke-dashoffset:0;stroke-opacity:1" />
      <path
         id="path3260"
         d="M 10.999863,15.766031 L 54.988827,15.766031"
         style="opacity:1;fill:#d9d9d9;fill-opacity:1;fill-rule:evenodd;stroke:#cccccc;stroke-width:2.04544568;stroke-linecap:round;stroke-linejoin:round;stroke-miterlimit:4;stroke-dasharray:none;stroke-opacity:1" />
      <use
         style="opacity:1;fill:#d9d9d9;fill-opacity:1;stroke:#cccccc;stroke-linecap:round;stroke-linejoin:round;stroke-opacity:1"
         height="64"
         width="64"
         transform="translate(1.082467e-15,19.14115)"
         id="use3262"
         xlink:href="#path3260"
         y="0"
         x="0" />
      <use
         style="opacity:1;fill:#d9d9d9;fill-opacity:1;stroke:#cccccc;stroke-linecap:round;stroke-linejoin:round;stroke-opacity:1"
         height="64"
         width="64"
         transform="translate(-1.082467e-15,-6.56268)"
         id="use3264"
         xlink:href="#use3262"
         y="0"
         x="0" />
      <use
         style="opacity:1;fill:#d9d9d9;fill-opacity:1;stroke:#cccccc;stroke-linecap:round;stroke-linejoin:round;stroke-opacity:1"
         height="64"
         width="64"
         transform="translate(1.908196e-15,-6.56268)"
         id="use3266"
         xlink:href="#use3264"
         y="0"
         x="0" />
    </g>
    <rect
       y="7"
       x="59"
       height="1"
       width="1.5221843"
       id="use5132"
       style="fill:#d9d9d9;fill-opacity:1;fill-rule:evenodd;stroke:#cccccc;stroke-width:2;stroke-linecap:round;stroke-linejoin:round;stroke-miterlimit:4;stroke-dasharray:none;stroke-dashoffset:0;stroke-opacity:1" />
  </g>
</svg>
