<?xml version="1.0" encoding="UTF-8" standalone="no"?>
<!-- Created with Inkscape (http://www.inkscape.org/) -->
<svg
   xmlns:dc="http://purl.org/dc/elements/1.1/"
   xmlns:cc="http://web.resource.org/cc/"
   xmlns:rdf="http://www.w3.org/1999/02/22-rdf-syntax-ns#"
   xmlns:svg="http://www.w3.org/2000/svg"
   xmlns="http://www.w3.org/2000/svg"
   xmlns:xlink="http://www.w3.org/1999/xlink"
   xmlns:sodipodi="http://inkscape.sourceforge.net/DTD/sodipodi-0.dtd"
   xmlns:inkscape="http://www.inkscape.org/namespaces/inkscape"
   width="64px"
   height="64px"
   id="svg21387"
   sodipodi:version="0.32"
   inkscape:version="0.43"
   sodipodi:docbase="Z:\Visual Studio 2008\Projects\GameLoader 2008\Resources\Inkscape\Icons"
   sodipodi:docname="Question mark.svg"
   inkscape:export-filename="Z:\Visual Studio 2008\Projects\GameLoader 2008\Resources\Inkscape\Icons\Question mark2b.png"
   inkscape:export-xdpi="90"
   inkscape:export-ydpi="90">
  <defs
     id="defs21389">
    <linearGradient
       id="linearGradient24047">
      <stop
         id="stop24049"
         offset="0"
         style="stop-color:#4f84d6;stop-opacity:1;" />
      <stop
         id="stop24051"
         offset="1"
         style="stop-color:#074872;stop-opacity:0.89380533;" />
    </linearGradient>
    <linearGradient
       id="linearGradient20449">
      <stop
         style="stop-color:#a4a4a4;stop-opacity:1;"
         offset="0"
         id="stop20451" />
      <stop
         style="stop-color:#a4a4a4;stop-opacity:0;"
         offset="1"
         id="stop20453" />
    </linearGradient>
    <radialGradient
       inkscape:collect="always"
       xlink:href="#linearGradient20449"
       id="radialGradient20488"
       gradientUnits="userSpaceOnUse"
       gradientTransform="matrix(1.229875,-1.182255e-17,-6.565603e-17,8.269028e-2,-7.011195,51.89566)"
       cx="30.5"
       cy="90.265427"
       fx="30.5"
       fy="90.265427"
       r="33" />
    <linearGradient
       inkscape:collect="always"
       xlink:href="#linearGradient24047"
       id="linearGradient24045"
       x1="16.916676"
       y1="24.741648"
       x2="45.580582"
       y2="24.741648"
       gradientUnits="userSpaceOnUse" />
    <linearGradient
       inkscape:collect="always"
       xlink:href="#linearGradient24047"
       id="linearGradient24067"
       x1="35.830711"
       y1="45.11729"
       x2="39.23579"
       y2="45.11729"
       gradientUnits="userSpaceOnUse"
       gradientTransform="matrix(0.499999,0,0,0.584947,22.82792,19.21452)" />
  </defs>
  <sodipodi:namedview
     id="base"
     pagecolor="#ffffff"
     bordercolor="#666666"
     borderopacity="1.0"
     inkscape:pageopacity="0.0"
     inkscape:pageshadow="2"
     inkscape:zoom="12.921875"
     inkscape:cx="45.657377"
     inkscape:cy="32"
     inkscape:current-layer="layer1"
     showgrid="true"
     inkscape:document-units="px"
     inkscape:grid-bbox="true"
     inkscape:window-width="1400"
     inkscape:window-height="994"
     inkscape:window-x="-4"
     inkscape:window-y="-4" />
  <metadata
     id="metadata21392">
    <rdf:RDF>
      <cc:Work
         rdf:about="">
        <dc:format>image/svg+xml</dc:format>
        <dc:type
           rdf:resource="http://purl.org/dc/dcmitype/StillImage" />
      </cc:Work>
    </rdf:RDF>
  </metadata>
  <g
     id="layer1"
     inkscape:label="Layer 1"
     inkscape:groupmode="layer">
    <rect
       style="fill:url(#radialGradient20488);fill-opacity:1;fill-rule:evenodd;stroke:none;stroke-width:3;stroke-linecap:round;stroke-linejoin:round;stroke-miterlimit:4;stroke-dasharray:none;stroke-dashoffset:0;stroke-opacity:1"
       id="rect19574"
       width="73"
       height="14"
       x="-1"
       y="50" />
    <path
       style="fill:none;fill-opacity:1;fill-rule:evenodd;stroke:url(#linearGradient24045);stroke-width:8;stroke-linecap:round;stroke-linejoin:round;stroke-miterlimit:4;stroke-dasharray:none;stroke-opacity:1"
       d="M 10.554825,20.597384 C 3.97327,12.016415 13.730753,2.5588441 24.281548,4.53285 C 33.107829,6.184207 36.807801,14.723089 31.880251,19.831586 C 28.173595,23.674356 24.086267,26.637615 23.551198,27.122608 C 17.923628,32.219194 19.167884,38.723829 19.167884,38.723829"
       id="path21400"
       sodipodi:nodetypes="csssc" />
    <path
       sodipodi:type="arc"
       style="opacity:1;fill:url(#linearGradient24067);fill-opacity:1;fill-rule:evenodd;stroke:none;stroke-width:3;stroke-linecap:round;stroke-linejoin:round;stroke-miterlimit:4;stroke-dasharray:none;stroke-dashoffset:0;stroke-opacity:1"
       id="path22275"
       sodipodi:cx="37.533253"
       sodipodi:cy="45.11729"
       sodipodi:rx="1.7025393"
       sodipodi:ry="1.7025393"
       d="M 39.235792,45.11729 A 1.7025393,1.7025393 0 1 1 39.235735,45.103347"
       sodipodi:start="0"
       sodipodi:end="6.2749955"
       transform="matrix(2.349434,0,0,2.510306,-68.72363,-61.98434)"
       sodipodi:open="true" />
    <image
       xlink:href="Floppy_Blue.svg-path5932-770.png"
       sodipodi:absref="Z:\Visual Studio 2008\Projects\GameLoader 2008\Resources\Inkscape\Icons\Floppy_Blue.svg-path5932-770.png"
       width="26.907001"
       height="26.971088"
       id="image27235"
       x="35.092999"
       y="26.500605" />
    <image
       xlink:href="WhenProfileIsSaved.svg-g20490-4294967221.png"
       sodipodi:absref="Z:\Visual Studio 2008\Projects\GameLoader 2008\Resources\Inkscape\Icons\WhenProfileIsSaved.svg-g20490-4294967221.png"
       width="23"
       height="23"
       id="image20499"
       x="76.567719"
       y="20" />
  </g>
</svg>
