<?xml version="1.0" encoding="UTF-8" standalone="no"?>
<!-- Created with Inkscape (http://www.inkscape.org/) -->
<svg
   xmlns:dc="http://purl.org/dc/elements/1.1/"
   xmlns:cc="http://web.resource.org/cc/"
   xmlns:rdf="http://www.w3.org/1999/02/22-rdf-syntax-ns#"
   xmlns:svg="http://www.w3.org/2000/svg"
   xmlns="http://www.w3.org/2000/svg"
   xmlns:xlink="http://www.w3.org/1999/xlink"
   xmlns:sodipodi="http://inkscape.sourceforge.net/DTD/sodipodi-0.dtd"
   xmlns:inkscape="http://www.inkscape.org/namespaces/inkscape"
   width="64px"
   height="64px"
   id="svg16976"
   sodipodi:version="0.32"
   inkscape:version="0.43"
   sodipodi:docbase="C:\Documents and Settings\Marek\My Documents\Visual Studio 2008\Projects\GameLoader 2008\Resources\Inkscape"
   sodipodi:docname="Reload.svg"
   inkscape:export-filename="C:\Documents and Settings\Marek\My Documents\Visual Studio 2008\Projects\GameLoader 2008\Resources\Inkscape\Icons\Reload.png"
   inkscape:export-xdpi="90"
   inkscape:export-ydpi="90">
  <defs
     id="defs16978">
    <linearGradient
       id="linearGradient20560">
      <stop
         style="stop-color:#878787;stop-opacity:1;"
         offset="0"
         id="stop20562" />
      <stop
         style="stop-color:#000000;stop-opacity:0;"
         offset="1"
         id="stop20564" />
    </linearGradient>
    <linearGradient
       id="linearGradient19671">
      <stop
         id="stop19673"
         offset="0"
         style="stop-color:#8e8e8e;stop-opacity:1;" />
      <stop
         id="stop19675"
         offset="1"
         style="stop-color:#d0d0d0;stop-opacity:0;" />
    </linearGradient>
    <linearGradient
       id="linearGradient18760">
      <stop
         id="stop18766"
         offset="0"
         style="stop-color:#ff4f00;stop-opacity:0.83529413;" />
      <stop
         style="stop-color:#eae56e;stop-opacity:0.67010307;"
         offset="1"
         id="stop18764" />
    </linearGradient>
    <linearGradient
       inkscape:collect="always"
       xlink:href="#linearGradient18760"
       id="linearGradient19661"
       x1="9.2091904"
       y1="29.314604"
       x2="58.160645"
       y2="29.314604"
       gradientUnits="userSpaceOnUse" />
    <radialGradient
       inkscape:collect="always"
       xlink:href="#linearGradient19671"
       id="radialGradient20566"
       cx="32.270859"
       cy="54.868198"
       fx="32.270859"
       fy="54.868198"
       r="29.746675"
       gradientTransform="matrix(1,0,0,0.214325,0,43.10858)"
       gradientUnits="userSpaceOnUse" />
  </defs>
  <sodipodi:namedview
     id="base"
     pagecolor="#ffffff"
     bordercolor="#666666"
     borderopacity="1.0"
     inkscape:pageopacity="0.0"
     inkscape:pageshadow="2"
     inkscape:zoom="9.546875"
     inkscape:cx="32"
     inkscape:cy="32"
     inkscape:current-layer="layer1"
     showgrid="true"
     inkscape:document-units="px"
     inkscape:grid-bbox="true"
     inkscape:window-width="1284"
     inkscape:window-height="778"
     inkscape:window-x="-4"
     inkscape:window-y="-4" />
  <metadata
     id="metadata16981">
    <rdf:RDF>
      <cc:Work
         rdf:about="">
        <dc:format>image/svg+xml</dc:format>
        <dc:type
           rdf:resource="http://purl.org/dc/dcmitype/StillImage" />
      </cc:Work>
    </rdf:RDF>
  </metadata>
  <g
     id="layer1"
     inkscape:label="Layer 1"
     inkscape:groupmode="layer">
    <path
       style="fill:url(#linearGradient19661);fill-opacity:1.0;fill-rule:evenodd;stroke:#cf0614;stroke-width:3;stroke-linecap:round;stroke-linejoin:round;stroke-miterlimit:4;stroke-dasharray:none;stroke-opacity:1"
       d="M 16.008648,37.536774 C 15.395216,38.31891 23.43473,34.445984 23.4896,34.748819 C 23.095719,38.048102 20.972371,47.42344 19.794047,46.846339 L 4.3603514,47.338978 C 6.0435122,44.491901 8.1170681,42.466467 8.7701323,40.282091 C -4.083116,-11.999561 75.013458,-4.899313 43.46995,51.908279 L 31.570313,40.209368 C 57.433927,8.4909346 13.194284,7.1964418 16.008648,37.536774 z "
       id="path17859"
       sodipodi:nodetypes="cccccccc" />
    <path
       sodipodi:type="arc"
       style="opacity:1;fill:url(#radialGradient20566);fill-opacity:1.0;fill-rule:evenodd;stroke:none;stroke-width:3;stroke-linecap:round;stroke-linejoin:round;stroke-miterlimit:4;stroke-dasharray:none;stroke-dashoffset:0;stroke-opacity:1"
       id="path19677"
       sodipodi:cx="32.270859"
       sodipodi:cy="54.868198"
       sodipodi:rx="28.246675"
       sodipodi:ry="4.8754535"
       d="M 60.517534,54.868198 A 28.246675,4.8754535 0 1 1 60.516587,54.82827"
       sodipodi:start="0"
       sodipodi:end="6.2749955"
       sodipodi:open="true"
       transform="matrix(1,0,0,0.769369,0,14.12466)" />
  </g>
</svg>
