<?xml version="1.0" encoding="UTF-8" standalone="no"?>
<!-- Created with Inkscape (http://www.inkscape.org/) -->
<svg
   xmlns:dc="http://purl.org/dc/elements/1.1/"
   xmlns:cc="http://web.resource.org/cc/"
   xmlns:rdf="http://www.w3.org/1999/02/22-rdf-syntax-ns#"
   xmlns:svg="http://www.w3.org/2000/svg"
   xmlns="http://www.w3.org/2000/svg"
   xmlns:xlink="http://www.w3.org/1999/xlink"
   xmlns:sodipodi="http://inkscape.sourceforge.net/DTD/sodipodi-0.dtd"
   xmlns:inkscape="http://www.inkscape.org/namespaces/inkscape"
   width="64px"
   height="64px"
   id="svg7208"
   sodipodi:version="0.32"
   inkscape:version="0.43"
   sodipodi:docbase="C:\Documents and Settings\Marek\My Documents\Visual Studio 2008\Projects\ProGammaX\Resources\Inkscape\Icons"
   sodipodi:docname="Rename.svg"
   inkscape:export-filename="C:\Documents and Settings\Marek\My Documents\Visual Studio 2008\Projects\ProGammaX\Resources\Inkscape\Icons\Rename.png"
   inkscape:export-xdpi="90"
   inkscape:export-ydpi="90">
  <defs
     id="defs7210">
    <linearGradient
       id="linearGradient9863">
      <stop
         style="stop-color:#373737;stop-opacity:0.81443298;"
         offset="0"
         id="stop9865" />
      <stop
         style="stop-color:#000000;stop-opacity:0.88659793;"
         offset="1"
         id="stop9867" />
    </linearGradient>
    <linearGradient
       id="linearGradient8099">
      <stop
         style="stop-color:#7e7e7e;stop-opacity:1;"
         offset="0"
         id="stop8101" />
      <stop
         style="stop-color:#343434;stop-opacity:0;"
         offset="1"
         id="stop8103" />
    </linearGradient>
    <radialGradient
       inkscape:collect="always"
       xlink:href="#linearGradient8099"
       id="radialGradient8105"
       cx="35.993069"
       cy="59.729637"
       fx="35.993069"
       fy="59.729637"
       r="16.138649"
       gradientTransform="matrix(0.990056,-1.390701e-6,1.006096e-7,0.223368,7.47287e-2,46.38802)"
       gradientUnits="userSpaceOnUse" />
    <linearGradient
       inkscape:collect="always"
       xlink:href="#linearGradient9863"
       id="linearGradient9869"
       x1="1.171875"
       y1="8.1712931"
       x2="8.390625"
       y2="8.1712931"
       gradientUnits="userSpaceOnUse" />
  </defs>
  <sodipodi:namedview
     id="base"
     pagecolor="#ffffff"
     bordercolor="#666666"
     borderopacity="1.0"
     inkscape:pageopacity="0.0"
     inkscape:pageshadow="2"
     inkscape:zoom="9.015625"
     inkscape:cx="32"
     inkscape:cy="30.683522"
     inkscape:current-layer="layer1"
     showgrid="true"
     inkscape:document-units="px"
     inkscape:grid-bbox="true"
     inkscape:window-width="1280"
     inkscape:window-height="744"
     inkscape:window-x="-4"
     inkscape:window-y="-4" />
  <metadata
     id="metadata7213">
    <rdf:RDF>
      <cc:Work
         rdf:about="">
        <dc:format>image/svg+xml</dc:format>
        <dc:type
           rdf:resource="http://purl.org/dc/dcmitype/StillImage" />
      </cc:Work>
    </rdf:RDF>
  </metadata>
  <g
     id="layer1"
     inkscape:label="Layer 1"
     inkscape:groupmode="layer">
    <flowRoot
       xml:space="preserve"
       id="flowRoot7216"
       transform="matrix(6.330366,0,0,5.752809,7.035608,-18.10339)"
       style="fill-opacity:1.0;fill:url(#linearGradient9869)"><flowRegion
         id="flowRegion7218"
         style="fill-opacity:1.0;fill:url(#linearGradient9869)"><rect
           id="rect7220"
           width="64.110916"
           height="64"
           x="0"
           y="0.11091854"
           style="fill-opacity:1.0;fill:url(#linearGradient9869)" /></flowRegion><flowPara
         id="flowPara7222"
         style="fill-opacity:1.0;fill:url(#linearGradient9869)">R</flowPara></flowRoot>    <path
       sodipodi:type="arc"
       style="opacity:1;fill:url(#radialGradient8105);fill-opacity:1;fill-rule:evenodd;stroke:none;stroke-width:1.89999998;stroke-linejoin:round;stroke-miterlimit:4;stroke-dasharray:none;stroke-opacity:1"
       id="path7224"
       sodipodi:cx="35.993069"
       sodipodi:cy="59.729637"
       sodipodi:rx="16.138649"
       sodipodi:ry="3.6048527"
       d="M 52.131718,59.729637 A 16.138649,3.6048527 0 1 1 52.131176,59.700114"
       sodipodi:start="0"
       sodipodi:end="6.2749955"
       sodipodi:open="true"
       transform="matrix(1.765947,0,0,1,-30.06186,0)" />
  </g>
</svg>
