<?xml version="1.0" encoding="UTF-8" standalone="no"?>
<!-- Created with Inkscape (http://www.inkscape.org/) -->
<svg
   xmlns:dc="http://purl.org/dc/elements/1.1/"
   xmlns:cc="http://web.resource.org/cc/"
   xmlns:rdf="http://www.w3.org/1999/02/22-rdf-syntax-ns#"
   xmlns:svg="http://www.w3.org/2000/svg"
   xmlns="http://www.w3.org/2000/svg"
   xmlns:xlink="http://www.w3.org/1999/xlink"
   xmlns:sodipodi="http://inkscape.sourceforge.net/DTD/sodipodi-0.dtd"
   xmlns:inkscape="http://www.inkscape.org/namespaces/inkscape"
   width="64px"
   height="64px"
   id="svg5728"
   sodipodi:version="0.32"
   inkscape:version="0.43"
   sodipodi:docbase="Z:\Visual Studio 2008\Projects\GameLoader 2008\Resources\Inkscape\Icons"
   sodipodi:docname="Setup1.svg"
   inkscape:export-filename="Z:\Visual Studio 2008\Projects\GameLoader 2008\Resources\Inkscape\Icons\Setup1_flat1a.png"
   inkscape:export-xdpi="90"
   inkscape:export-ydpi="90">
  <defs
     id="defs5730">
    <radialGradient
       inkscape:collect="always"
       xlink:href="#linearGradient3095"
       id="radialGradient4810"
       cx="32.270859"
       cy="59.472794"
       fx="32.270859"
       fy="59.472794"
       r="29.562273"
       gradientTransform="matrix(0.923821,1.77027e-14,-6.828041e-15,1.599586e-2,2.629379,58.41776)"
       gradientUnits="userSpaceOnUse" />
    <linearGradient
       id="linearGradient3095">
      <stop
         id="stop5778"
         offset="0"
         style="stop-color:#7c7c7c;stop-opacity:1;" />
      <stop
         style="stop-color:#616161;stop-opacity:0;"
         offset="1"
         id="stop5780" />
      <stop
         style="stop-color:#000000;stop-opacity:0.63716817;"
         offset="1"
         id="stop3099" />
    </linearGradient>
    <radialGradient
       inkscape:collect="always"
       xlink:href="#linearGradient3095"
       id="radialGradient4528"
       gradientUnits="userSpaceOnUse"
       gradientTransform="matrix(1.459778,0,0,0.21546,-82.36337,18.13047)"
       cx="-34.128174"
       cy="43.337364"
       fx="-34.128174"
       fy="43.337364"
       r="23.293833" />
    <radialGradient
       inkscape:collect="always"
       xlink:href="#linearGradient6454"
       id="radialGradient4526"
       gradientUnits="userSpaceOnUse"
       gradientTransform="matrix(1.459778,0,0,-1.680811,-28.36759,78.20305)"
       spreadMethod="pad"
       cx="-46.40625"
       cy="13.298975"
       fx="-46.40625"
       fy="13.298975"
       r="22.594551" />
    <radialGradient
       inkscape:collect="always"
       xlink:href="#linearGradient6454"
       id="radialGradient4524"
       gradientUnits="userSpaceOnUse"
       gradientTransform="matrix(1.459778,0,0,-1.680811,-18.10562,69.07307)"
       spreadMethod="pad"
       cx="-46.40625"
       cy="13.298975"
       fx="-46.40625"
       fy="13.298975"
       r="22.594551" />
    <radialGradient
       inkscape:collect="always"
       xlink:href="#linearGradient6454"
       id="radialGradient4522"
       gradientUnits="userSpaceOnUse"
       gradientTransform="matrix(1.459778,0,0,1.559902,137.6406,-21.87471)"
       spreadMethod="pad"
       cx="-46.40625"
       cy="13.298975"
       fx="-46.40625"
       fy="13.298975"
       r="22.594551" />
    <radialGradient
       inkscape:collect="always"
       xlink:href="#linearGradient6454"
       id="radialGradient4520"
       gradientUnits="userSpaceOnUse"
       gradientTransform="matrix(1.459778,0,0,1.559902,137.6406,-21.87471)"
       spreadMethod="pad"
       cx="-46.40625"
       cy="13.298975"
       fx="-46.40625"
       fy="13.298975"
       r="22.594551" />
    <radialGradient
       inkscape:collect="always"
       xlink:href="#linearGradient6454"
       id="radialGradient4518"
       gradientUnits="userSpaceOnUse"
       gradientTransform="matrix(1.459778,0,0,1.559902,137.6406,-21.87471)"
       spreadMethod="pad"
       cx="-46.40625"
       cy="13.298975"
       fx="-46.40625"
       fy="13.298975"
       r="22.594551" />
    <radialGradient
       inkscape:collect="always"
       xlink:href="#linearGradient6454"
       id="radialGradient4516"
       gradientUnits="userSpaceOnUse"
       gradientTransform="matrix(1.459778,0,0,1.559902,137.6406,-21.87471)"
       spreadMethod="pad"
       cx="-46.40625"
       cy="13.298975"
       fx="-46.40625"
       fy="13.298975"
       r="22.594551" />
    <radialGradient
       inkscape:collect="always"
       xlink:href="#linearGradient6454"
       id="radialGradient4514"
       gradientUnits="userSpaceOnUse"
       gradientTransform="matrix(1.459778,0,0,1.559902,137.6406,-21.87471)"
       spreadMethod="pad"
       cx="-46.40625"
       cy="13.298975"
       fx="-46.40625"
       fy="13.298975"
       r="22.594551" />
    <radialGradient
       inkscape:collect="always"
       xlink:href="#linearGradient6454"
       id="radialGradient4512"
       gradientUnits="userSpaceOnUse"
       gradientTransform="matrix(1.459778,0,0,1.559902,137.6406,-21.87471)"
       spreadMethod="pad"
       cx="-46.40625"
       cy="13.298975"
       fx="-46.40625"
       fy="13.298975"
       r="22.594551" />
    <radialGradient
       inkscape:collect="always"
       xlink:href="#linearGradient6454"
       id="radialGradient4510"
       gradientUnits="userSpaceOnUse"
       gradientTransform="matrix(1.459778,0,0,1.559902,137.6406,-21.87471)"
       spreadMethod="pad"
       cx="-46.40625"
       cy="13.298975"
       fx="-46.40625"
       fy="13.298975"
       r="22.594551" />
    <radialGradient
       inkscape:collect="always"
       xlink:href="#linearGradient6454"
       id="radialGradient4508"
       gradientUnits="userSpaceOnUse"
       gradientTransform="matrix(1.459778,0,0,1.559902,137.6406,-21.87471)"
       spreadMethod="pad"
       cx="-46.40625"
       cy="13.298975"
       fx="-46.40625"
       fy="13.298975"
       r="22.594551" />
    <radialGradient
       inkscape:collect="always"
       xlink:href="#linearGradient6454"
       id="radialGradient4506"
       gradientUnits="userSpaceOnUse"
       gradientTransform="matrix(1.459778,0,0,1.559902,137.6406,-21.87471)"
       spreadMethod="pad"
       cx="-46.40625"
       cy="13.298975"
       fx="-46.40625"
       fy="13.298975"
       r="22.594551" />
    <radialGradient
       inkscape:collect="always"
       xlink:href="#linearGradient6454"
       id="radialGradient4504"
       gradientUnits="userSpaceOnUse"
       gradientTransform="matrix(1.459778,0,0,1.559902,137.6406,-21.87471)"
       spreadMethod="pad"
       cx="-46.40625"
       cy="13.298975"
       fx="-46.40625"
       fy="13.298975"
       r="22.594551" />
    <radialGradient
       inkscape:collect="always"
       xlink:href="#linearGradient6454"
       id="radialGradient4502"
       gradientUnits="userSpaceOnUse"
       gradientTransform="matrix(1.459778,0,0,1.559902,137.6406,-21.87471)"
       spreadMethod="pad"
       cx="-46.40625"
       cy="13.298975"
       fx="-46.40625"
       fy="13.298975"
       r="22.594551" />
    <radialGradient
       inkscape:collect="always"
       xlink:href="#linearGradient6454"
       id="radialGradient4500"
       gradientUnits="userSpaceOnUse"
       gradientTransform="matrix(1.459778,0,0,1.559902,137.6406,-21.87471)"
       spreadMethod="pad"
       cx="-46.40625"
       cy="13.298975"
       fx="-46.40625"
       fy="13.298975"
       r="22.594551" />
    <radialGradient
       inkscape:collect="always"
       xlink:href="#linearGradient6454"
       id="radialGradient4498"
       gradientUnits="userSpaceOnUse"
       gradientTransform="matrix(1.459778,0,0,1.559902,137.6406,-21.87471)"
       spreadMethod="pad"
       cx="-46.40625"
       cy="13.298975"
       fx="-46.40625"
       fy="13.298975"
       r="22.594551" />
    <linearGradient
       id="linearGradient6454">
      <stop
         style="stop-color:#275abf;stop-opacity:1;"
         offset="0"
         id="stop6456" />
      <stop
         style="stop-color:#8dc8ef;stop-opacity:0.48627451;"
         offset="1"
         id="stop6458" />
    </linearGradient>
    <radialGradient
       inkscape:collect="always"
       xlink:href="#linearGradient6454"
       id="radialGradient4496"
       gradientUnits="userSpaceOnUse"
       gradientTransform="matrix(1.459778,0,0,1.559902,137.6406,-21.87471)"
       spreadMethod="pad"
       cx="-46.40625"
       cy="13.298975"
       fx="-46.40625"
       fy="13.298975"
       r="22.594551" />
    <linearGradient
       inkscape:collect="always"
       xlink:href="#linearGradient4377"
       id="linearGradient6480"
       gradientUnits="userSpaceOnUse"
       gradientTransform="matrix(1.477772,-0.245872,4.971949e-3,1.086094,-14.24022,-4.197133)"
       x1="9.5"
       y1="26.942563"
       x2="52"
       y2="26.942563" />
    <linearGradient
       inkscape:collect="always"
       xlink:href="#linearGradient4377"
       id="linearGradient6483"
       gradientUnits="userSpaceOnUse"
       x1="9.5"
       y1="26.942563"
       x2="52"
       y2="26.942563"
       gradientTransform="translate(-7.296224e-6,-8.44574e-7)" />
    <linearGradient
       inkscape:collect="always"
       xlink:href="#linearGradient4377"
       id="linearGradient6486"
       gradientUnits="userSpaceOnUse"
       x1="9.5"
       y1="26.942563"
       x2="52"
       y2="26.942563"
       gradientTransform="translate(-7.296224e-6,-8.44574e-7)" />
    <linearGradient
       inkscape:collect="always"
       xlink:href="#linearGradient4377"
       id="linearGradient6489"
       gradientUnits="userSpaceOnUse"
       gradientTransform="matrix(1.507508,-1.502346e-7,-1.758156e-8,1.086078,-14.32751,-4.313113)"
       x1="9.5"
       y1="26.942563"
       x2="52"
       y2="26.942563" />
    <linearGradient
       inkscape:collect="always"
       xlink:href="#linearGradient4377"
       id="linearGradient3885"
       x1="0.19730139"
       y1="13.686072"
       x2="64.197304"
       y2="13.686072"
       gradientUnits="userSpaceOnUse"
       gradientTransform="translate(-7.011751e-6,-8.44574e-7)" />
    <linearGradient
       id="linearGradient3871">
      <stop
         id="stop3873"
         offset="0"
         style="stop-color:#5ca32d;stop-opacity:1;" />
      <stop
         id="stop3875"
         offset="1"
         style="stop-color:#ffffff;stop-opacity:0.36078432;" />
    </linearGradient>
    <linearGradient
       inkscape:collect="always"
       xlink:href="#linearGradient3871"
       id="linearGradient3869"
       x1="0.19730139"
       y1="13.686072"
       x2="64.197304"
       y2="13.686072"
       gradientUnits="userSpaceOnUse"
       gradientTransform="translate(-7.011751e-6,-8.44574e-7)" />
    <linearGradient
       id="linearGradient4377">
      <stop
         style="stop-color:#000000;stop-opacity:1;"
         offset="0"
         id="stop4379" />
      <stop
         style="stop-color:#000000;stop-opacity:0.64601767;"
         offset="1"
         id="stop4381" />
    </linearGradient>
    <linearGradient
       inkscape:collect="always"
       xlink:href="#linearGradient4377"
       id="linearGradient6497"
       gradientUnits="userSpaceOnUse"
       gradientTransform="matrix(1.507507,-1.773041e-7,0,1.086079,-14.3275,-4.313124)"
       x1="9.5"
       y1="26.942563"
       x2="52"
       y2="26.942563" />
    <linearGradient
       id="linearGradient5256">
      <stop
         id="stop5258"
         offset="0"
         style="stop-color:#bab8cd;stop-opacity:1;" />
      <stop
         id="stop5260"
         offset="1"
         style="stop-color:#9c9c9c;stop-opacity:0.2920354;" />
    </linearGradient>
    <linearGradient
       inkscape:collect="always"
       xlink:href="#linearGradient5256"
       id="linearGradient3877"
       gradientUnits="userSpaceOnUse"
       x1="26.585852"
       y1="35.103989"
       x2="46.5"
       y2="33.711002"
       gradientTransform="translate(-7.296224e-6,-8.44574e-7)" />
    <linearGradient
       y2="35"
       x2="20.582675"
       y1="35"
       x1="0.00015355115"
       gradientUnits="userSpaceOnUse"
       id="linearGradient7604"
       xlink:href="#linearGradient7538"
       inkscape:collect="always"
       gradientTransform="matrix(1.507246,0,0,1.930801,-18.98533,-32.85927)" />
    <linearGradient
       gradientUnits="userSpaceOnUse"
       y2="32.577388"
       x2="64.03688"
       y1="32.577388"
       x1="29.5"
       id="linearGradient7590"
       xlink:href="#linearGradient7584"
       inkscape:collect="always"
       gradientTransform="matrix(1.507246,0,0,1.930801,-18.98533,-32.85927)" />
    <linearGradient
       gradientUnits="userSpaceOnUse"
       y2="31.738608"
       x2="32"
       y1="31.738608"
       x1="19.615318"
       id="linearGradient7582"
       xlink:href="#linearGradient7576"
       inkscape:collect="always"
       gradientTransform="matrix(1.507246,0,0,1.930801,-18.98533,-32.85927)" />
    <linearGradient
       gradientUnits="userSpaceOnUse"
       y2="35"
       x2="20.582675"
       y1="35"
       x1="0.00015355115"
       id="linearGradient7544"
       xlink:href="#linearGradient7538"
       inkscape:collect="always"
       gradientTransform="matrix(1.507246,0,0,1.930801,-18.98533,-32.85927)" />
    <linearGradient
       id="linearGradient7538">
      <stop
         id="stop7540"
         offset="0"
         style="stop-color:#bbbbbb;stop-opacity:1;" />
      <stop
         id="stop7542"
         offset="1"
         style="stop-color:#bbbbbb;stop-opacity:0;" />
    </linearGradient>
    <linearGradient
       id="linearGradient7576"
       inkscape:collect="always">
      <stop
         id="stop7578"
         offset="0"
         style="stop-color:#bbbbbb;stop-opacity:1;" />
      <stop
         id="stop7580"
         offset="1"
         style="stop-color:#bbbbbb;stop-opacity:0;" />
    </linearGradient>
    <linearGradient
       id="linearGradient7584"
       inkscape:collect="always">
      <stop
         id="stop7586"
         offset="0"
         style="stop-color:#bbbbbb;stop-opacity:1;" />
      <stop
         id="stop7588"
         offset="1"
         style="stop-color:#bbbbbb;stop-opacity:0;" />
    </linearGradient>
    <linearGradient
       inkscape:collect="always"
       xlink:href="#linearGradient7584"
       id="linearGradient6930"
       gradientUnits="userSpaceOnUse"
       gradientTransform="translate(-5.01246e-6,-3.1184e-6)"
       x1="29.5"
       y1="32.577388"
       x2="64.03688"
       y2="32.577388" />
    <linearGradient
       inkscape:collect="always"
       xlink:href="#linearGradient7576"
       id="linearGradient6933"
       gradientUnits="userSpaceOnUse"
       gradientTransform="translate(-5.01246e-6,-3.1184e-6)"
       x1="19.615318"
       y1="31.738608"
       x2="32"
       y2="31.738608" />
    <linearGradient
       inkscape:collect="always"
       xlink:href="#linearGradient7538"
       id="linearGradient6936"
       gradientUnits="userSpaceOnUse"
       gradientTransform="translate(-5.01246e-6,-3.1184e-6)"
       x1="0.00015355115"
       y1="35"
       x2="20.582675"
       y2="35" />
    <radialGradient
       r="30.5"
       fy="21.252115"
       fx="26.5"
       cy="21.252115"
       cx="26.5"
       gradientTransform="translate(-76,-14)"
       gradientUnits="userSpaceOnUse"
       id="radialGradient9074"
       xlink:href="#linearGradient9949"
       inkscape:collect="always" />
    <radialGradient
       gradientUnits="userSpaceOnUse"
       gradientTransform="matrix(1,0,0,0.795151,-76,-9.646534)"
       r="30.5"
       fy="21.252115"
       fx="26.5"
       cy="21.252115"
       cx="26.5"
       id="radialGradient9070"
       xlink:href="#linearGradient9064"
       inkscape:collect="always" />
    <linearGradient
       y2="26.942563"
       x2="52"
       y1="26.942563"
       x1="9.5"
       gradientTransform="matrix(1.507508,-1.773041e-7,0,1.086079,-90.32751,-18.31313)"
       gradientUnits="userSpaceOnUse"
       id="linearGradient8187"
       xlink:href="#linearGradient4377"
       inkscape:collect="always" />
    <linearGradient
       y2="13.686072"
       x2="64.197304"
       y1="13.686072"
       x1="0.19730139"
       gradientUnits="userSpaceOnUse"
       id="linearGradient8184"
       xlink:href="#linearGradient4377"
       inkscape:collect="always"
       gradientTransform="translate(-76,-14)" />
    <linearGradient
       y2="13.686072"
       x2="64.197304"
       y1="13.686072"
       x1="0.19730139"
       gradientUnits="userSpaceOnUse"
       id="linearGradient8182"
       xlink:href="#linearGradient3871"
       inkscape:collect="always"
       gradientTransform="translate(-76,-14)" />
    <linearGradient
       y2="26.942563"
       x2="52"
       y1="26.942563"
       x1="9.5"
       gradientTransform="matrix(1.507509,-1.502346e-7,-1.758156e-8,1.086078,-90.32751,-18.31312)"
       gradientUnits="userSpaceOnUse"
       id="linearGradient8179"
       xlink:href="#linearGradient4377"
       inkscape:collect="always" />
    <linearGradient
       y2="26.942563"
       x2="52"
       y1="26.942563"
       x1="9.5"
       gradientUnits="userSpaceOnUse"
       id="linearGradient8176"
       xlink:href="#linearGradient4377"
       inkscape:collect="always"
       gradientTransform="translate(-76,-14)" />
    <linearGradient
       y2="26.942563"
       x2="52"
       y1="26.942563"
       x1="9.5"
       gradientUnits="userSpaceOnUse"
       id="linearGradient8173"
       xlink:href="#linearGradient4377"
       inkscape:collect="always"
       gradientTransform="translate(-76,-14)" />
    <linearGradient
       y2="26.942563"
       x2="52"
       y1="26.942563"
       x1="9.5"
       gradientTransform="matrix(1.477304,-0.247251,7.216347e-3,1.086021,-89.99717,-17.44836)"
       gradientUnits="userSpaceOnUse"
       id="linearGradient8170"
       xlink:href="#linearGradient4377"
       inkscape:collect="always" />
    <radialGradient
       r="23.293833"
       fy="43.337364"
       fx="-34.128174"
       cy="43.337364"
       cx="-34.128174"
       gradientTransform="matrix(1.432808,0,0,0.221755,-184.9417,0.158111)"
       gradientUnits="userSpaceOnUse"
       id="radialGradient8146"
       xlink:href="#linearGradient3095"
       inkscape:collect="always" />
    <radialGradient
       r="22.594551"
       fy="13.298975"
       fx="-46.40625"
       cy="13.298975"
       cx="-46.40625"
       spreadMethod="pad"
       gradientTransform="matrix(1.432808,0,0,-1.729918,-156.0984,100.019)"
       gradientUnits="userSpaceOnUse"
       id="radialGradient8144"
       xlink:href="#linearGradient6454"
       inkscape:collect="always" />
    <radialGradient
       r="22.594551"
       fy="13.298975"
       fx="-46.40625"
       cy="13.298975"
       cx="-46.40625"
       spreadMethod="pad"
       gradientTransform="matrix(1.432808,0,0,-1.729918,-79.56708,80.47028)"
       gradientUnits="userSpaceOnUse"
       id="radialGradient8142"
       xlink:href="#linearGradient6454"
       inkscape:collect="always" />
    <radialGradient
       r="22.594551"
       fy="13.298975"
       fx="-46.40625"
       cy="13.298975"
       cx="-46.40625"
       spreadMethod="pad"
       gradientTransform="matrix(1.432808,0,0,1.605477,33.20647,-40.89776)"
       gradientUnits="userSpaceOnUse"
       id="radialGradient8140"
       xlink:href="#linearGradient6454"
       inkscape:collect="always" />
    <radialGradient
       r="22.594551"
       fy="13.298975"
       fx="-46.40625"
       cy="13.298975"
       cx="-46.40625"
       spreadMethod="pad"
       gradientTransform="matrix(1.432808,0,0,1.605477,33.20647,-40.89776)"
       gradientUnits="userSpaceOnUse"
       id="radialGradient8138"
       xlink:href="#linearGradient6454"
       inkscape:collect="always" />
    <radialGradient
       r="22.594551"
       fy="13.298975"
       fx="-46.40625"
       cy="13.298975"
       cx="-46.40625"
       spreadMethod="pad"
       gradientTransform="matrix(1.432808,0,0,1.605477,33.20647,-40.89776)"
       gradientUnits="userSpaceOnUse"
       id="radialGradient8136"
       xlink:href="#linearGradient6454"
       inkscape:collect="always" />
    <radialGradient
       r="22.594551"
       fy="13.298975"
       fx="-46.40625"
       cy="13.298975"
       cx="-46.40625"
       spreadMethod="pad"
       gradientTransform="matrix(1.432808,0,0,1.605477,33.20647,-40.89776)"
       gradientUnits="userSpaceOnUse"
       id="radialGradient8134"
       xlink:href="#linearGradient6454"
       inkscape:collect="always" />
    <radialGradient
       r="22.594551"
       fy="13.298975"
       fx="-46.40625"
       cy="13.298975"
       cx="-46.40625"
       spreadMethod="pad"
       gradientTransform="matrix(1.432808,0,0,1.605477,33.20647,-40.89776)"
       gradientUnits="userSpaceOnUse"
       id="radialGradient8132"
       xlink:href="#linearGradient6454"
       inkscape:collect="always" />
    <radialGradient
       r="22.594551"
       fy="13.298975"
       fx="-46.40625"
       cy="13.298975"
       cx="-46.40625"
       spreadMethod="pad"
       gradientTransform="matrix(1.432808,0,0,1.605477,33.20647,-40.89776)"
       gradientUnits="userSpaceOnUse"
       id="radialGradient8130"
       xlink:href="#linearGradient6454"
       inkscape:collect="always" />
    <radialGradient
       r="22.594551"
       fy="13.298975"
       fx="-46.40625"
       cy="13.298975"
       cx="-46.40625"
       spreadMethod="pad"
       gradientTransform="matrix(1.432808,0,0,1.605477,33.20647,-40.89776)"
       gradientUnits="userSpaceOnUse"
       id="radialGradient8128"
       xlink:href="#linearGradient6454"
       inkscape:collect="always" />
    <radialGradient
       r="22.594551"
       fy="13.298975"
       fx="-46.40625"
       cy="13.298975"
       cx="-46.40625"
       spreadMethod="pad"
       gradientTransform="matrix(1.432808,0,0,1.605477,33.20647,-40.89776)"
       gradientUnits="userSpaceOnUse"
       id="radialGradient8126"
       xlink:href="#linearGradient6454"
       inkscape:collect="always" />
    <radialGradient
       r="22.594551"
       fy="13.298975"
       fx="-46.40625"
       cy="13.298975"
       cx="-46.40625"
       spreadMethod="pad"
       gradientTransform="matrix(1.432808,0,0,1.605477,33.20647,-40.89776)"
       gradientUnits="userSpaceOnUse"
       id="radialGradient8124"
       xlink:href="#linearGradient6454"
       inkscape:collect="always" />
    <radialGradient
       r="22.594551"
       fy="13.298975"
       fx="-46.40625"
       cy="13.298975"
       cx="-46.40625"
       spreadMethod="pad"
       gradientTransform="matrix(1.432808,0,0,1.605477,33.20647,-40.89776)"
       gradientUnits="userSpaceOnUse"
       id="radialGradient8122"
       xlink:href="#linearGradient6454"
       inkscape:collect="always" />
    <radialGradient
       r="22.594551"
       fy="13.298975"
       fx="-46.40625"
       cy="13.298975"
       cx="-46.40625"
       spreadMethod="pad"
       gradientTransform="matrix(1.432808,0,0,1.605477,33.20647,-40.89776)"
       gradientUnits="userSpaceOnUse"
       id="radialGradient8120"
       xlink:href="#linearGradient6454"
       inkscape:collect="always" />
    <radialGradient
       r="22.594551"
       fy="13.298975"
       fx="-46.40625"
       cy="13.298975"
       cx="-46.40625"
       spreadMethod="pad"
       gradientTransform="matrix(1.432808,0,0,1.605477,33.20647,-40.89776)"
       gradientUnits="userSpaceOnUse"
       id="radialGradient8118"
       xlink:href="#linearGradient6454"
       inkscape:collect="always" />
    <radialGradient
       r="22.594551"
       fy="13.298975"
       fx="-46.40625"
       cy="13.298975"
       cx="-46.40625"
       spreadMethod="pad"
       gradientTransform="matrix(1.432808,0,0,1.605477,33.20647,-40.89776)"
       gradientUnits="userSpaceOnUse"
       id="radialGradient8116"
       xlink:href="#linearGradient6454"
       inkscape:collect="always" />
    <radialGradient
       r="22.594551"
       fy="13.298975"
       fx="-46.40625"
       cy="13.298975"
       cx="-46.40625"
       spreadMethod="pad"
       gradientTransform="matrix(1.432808,0,0,1.605477,33.20647,-40.89776)"
       gradientUnits="userSpaceOnUse"
       id="radialGradient8114"
       xlink:href="#linearGradient6454"
       inkscape:collect="always" />
    <linearGradient
       id="linearGradient4128">
      <stop
         style="stop-color:#d8b03c;stop-opacity:1;"
         offset="0"
         id="stop4130" />
      <stop
         style="stop-color:#4997e6;stop-opacity:0.56470591;"
         offset="1"
         id="stop4132" />
    </linearGradient>
    <linearGradient
       id="linearGradient12482">
      <stop
         id="stop12484"
         offset="0"
         style="stop-color:#000000;stop-opacity:1;" />
      <stop
         id="stop12486"
         offset="1"
         style="stop-color:#000000;stop-opacity:0.64601767;" />
    </linearGradient>
    <linearGradient
       id="linearGradient12476">
      <stop
         style="stop-color:#f0f0f4;stop-opacity:1;"
         offset="0"
         id="stop12478" />
      <stop
         style="stop-color:#ededed;stop-opacity:0.29019609;"
         offset="1"
         id="stop12480" />
    </linearGradient>
    <linearGradient
       id="linearGradient12470">
      <stop
         style="stop-color:#344cbc;stop-opacity:1;"
         offset="0"
         id="stop12472" />
      <stop
         style="stop-color:#348eff;stop-opacity:0.36283186;"
         offset="1"
         id="stop12474" />
    </linearGradient>
    <linearGradient
       id="linearGradient12464">
      <stop
         id="stop12466"
         offset="0"
         style="stop-color:#275abf;stop-opacity:1;" />
      <stop
         id="stop12468"
         offset="1"
         style="stop-color:#8dc8ef;stop-opacity:0.48627451;" />
    </linearGradient>
    <linearGradient
       id="linearGradient12456">
      <stop
         style="stop-color:#7c7c7c;stop-opacity:1;"
         offset="0"
         id="stop12458" />
      <stop
         id="stop12460"
         offset="1"
         style="stop-color:#616161;stop-opacity:0;" />
      <stop
         id="stop12462"
         offset="1"
         style="stop-color:#000000;stop-opacity:0.63716817;" />
    </linearGradient>
    <linearGradient
       id="linearGradient9064">
      <stop
         id="stop9066"
         offset="0"
         style="stop-color:#ffffff;stop-opacity:0.79646015;" />
      <stop
         id="stop9068"
         offset="1"
         style="stop-color:#ffffff;stop-opacity:0;" />
    </linearGradient>
    <linearGradient
       id="linearGradient9949">
      <stop
         style="stop-color:#7c7c7c;stop-opacity:1;"
         offset="0"
         id="stop9951" />
      <stop
         style="stop-color:#bcbcbc;stop-opacity:0.59292036;"
         offset="1"
         id="stop9953" />
    </linearGradient>
    <radialGradient
       inkscape:collect="always"
       xlink:href="#linearGradient9064"
       id="radialGradient13425"
       gradientUnits="userSpaceOnUse"
       gradientTransform="matrix(1,0,0,0.795151,0,4.353466)"
       cx="26.5"
       cy="21.252115"
       fx="26.5"
       fy="21.252115"
       r="30.5" />
    <linearGradient
       inkscape:collect="always"
       xlink:href="#linearGradient4377"
       id="linearGradient13446"
       gradientUnits="userSpaceOnUse"
       gradientTransform="matrix(1.477305,-0.247251,7.21635e-3,1.086021,-14.2493,-4.183446)"
       x1="9.5"
       y1="26.942563"
       x2="52"
       y2="26.942563" />
    <linearGradient
       inkscape:collect="always"
       xlink:href="#linearGradient4377"
       id="linearGradient13449"
       gradientUnits="userSpaceOnUse"
       x1="9.5"
       y1="26.942563"
       x2="52"
       y2="26.942563" />
    <linearGradient
       inkscape:collect="always"
       xlink:href="#linearGradient4377"
       id="linearGradient13452"
       gradientUnits="userSpaceOnUse"
       x1="9.5"
       y1="26.942563"
       x2="52"
       y2="26.942563" />
    <linearGradient
       inkscape:collect="always"
       xlink:href="#linearGradient4377"
       id="linearGradient13455"
       gradientUnits="userSpaceOnUse"
       gradientTransform="matrix(1.507509,-1.502346e-7,-1.758156e-8,1.086078,-14.32751,-4.31312)"
       x1="9.5"
       y1="26.942563"
       x2="52"
       y2="26.942563" />
    <linearGradient
       inkscape:collect="always"
       xlink:href="#linearGradient3871"
       id="linearGradient13458"
       gradientUnits="userSpaceOnUse"
       x1="0.19730139"
       y1="13.686072"
       x2="64.197304"
       y2="13.686072" />
    <linearGradient
       inkscape:collect="always"
       xlink:href="#linearGradient4377"
       id="linearGradient13460"
       gradientUnits="userSpaceOnUse"
       x1="0.19730139"
       y1="13.686072"
       x2="64.197304"
       y2="13.686072" />
    <linearGradient
       inkscape:collect="always"
       xlink:href="#linearGradient4377"
       id="linearGradient13463"
       gradientUnits="userSpaceOnUse"
       gradientTransform="matrix(1.507508,-1.773041e-7,0,1.086079,-14.32751,-4.31313)"
       x1="9.5"
       y1="26.942563"
       x2="52"
       y2="26.942563" />
    <radialGradient
       inkscape:collect="always"
       xlink:href="#linearGradient9949"
       id="radialGradient13466"
       gradientUnits="userSpaceOnUse"
       cx="26.5"
       cy="21.252115"
       fx="26.5"
       fy="21.252115"
       r="30.5" />
    <radialGradient
       inkscape:collect="always"
       xlink:href="#linearGradient9949"
       id="radialGradient13516"
       gradientUnits="userSpaceOnUse"
       cx="26.5"
       cy="21.252115"
       fx="26.5"
       fy="21.252115"
       r="30.5"
       gradientTransform="translate(5.555361,4)" />
    <linearGradient
       inkscape:collect="always"
       xlink:href="#linearGradient4377"
       id="linearGradient13518"
       gradientUnits="userSpaceOnUse"
       gradientTransform="matrix(1.507508,-1.773041e-7,0,1.086079,-8.772149,-0.31313)"
       x1="9.5"
       y1="26.942563"
       x2="52"
       y2="26.942563" />
    <linearGradient
       inkscape:collect="always"
       xlink:href="#linearGradient3871"
       id="linearGradient13520"
       gradientUnits="userSpaceOnUse"
       x1="0.19730139"
       y1="13.686072"
       x2="64.197304"
       y2="13.686072"
       gradientTransform="translate(5.555361,4)" />
    <linearGradient
       inkscape:collect="always"
       xlink:href="#linearGradient4377"
       id="linearGradient13522"
       gradientUnits="userSpaceOnUse"
       x1="0.19730139"
       y1="13.686072"
       x2="64.197304"
       y2="13.686072"
       gradientTransform="translate(5.555361,4)" />
    <linearGradient
       inkscape:collect="always"
       xlink:href="#linearGradient4377"
       id="linearGradient13524"
       gradientUnits="userSpaceOnUse"
       gradientTransform="matrix(1.507509,-1.502346e-7,-1.758156e-8,1.086078,-8.772149,-0.31312)"
       x1="9.5"
       y1="26.942563"
       x2="52"
       y2="26.942563" />
    <linearGradient
       inkscape:collect="always"
       xlink:href="#linearGradient4377"
       id="linearGradient13526"
       gradientUnits="userSpaceOnUse"
       x1="9.5"
       y1="26.942563"
       x2="52"
       y2="26.942563"
       gradientTransform="translate(5.555361,4)" />
    <linearGradient
       inkscape:collect="always"
       xlink:href="#linearGradient4377"
       id="linearGradient13528"
       gradientUnits="userSpaceOnUse"
       x1="9.5"
       y1="26.942563"
       x2="52"
       y2="26.942563"
       gradientTransform="translate(5.555361,4)" />
    <linearGradient
       inkscape:collect="always"
       xlink:href="#linearGradient4377"
       id="linearGradient13530"
       gradientUnits="userSpaceOnUse"
       gradientTransform="matrix(1.477305,-0.247251,7.21635e-3,1.086021,-8.769766,-0.236066)"
       x1="9.5"
       y1="26.942563"
       x2="52"
       y2="26.942563" />
    <radialGradient
       inkscape:collect="always"
       xlink:href="#linearGradient6454"
       id="radialGradient13532"
       gradientUnits="userSpaceOnUse"
       gradientTransform="matrix(1.432808,0,0,1.605477,41.16627,-35.21705)"
       spreadMethod="pad"
       cx="-46.40625"
       cy="13.298975"
       fx="-46.40625"
       fy="13.298975"
       r="22.594551" />
    <radialGradient
       inkscape:collect="always"
       xlink:href="#linearGradient6454"
       id="radialGradient13534"
       gradientUnits="userSpaceOnUse"
       gradientTransform="matrix(1.432808,0,0,1.605477,41.16627,-35.21705)"
       spreadMethod="pad"
       cx="-46.40625"
       cy="13.298975"
       fx="-46.40625"
       fy="13.298975"
       r="22.594551" />
    <radialGradient
       inkscape:collect="always"
       xlink:href="#linearGradient6454"
       id="radialGradient13536"
       gradientUnits="userSpaceOnUse"
       gradientTransform="matrix(1.432808,0,0,1.605477,41.16627,-35.21705)"
       spreadMethod="pad"
       cx="-46.40625"
       cy="13.298975"
       fx="-46.40625"
       fy="13.298975"
       r="22.594551" />
    <radialGradient
       inkscape:collect="always"
       xlink:href="#linearGradient6454"
       id="radialGradient13538"
       gradientUnits="userSpaceOnUse"
       gradientTransform="matrix(1.432808,0,0,1.605477,41.16627,-35.21705)"
       spreadMethod="pad"
       cx="-46.40625"
       cy="13.298975"
       fx="-46.40625"
       fy="13.298975"
       r="22.594551" />
    <radialGradient
       inkscape:collect="always"
       xlink:href="#linearGradient6454"
       id="radialGradient13540"
       gradientUnits="userSpaceOnUse"
       gradientTransform="matrix(1.432808,0,0,1.605477,41.16627,-35.21705)"
       spreadMethod="pad"
       cx="-46.40625"
       cy="13.298975"
       fx="-46.40625"
       fy="13.298975"
       r="22.594551" />
    <radialGradient
       inkscape:collect="always"
       xlink:href="#linearGradient6454"
       id="radialGradient13542"
       gradientUnits="userSpaceOnUse"
       gradientTransform="matrix(1.432808,0,0,1.605477,41.16627,-35.21705)"
       spreadMethod="pad"
       cx="-46.40625"
       cy="13.298975"
       fx="-46.40625"
       fy="13.298975"
       r="22.594551" />
    <radialGradient
       inkscape:collect="always"
       xlink:href="#linearGradient6454"
       id="radialGradient13544"
       gradientUnits="userSpaceOnUse"
       gradientTransform="matrix(1.432808,0,0,1.605477,41.16627,-35.21705)"
       spreadMethod="pad"
       cx="-46.40625"
       cy="13.298975"
       fx="-46.40625"
       fy="13.298975"
       r="22.594551" />
    <radialGradient
       inkscape:collect="always"
       xlink:href="#linearGradient6454"
       id="radialGradient13546"
       gradientUnits="userSpaceOnUse"
       gradientTransform="matrix(1.432808,0,0,1.605477,41.16627,-35.21705)"
       spreadMethod="pad"
       cx="-46.40625"
       cy="13.298975"
       fx="-46.40625"
       fy="13.298975"
       r="22.594551" />
    <radialGradient
       inkscape:collect="always"
       xlink:href="#linearGradient6454"
       id="radialGradient13548"
       gradientUnits="userSpaceOnUse"
       gradientTransform="matrix(1.432808,0,0,1.605477,41.16627,-35.21705)"
       spreadMethod="pad"
       cx="-46.40625"
       cy="13.298975"
       fx="-46.40625"
       fy="13.298975"
       r="22.594551" />
    <radialGradient
       inkscape:collect="always"
       xlink:href="#linearGradient6454"
       id="radialGradient13550"
       gradientUnits="userSpaceOnUse"
       gradientTransform="matrix(1.432808,0,0,1.605477,41.16627,-35.21705)"
       spreadMethod="pad"
       cx="-46.40625"
       cy="13.298975"
       fx="-46.40625"
       fy="13.298975"
       r="22.594551" />
    <radialGradient
       inkscape:collect="always"
       xlink:href="#linearGradient6454"
       id="radialGradient13552"
       gradientUnits="userSpaceOnUse"
       gradientTransform="matrix(1.432808,0,0,1.605477,41.16627,-35.21705)"
       spreadMethod="pad"
       cx="-46.40625"
       cy="13.298975"
       fx="-46.40625"
       fy="13.298975"
       r="22.594551" />
    <radialGradient
       inkscape:collect="always"
       xlink:href="#linearGradient6454"
       id="radialGradient13554"
       gradientUnits="userSpaceOnUse"
       gradientTransform="matrix(1.432808,0,0,1.605477,41.16627,-35.21705)"
       spreadMethod="pad"
       cx="-46.40625"
       cy="13.298975"
       fx="-46.40625"
       fy="13.298975"
       r="22.594551" />
    <radialGradient
       inkscape:collect="always"
       xlink:href="#linearGradient6454"
       id="radialGradient13556"
       gradientUnits="userSpaceOnUse"
       gradientTransform="matrix(1.432808,0,0,1.605477,41.16627,-35.21705)"
       spreadMethod="pad"
       cx="-46.40625"
       cy="13.298975"
       fx="-46.40625"
       fy="13.298975"
       r="22.594551" />
    <radialGradient
       inkscape:collect="always"
       xlink:href="#linearGradient6454"
       id="radialGradient13558"
       gradientUnits="userSpaceOnUse"
       gradientTransform="matrix(1.432808,0,0,1.605477,41.16627,-35.21705)"
       spreadMethod="pad"
       cx="-46.40625"
       cy="13.298975"
       fx="-46.40625"
       fy="13.298975"
       r="22.594551" />
    <radialGradient
       inkscape:collect="always"
       xlink:href="#linearGradient6454"
       id="radialGradient13560"
       gradientUnits="userSpaceOnUse"
       gradientTransform="matrix(1.432808,0,0,-1.729918,-74.78751,77.29082)"
       spreadMethod="pad"
       cx="-46.40625"
       cy="13.298975"
       fx="-46.40625"
       fy="13.298975"
       r="22.594551" />
    <radialGradient
       inkscape:collect="always"
       xlink:href="#linearGradient6454"
       id="radialGradient13562"
       gradientUnits="userSpaceOnUse"
       gradientTransform="matrix(1.432808,0,0,-1.729918,-146.2069,93.63921)"
       spreadMethod="pad"
       cx="-46.40625"
       cy="13.298975"
       fx="-46.40625"
       fy="13.298975"
       r="22.594551" />
    <radialGradient
       inkscape:collect="always"
       xlink:href="#linearGradient3095"
       id="radialGradient13564"
       gradientUnits="userSpaceOnUse"
       gradientTransform="matrix(1.432808,0,0,0.221755,-176.9819,5.838818)"
       cx="-34.128174"
       cy="43.337364"
       fx="-34.128174"
       fy="43.337364"
       r="23.293833" />
    <radialGradient
       inkscape:collect="always"
       xlink:href="#linearGradient9064"
       id="radialGradient13566"
       gradientUnits="userSpaceOnUse"
       gradientTransform="matrix(1,0,0,0.795151,5.555361,8.35347)"
       cx="26.5"
       cy="21.252115"
       fx="26.5"
       fy="21.252115"
       r="30.5" />
    <linearGradient
       inkscape:collect="always"
       xlink:href="#linearGradient5256"
       id="linearGradient13568"
       gradientUnits="userSpaceOnUse"
       gradientTransform="matrix(1.108734,0,0,1,-3.352151e-4,-8.44574e-7)"
       x1="26.585852"
       y1="35.103989"
       x2="46.5"
       y2="33.711002" />
    <linearGradient
       inkscape:collect="always"
       xlink:href="#linearGradient4377"
       id="linearGradient13570"
       gradientUnits="userSpaceOnUse"
       gradientTransform="matrix(1.671425,-1.773041e-7,0,1.086079,-15.88572,-4.313124)"
       x1="9.5"
       y1="26.942563"
       x2="52"
       y2="26.942563" />
    <linearGradient
       inkscape:collect="always"
       xlink:href="#linearGradient3871"
       id="linearGradient13572"
       gradientUnits="userSpaceOnUse"
       gradientTransform="matrix(1.108734,0,0,1,-3.348997e-4,-8.44574e-7)"
       x1="0.19730139"
       y1="13.686072"
       x2="64.197304"
       y2="13.686072" />
    <linearGradient
       inkscape:collect="always"
       xlink:href="#linearGradient4377"
       id="linearGradient13574"
       gradientUnits="userSpaceOnUse"
       gradientTransform="matrix(1.108734,0,0,1,-3.348997e-4,-8.44574e-7)"
       x1="0.19730139"
       y1="13.686072"
       x2="64.197304"
       y2="13.686072" />
    <linearGradient
       inkscape:collect="always"
       xlink:href="#linearGradient4377"
       id="linearGradient13576"
       gradientUnits="userSpaceOnUse"
       gradientTransform="matrix(1.671426,-1.502346e-7,-1.949328e-8,1.086078,-15.88573,-4.313113)"
       x1="9.5"
       y1="26.942563"
       x2="52"
       y2="26.942563" />
    <linearGradient
       inkscape:collect="always"
       xlink:href="#linearGradient4377"
       id="linearGradient13578"
       gradientUnits="userSpaceOnUse"
       gradientTransform="matrix(1.108734,0,0,1,-3.352151e-4,-8.44574e-7)"
       x1="9.5"
       y1="26.942563"
       x2="52"
       y2="26.942563" />
    <linearGradient
       inkscape:collect="always"
       xlink:href="#linearGradient4377"
       id="linearGradient13580"
       gradientUnits="userSpaceOnUse"
       gradientTransform="matrix(1.108734,0,0,1,-3.352151e-4,-8.44574e-7)"
       x1="9.5"
       y1="26.942563"
       x2="52"
       y2="26.942563" />
    <linearGradient
       inkscape:collect="always"
       xlink:href="#linearGradient4377"
       id="linearGradient13582"
       gradientUnits="userSpaceOnUse"
       gradientTransform="matrix(1.637916,-0.247281,8.033416e-3,1.086067,-15.79898,-4.183421)"
       x1="9.5"
       y1="26.942563"
       x2="52"
       y2="26.942563" />
    <linearGradient
       inkscape:collect="always"
       xlink:href="#linearGradient7538"
       id="linearGradient13584"
       gradientUnits="userSpaceOnUse"
       gradientTransform="matrix(1.108734,0,0,1,-3.32683e-4,-3.1184e-6)"
       x1="0.00015355115"
       y1="35"
       x2="20.582675"
       y2="35" />
    <linearGradient
       inkscape:collect="always"
       xlink:href="#linearGradient7576"
       id="linearGradient13586"
       gradientUnits="userSpaceOnUse"
       gradientTransform="matrix(1.108734,0,0,1,-3.32683e-4,-3.1184e-6)"
       x1="19.615318"
       y1="31.738608"
       x2="32"
       y2="31.738608" />
    <linearGradient
       inkscape:collect="always"
       xlink:href="#linearGradient7584"
       id="linearGradient13588"
       gradientUnits="userSpaceOnUse"
       gradientTransform="matrix(1.108734,0,0,1,-3.32683e-4,-3.1184e-6)"
       x1="29.5"
       y1="32.577388"
       x2="64.03688"
       y2="32.577388" />
    <radialGradient
       inkscape:collect="always"
       xlink:href="#linearGradient9064"
       id="radialGradient13591"
       gradientUnits="userSpaceOnUse"
       gradientTransform="matrix(1,0,0,0.795151,-4.218584e-6,4.35347)"
       cx="13.03581"
       cy="17.865541"
       fx="13.03581"
       fy="17.865541"
       r="30.5" />
    <linearGradient
       inkscape:collect="always"
       xlink:href="#linearGradient4377"
       id="linearGradient13612"
       gradientUnits="userSpaceOnUse"
       gradientTransform="matrix(1.477307,-0.247251,7.216356e-3,1.086021,-14.2493,-4.183444)"
       x1="9.5"
       y1="26.942563"
       x2="52"
       y2="26.942563" />
    <linearGradient
       inkscape:collect="always"
       xlink:href="#linearGradient4377"
       id="linearGradient13615"
       gradientUnits="userSpaceOnUse"
       x1="9.5"
       y1="26.942563"
       x2="52"
       y2="26.942563" />
    <linearGradient
       inkscape:collect="always"
       xlink:href="#linearGradient4377"
       id="linearGradient13618"
       gradientUnits="userSpaceOnUse"
       x1="9.5"
       y1="26.942563"
       x2="52"
       y2="26.942563" />
    <linearGradient
       inkscape:collect="always"
       xlink:href="#linearGradient4377"
       id="linearGradient13621"
       gradientUnits="userSpaceOnUse"
       gradientTransform="matrix(1.507509,-1.502346e-7,-1.758156e-8,1.086078,-14.32751,-4.31312)"
       x1="9.5"
       y1="26.942563"
       x2="52"
       y2="26.942563" />
    <linearGradient
       inkscape:collect="always"
       xlink:href="#linearGradient3871"
       id="linearGradient13624"
       gradientUnits="userSpaceOnUse"
       x1="0.19730139"
       y1="13.686072"
       x2="64.197304"
       y2="13.686072" />
    <linearGradient
       inkscape:collect="always"
       xlink:href="#linearGradient4377"
       id="linearGradient13626"
       gradientUnits="userSpaceOnUse"
       x1="0.19730139"
       y1="13.686072"
       x2="64.197304"
       y2="13.686072" />
    <linearGradient
       inkscape:collect="always"
       xlink:href="#linearGradient4377"
       id="linearGradient13629"
       gradientUnits="userSpaceOnUse"
       gradientTransform="matrix(1.507508,-1.773041e-7,0,1.086079,-14.32751,-4.31313)"
       x1="9.5"
       y1="26.942563"
       x2="52"
       y2="26.942563" />
    <radialGradient
       inkscape:collect="always"
       xlink:href="#linearGradient9949"
       id="radialGradient13632"
       gradientUnits="userSpaceOnUse"
       cx="26.5"
       cy="21.252115"
       fx="26.5"
       fy="21.252115"
       r="30.5"
       gradientTransform="translate(-2.429199e-6,4.992676e-7)" />
    <radialGradient
       inkscape:collect="always"
       xlink:href="#linearGradient6454"
       id="radialGradient13634"
       gradientUnits="userSpaceOnUse"
       gradientTransform="matrix(1.432808,0,0,1.605477,33.28847,-38.76148)"
       spreadMethod="pad"
       cx="-46.40625"
       cy="13.298975"
       fx="-46.40625"
       fy="13.298975"
       r="22.594551" />
    <radialGradient
       inkscape:collect="always"
       xlink:href="#linearGradient6454"
       id="radialGradient13636"
       gradientUnits="userSpaceOnUse"
       gradientTransform="matrix(1.432808,0,0,1.605477,33.28847,-38.76148)"
       spreadMethod="pad"
       cx="-46.40625"
       cy="13.298975"
       fx="-46.40625"
       fy="13.298975"
       r="22.594551" />
    <radialGradient
       inkscape:collect="always"
       xlink:href="#linearGradient6454"
       id="radialGradient13638"
       gradientUnits="userSpaceOnUse"
       gradientTransform="matrix(1.432808,0,0,1.605477,33.28847,-38.76148)"
       spreadMethod="pad"
       cx="-46.40625"
       cy="13.298975"
       fx="-46.40625"
       fy="13.298975"
       r="22.594551" />
    <radialGradient
       inkscape:collect="always"
       xlink:href="#linearGradient6454"
       id="radialGradient13640"
       gradientUnits="userSpaceOnUse"
       gradientTransform="matrix(1.432808,0,0,1.605477,33.28847,-38.76148)"
       spreadMethod="pad"
       cx="-46.40625"
       cy="13.298975"
       fx="-46.40625"
       fy="13.298975"
       r="22.594551" />
    <radialGradient
       inkscape:collect="always"
       xlink:href="#linearGradient6454"
       id="radialGradient13642"
       gradientUnits="userSpaceOnUse"
       gradientTransform="matrix(1.432808,0,0,1.605477,33.28847,-38.76148)"
       spreadMethod="pad"
       cx="-46.40625"
       cy="13.298975"
       fx="-46.40625"
       fy="13.298975"
       r="22.594551" />
    <radialGradient
       inkscape:collect="always"
       xlink:href="#linearGradient6454"
       id="radialGradient13644"
       gradientUnits="userSpaceOnUse"
       gradientTransform="matrix(1.432808,0,0,1.605477,33.28847,-38.76148)"
       spreadMethod="pad"
       cx="-46.40625"
       cy="13.298975"
       fx="-46.40625"
       fy="13.298975"
       r="22.594551" />
    <radialGradient
       inkscape:collect="always"
       xlink:href="#linearGradient6454"
       id="radialGradient13646"
       gradientUnits="userSpaceOnUse"
       gradientTransform="matrix(1.432808,0,0,1.605477,33.28847,-38.76148)"
       spreadMethod="pad"
       cx="-46.40625"
       cy="13.298975"
       fx="-46.40625"
       fy="13.298975"
       r="22.594551" />
    <radialGradient
       inkscape:collect="always"
       xlink:href="#linearGradient6454"
       id="radialGradient13648"
       gradientUnits="userSpaceOnUse"
       gradientTransform="matrix(1.432808,0,0,1.605477,33.28847,-38.76148)"
       spreadMethod="pad"
       cx="-46.40625"
       cy="13.298975"
       fx="-46.40625"
       fy="13.298975"
       r="22.594551" />
    <radialGradient
       inkscape:collect="always"
       xlink:href="#linearGradient6454"
       id="radialGradient13650"
       gradientUnits="userSpaceOnUse"
       gradientTransform="matrix(1.432808,0,0,1.605477,33.28847,-38.76148)"
       spreadMethod="pad"
       cx="-46.40625"
       cy="13.298975"
       fx="-46.40625"
       fy="13.298975"
       r="22.594551" />
    <radialGradient
       inkscape:collect="always"
       xlink:href="#linearGradient6454"
       id="radialGradient13652"
       gradientUnits="userSpaceOnUse"
       gradientTransform="matrix(1.432808,0,0,1.605477,33.28847,-38.76148)"
       spreadMethod="pad"
       cx="-46.40625"
       cy="13.298975"
       fx="-46.40625"
       fy="13.298975"
       r="22.594551" />
    <radialGradient
       inkscape:collect="always"
       xlink:href="#linearGradient6454"
       id="radialGradient13654"
       gradientUnits="userSpaceOnUse"
       gradientTransform="matrix(1.432808,0,0,1.605477,33.28847,-38.76148)"
       spreadMethod="pad"
       cx="-46.40625"
       cy="13.298975"
       fx="-46.40625"
       fy="13.298975"
       r="22.594551" />
    <radialGradient
       inkscape:collect="always"
       xlink:href="#linearGradient6454"
       id="radialGradient13656"
       gradientUnits="userSpaceOnUse"
       gradientTransform="matrix(1.432808,0,0,1.605477,33.28847,-38.76148)"
       spreadMethod="pad"
       cx="-46.40625"
       cy="13.298975"
       fx="-46.40625"
       fy="13.298975"
       r="22.594551" />
    <radialGradient
       inkscape:collect="always"
       xlink:href="#linearGradient6454"
       id="radialGradient13658"
       gradientUnits="userSpaceOnUse"
       gradientTransform="matrix(1.432808,0,0,1.605477,33.28847,-38.76148)"
       spreadMethod="pad"
       cx="-46.40625"
       cy="13.298975"
       fx="-46.40625"
       fy="13.298975"
       r="22.594551" />
    <radialGradient
       inkscape:collect="always"
       xlink:href="#linearGradient6454"
       id="radialGradient13660"
       gradientUnits="userSpaceOnUse"
       gradientTransform="matrix(1.432808,0,0,1.605477,33.28847,-38.76148)"
       spreadMethod="pad"
       cx="-46.40625"
       cy="13.298975"
       fx="-46.40625"
       fy="13.298975"
       r="22.594551" />
    <radialGradient
       inkscape:collect="always"
       xlink:href="#linearGradient6454"
       id="radialGradient13662"
       gradientUnits="userSpaceOnUse"
       gradientTransform="matrix(1.432808,0,0,-1.729918,-79.51787,79.27462)"
       spreadMethod="pad"
       cx="-46.40625"
       cy="13.298975"
       fx="-46.40625"
       fy="13.298975"
       r="22.594551" />
    <radialGradient
       inkscape:collect="always"
       xlink:href="#linearGradient6454"
       id="radialGradient13664"
       gradientUnits="userSpaceOnUse"
       gradientTransform="matrix(1.432808,0,0,-1.729918,-155.9966,97.61983)"
       spreadMethod="pad"
       cx="-46.40625"
       cy="13.298975"
       fx="-46.40625"
       fy="13.298975"
       r="22.594551" />
    <radialGradient
       inkscape:collect="always"
       xlink:href="#linearGradient3095"
       id="radialGradient13666"
       gradientUnits="userSpaceOnUse"
       gradientTransform="matrix(1.432808,0,0,0.221755,-184.8597,2.294386)"
       cx="-34.128174"
       cy="43.337364"
       fx="-34.128174"
       fy="43.337364"
       r="23.293833" />
    <linearGradient
       inkscape:collect="always"
       xlink:href="#linearGradient7584"
       id="linearGradient15518"
       gradientUnits="userSpaceOnUse"
       gradientTransform="translate(-5.012346e-6,-3.1184e-6)"
       x1="29.5"
       y1="32.577388"
       x2="64.03688"
       y2="32.577388" />
    <linearGradient
       inkscape:collect="always"
       xlink:href="#linearGradient7576"
       id="linearGradient15521"
       gradientUnits="userSpaceOnUse"
       gradientTransform="translate(-5.012346e-6,-3.1184e-6)"
       x1="19.615318"
       y1="31.738608"
       x2="32"
       y2="31.738608" />
    <linearGradient
       inkscape:collect="always"
       xlink:href="#linearGradient7538"
       id="linearGradient15524"
       gradientUnits="userSpaceOnUse"
       gradientTransform="translate(-5.012346e-6,-3.1184e-6)"
       x1="0.00015355115"
       y1="35"
       x2="20.582675"
       y2="35" />
    <linearGradient
       inkscape:collect="always"
       xlink:href="#linearGradient4377"
       id="linearGradient15530"
       gradientUnits="userSpaceOnUse"
       gradientTransform="matrix(1.477297,-0.24727,7.245634e-3,1.086021,-14.24939,-4.183245)"
       x1="9.5"
       y1="26.942563"
       x2="52"
       y2="26.942563" />
    <linearGradient
       inkscape:collect="always"
       xlink:href="#linearGradient4377"
       id="linearGradient15533"
       gradientUnits="userSpaceOnUse"
       gradientTransform="translate(-7.29612e-6,-8.44574e-7)"
       x1="9.5"
       y1="26.942563"
       x2="52"
       y2="26.942563" />
    <linearGradient
       inkscape:collect="always"
       xlink:href="#linearGradient4377"
       id="linearGradient15536"
       gradientUnits="userSpaceOnUse"
       gradientTransform="translate(-7.29612e-6,-8.44574e-7)"
       x1="9.5"
       y1="26.942563"
       x2="52"
       y2="26.942563" />
    <linearGradient
       inkscape:collect="always"
       xlink:href="#linearGradient4377"
       id="linearGradient15539"
       gradientUnits="userSpaceOnUse"
       gradientTransform="matrix(1.507508,-1.502346e-7,-1.758155e-8,1.086078,-14.32751,-4.313113)"
       x1="9.5"
       y1="26.942563"
       x2="52"
       y2="26.942563" />
    <linearGradient
       inkscape:collect="always"
       xlink:href="#linearGradient3871"
       id="linearGradient15542"
       gradientUnits="userSpaceOnUse"
       gradientTransform="translate(-7.011652e-6,-8.44574e-7)"
       x1="0.19730139"
       y1="13.686072"
       x2="64.197304"
       y2="13.686072" />
    <linearGradient
       inkscape:collect="always"
       xlink:href="#linearGradient4377"
       id="linearGradient15544"
       gradientUnits="userSpaceOnUse"
       gradientTransform="translate(-7.011652e-6,-8.44574e-7)"
       x1="0.19730139"
       y1="13.686072"
       x2="64.197304"
       y2="13.686072" />
    <linearGradient
       inkscape:collect="always"
       xlink:href="#linearGradient4377"
       id="linearGradient15549"
       gradientUnits="userSpaceOnUse"
       gradientTransform="matrix(1.507507,-1.773041e-7,0,1.086079,-14.3275,-4.313124)"
       x1="9.5"
       y1="26.942563"
       x2="52"
       y2="26.942563" />
  </defs>
  <sodipodi:namedview
     id="base"
     pagecolor="#ffffff"
     bordercolor="#666666"
     borderopacity="1.0"
     inkscape:pageopacity="0.0"
     inkscape:pageshadow="2"
     inkscape:zoom="9.283886"
     inkscape:cx="70.501504"
     inkscape:cy="22.769624"
     inkscape:current-layer="layer1"
     showgrid="true"
     inkscape:document-units="px"
     inkscape:grid-bbox="true"
     inkscape:window-width="1400"
     inkscape:window-height="994"
     inkscape:window-x="-4"
     inkscape:window-y="-4" />
  <metadata
     id="metadata5733">
    <rdf:RDF>
      <cc:Work
         rdf:about="">
        <dc:format>image/svg+xml</dc:format>
        <dc:type
           rdf:resource="http://purl.org/dc/dcmitype/StillImage" />
      </cc:Work>
    </rdf:RDF>
  </metadata>
  <g
     id="layer1"
     inkscape:label="Layer 1"
     inkscape:groupmode="layer">
    <rect
       style="fill:url(#radialGradient13632);fill-opacity:1;fill-rule:evenodd;stroke:none;stroke-width:3;stroke-linecap:round;stroke-linejoin:round;stroke-miterlimit:4;stroke-dasharray:none;stroke-dashoffset:0;stroke-opacity:1"
       id="rect9072"
       width="61"
       height="48.50423"
       x="5"
       y="20"
       rx="11.530834"
       ry="0.69649339" />
    <path
       style="fill:#ffffff;fill-opacity:1;fill-rule:evenodd;stroke:url(#linearGradient15549);stroke-width:3.34180403;stroke-linecap:round;stroke-linejoin:round;stroke-miterlimit:4;stroke-dasharray:none;stroke-opacity:1"
       d="M 56.413124,14.208645 L 56.413124,54.230207 L 1.8232737,54.240599 L 1.6317301,13.833556 L 56.413124,14.208645 z "
       id="path3221"
       sodipodi:nodetypes="ccccc" />
    <rect
       style="fill:url(#linearGradient15542);fill-opacity:1;fill-rule:evenodd;stroke:url(#linearGradient15544);stroke-width:3.58214879;stroke-linecap:butt;stroke-linejoin:miter;stroke-miterlimit:4;stroke-dasharray:none;stroke-dashoffset:0;stroke-opacity:1"
       id="rect1594"
       width="54.455902"
       height="12.370909"
       x="1.7039908"
       y="1.8424588"
       ry="1.9995441"
       rx="1.9995434" />
    <path
       style="fill:none;fill-opacity:0.75;fill-rule:evenodd;stroke:url(#linearGradient15539);stroke-width:1.90378726;stroke-linecap:round;stroke-linejoin:round;stroke-miterlimit:4;stroke-dasharray:none;stroke-opacity:1"
       d="M 42.261257,9.0649801 C 39.036305,9.0767801 39.036305,9.0767801 39.036305,9.0767801"
       id="path4436" />
    <path
       style="fill:none;fill-opacity:0.75;fill-rule:evenodd;stroke:url(#linearGradient15536);stroke-width:1.90378702;stroke-linecap:round;stroke-linejoin:round;stroke-miterlimit:4;stroke-dasharray:none;stroke-opacity:1"
       d="M 49.599969,6.0529971 L 53.01946,9.3907081"
       id="path6474" />
    <path
       style="fill:none;fill-opacity:0.75;fill-rule:evenodd;stroke:url(#linearGradient15533);stroke-width:1.90378702;stroke-linecap:round;stroke-linejoin:round;stroke-miterlimit:4;stroke-dasharray:none;stroke-opacity:1"
       d="M 49.681502,9.2953881 L 52.997664,6.1615631"
       id="path6476" />
    <rect
       style="opacity:0.4;fill:none;fill-opacity:1;fill-rule:evenodd;stroke:url(#linearGradient15530);stroke-width:1.90418029;stroke-linecap:round;stroke-linejoin:round;stroke-miterlimit:4;stroke-dasharray:none;stroke-dashoffset:0;stroke-opacity:1"
       id="rect6478"
       width="3.1916423"
       height="3.4139783"
       x="44.349766"
       y="5.200809"
       rx="0"
       ry="1.9995393"
       transform="matrix(0.999952,9.750614e-3,1.924807e-2,0.999815,0,0)" />
    <path
       sodipodi:nodetypes="ccccscccccccccc"
       id="path7602"
       d="M 16.328939,22.795623 L 14.800026,22.795623 L 12.761477,25.903143 L 12.761477,30.046503 C 12.761477,30.046503 16.171179,32.952365 16.171179,33.160285 C 16.171179,33.368204 16.29258,48.598935 16.29258,48.598935 L 20.857746,48.651542 L 20.800436,32.839638 L 23.973497,30.046503 L 23.973497,25.903143 L 21.851755,22.755542 L 20.215,22.755542 L 20.234719,28.378762 L 16.447258,28.338682 L 16.328939,22.795623 z "
       style="fill:#d4ddff;fill-opacity:1;fill-rule:evenodd;stroke:#565c68;stroke-width:1.02752388;stroke-linecap:round;stroke-linejoin:round;stroke-miterlimit:4;stroke-dasharray:none;stroke-opacity:1" />
    <path
       sodipodi:nodetypes="ccccccccccccccccc"
       id="path7598"
       d="M 26.44485,22.960978 L 26.620653,35.788736 L 25.221089,35.868897 L 25.221089,37.66189 L 24.173132,39.02464 L 24.202433,47.423461 L 25.631298,48.964695 L 29.504936,48.934008 L 30.589061,47.263137 L 30.632097,39.223165 L 29.557128,37.740173 L 29.469226,35.828816 L 28.189154,35.748654 L 28.101252,22.960978 L 27.722633,18.984204 L 26.791879,19.024285 L 26.44485,22.960978 z "
       style="fill:#a23a1c;fill-opacity:1;fill-rule:evenodd;stroke:#565c68;stroke-width:0.88565135;stroke-linecap:butt;stroke-linejoin:miter;stroke-miterlimit:4;stroke-dasharray:none;stroke-opacity:1" />
    <path
       sodipodi:nodetypes="cccccccccccccccccccc"
       id="use7592"
       d="M 32.304875,20.045828 L 30.509689,20.045828 L 30.509689,26.260868 L 32.625418,26.34103 L 32.995888,24.546785 L 35.021896,24.466623 L 36.493645,26.260868 L 36.864115,49.036823 L 40.675178,49.12951 L 40.636105,27.032425 L 42.431292,24.306926 L 45.508652,23.986279 L 49.979615,25.860059 L 49.829111,24.182926 L 46.321226,21.599588 L 44.607803,20.366475 L 35.94807,20.206152 L 34.46619,21.682881 L 32.764345,21.682881 L 32.304875,20.045828 z "
       style="fill:#efc788;fill-opacity:1;fill-rule:evenodd;stroke:#565c68;stroke-width:1.11341107;stroke-linecap:butt;stroke-linejoin:round;stroke-miterlimit:4;stroke-dasharray:none;stroke-opacity:1" />
    <path
       style="fill:url(#linearGradient15524);fill-opacity:1;fill-rule:evenodd;stroke:#565c68;stroke-width:1.02752388;stroke-linecap:round;stroke-linejoin:round;stroke-miterlimit:4;stroke-dasharray:none;stroke-opacity:1"
       d="M 15.480818,22.237751 L 13.951906,22.237751 L 11.913357,25.345271 L 11.913357,29.488631 C 11.913357,29.488631 15.323058,32.394493 15.323058,32.602413 C 15.323058,32.810332 15.444459,48.041063 15.444459,48.041063 L 20.009625,48.09367 L 19.952315,32.281767 L 23.125376,29.488631 L 23.125376,25.345271 L 21.003633,22.19767 L 19.366878,22.19767 L 19.386598,27.820891 L 15.599136,27.78081 L 15.480818,22.237751 z "
       id="path6512"
       sodipodi:nodetypes="ccccscccccccccc" />
    <path
       style="fill:url(#linearGradient15521);fill-opacity:1;fill-rule:evenodd;stroke:#565c68;stroke-width:0.88565135;stroke-linecap:butt;stroke-linejoin:miter;stroke-miterlimit:4;stroke-dasharray:none;stroke-opacity:1"
       d="M 25.846454,22.443058 L 26.022257,35.270816 L 24.622693,35.350977 L 24.622693,37.14397 L 23.574737,38.50672 L 23.604038,46.905541 L 25.032902,48.446775 L 28.90654,48.416088 L 29.990665,46.745217 L 30.033701,38.705245 L 28.958732,37.222253 L 28.87083,35.310896 L 27.590759,35.230734 L 27.502857,22.443058 L 27.124238,18.466284 L 26.193483,18.506365 L 25.846454,22.443058 z "
       id="path7406"
       sodipodi:nodetypes="ccccccccccccccccc" />
    <path
       style="fill:url(#linearGradient15518);fill-opacity:1;fill-rule:evenodd;stroke:#565c68;stroke-width:1.11341107;stroke-linecap:butt;stroke-linejoin:round;stroke-miterlimit:4;stroke-dasharray:none;stroke-opacity:1"
       d="M 31.407282,19.34911 L 29.612095,19.34911 L 29.612095,25.56415 L 31.727825,25.644312 L 32.098295,23.850066 L 34.124303,23.769905 L 35.596051,25.56415 L 35.966521,48.340105 L 39.777584,48.432792 L 39.738512,26.335707 L 41.533699,23.610207 L 44.611058,23.28956 L 49.082021,25.163341 L 48.931518,23.486207 L 45.423632,20.90287 L 43.71021,19.669757 L 35.050476,19.509433 L 33.568597,20.986163 L 31.866752,20.986163 L 31.407282,19.34911 z "
       id="path7416"
       sodipodi:nodetypes="cccccccccccccccccccc" />
    <path
       style="fill:#bbbbbb;fill-opacity:1;fill-rule:evenodd;stroke:#565c68;stroke-width:0.55670553px;stroke-linecap:butt;stroke-linejoin:miter;stroke-opacity:1"
       d="M 31.968414,20.64391 C 32.014722,21.67975 32.061031,23.992541 32.061031,23.992541"
       id="path7418" />
    <path
       style="fill:#bbbbbb;fill-opacity:1;fill-rule:evenodd;stroke:#565c68;stroke-width:0.55670553px;stroke-linecap:butt;stroke-linejoin:miter;stroke-opacity:1"
       d="M 33.728146,20.67491 C 33.774454,21.71075 33.820763,24.023542 33.820763,24.023542"
       id="path7420" />
    <path
       style="fill:#bbbbbb;fill-opacity:1;fill-rule:evenodd;stroke:#565c68;stroke-width:0.55670553px;stroke-linecap:butt;stroke-linejoin:miter;stroke-opacity:1"
       d="M 43.638214,19.86703 C 43.684523,20.90287 43.730831,23.215661 43.730831,23.215661"
       id="path7422" />
    <path
       style="fill:#bbbbbb;fill-opacity:1;fill-rule:evenodd;stroke:#565c68;stroke-width:0.55670553px;stroke-linecap:butt;stroke-linejoin:miter;stroke-opacity:1"
       d="M 39.784821,26.001908 C 38.588029,26.041989 35.915871,26.08207 35.915871,26.08207"
       id="path7424" />
    <path
       style="fill:#bbbbbb;fill-opacity:1;fill-rule:evenodd;stroke:#565c68;stroke-width:0.55670553px;stroke-linecap:butt;stroke-linejoin:miter;stroke-opacity:1"
       d="M 29.0137,35.324468 C 27.816908,35.364549 25.14475,35.40463 25.14475,35.40463"
       id="path7426" />
    <path
       style="fill:#bbbbbb;fill-opacity:1;fill-rule:evenodd;stroke:#565c68;stroke-width:0.55670553px;stroke-linecap:butt;stroke-linejoin:miter;stroke-opacity:1"
       d="M 28.69388,36.95839 C 27.497089,36.998471 24.82493,37.038552 24.82493,37.038552"
       id="path7428" />
    <rect
       style="fill:url(#radialGradient13591);fill-opacity:1;fill-rule:evenodd;stroke:none;stroke-width:3;stroke-linecap:round;stroke-linejoin:round;stroke-miterlimit:4;stroke-dasharray:none;stroke-dashoffset:0;stroke-opacity:1"
       id="rect8189"
       width="61"
       height="48.50423"
       x="-3.5643718"
       y="-3"
       rx="11.530834"
       ry="0.69649339" />
  </g>
</svg>
