<?xml version="1.0" encoding="UTF-8" standalone="no"?>
<!-- Created with Inkscape (http://www.inkscape.org/) -->
<svg
   xmlns:dc="http://purl.org/dc/elements/1.1/"
   xmlns:cc="http://web.resource.org/cc/"
   xmlns:rdf="http://www.w3.org/1999/02/22-rdf-syntax-ns#"
   xmlns:svg="http://www.w3.org/2000/svg"
   xmlns="http://www.w3.org/2000/svg"
   xmlns:xlink="http://www.w3.org/1999/xlink"
   xmlns:sodipodi="http://inkscape.sourceforge.net/DTD/sodipodi-0.dtd"
   xmlns:inkscape="http://www.inkscape.org/namespaces/inkscape"
   width="64px"
   height="64px"
   id="svg3245"
   sodipodi:version="0.32"
   inkscape:version="0.43"
   sodipodi:docbase="Z:\Visual Studio 2008\Projects\GameLoader 2008\Resources\Inkscape\Icons"
   sodipodi:docname="Shortcut1.svg"
   inkscape:export-filename="Z:\Visual Studio 2008\Projects\GameLoader 2008\Resources\Inkscape\Icons\Shortcut1a.png"
   inkscape:export-xdpi="90"
   inkscape:export-ydpi="90">
  <defs
     id="defs3247">
    <linearGradient
       id="linearGradient4998">
      <stop
         id="stop5000"
         offset="0"
         style="stop-color:#a9aee9;stop-opacity:1;" />
      <stop
         style="stop-color:#6c78a8;stop-opacity:0.78039216;"
         offset="0.5"
         id="stop5004" />
      <stop
         id="stop5002"
         offset="1"
         style="stop-color:#2556b8;stop-opacity:0.56470591;" />
    </linearGradient>
    <linearGradient
       id="linearGradient11869">
      <stop
         style="stop-color:#bfb827;stop-opacity:1;"
         offset="0"
         id="stop11871" />
      <stop
         id="stop11877"
         offset="0"
         style="stop-color:#d7d25a;stop-opacity:1;" />
      <stop
         style="stop-color:#efe18d;stop-opacity:1;"
         offset="1"
         id="stop11873" />
    </linearGradient>
    <linearGradient
       id="linearGradient10990">
      <stop
         id="stop10992"
         offset="0"
         style="stop-color:#d4d55d;stop-opacity:1;" />
      <stop
         id="stop10994"
         offset="1"
         style="stop-color:#999999;stop-opacity:1;" />
    </linearGradient>
    <radialGradient
       gradientUnits="userSpaceOnUse"
       gradientTransform="matrix(1,0,0,0.105993,-68.789,34.03081)"
       r="17.215841"
       fy="34.61166"
       fx="17.799274"
       cy="34.61166"
       cx="17.799274"
       id="radialGradient6050"
       xlink:href="#linearGradient3095"
       inkscape:collect="always" />
    <linearGradient
       gradientUnits="userSpaceOnUse"
       y2="56.068359"
       x2="58"
       y1="56.068359"
       x1="27.277344"
       id="linearGradient3392"
       xlink:href="#linearGradient2437"
       inkscape:collect="always"
       gradientTransform="translate(-70.49154,-15.5306)" />
    <radialGradient
       r="23.293833"
       fy="43.337364"
       fx="-34.128174"
       cy="43.337364"
       cx="-34.128174"
       gradientTransform="matrix(2.166319,0,0,0.372951,-121.3164,2.95583)"
       gradientUnits="userSpaceOnUse"
       id="radialGradient9821"
       xlink:href="#linearGradient3095"
       inkscape:collect="always" />
    <radialGradient
       r="22.594551"
       fy="13.298975"
       fx="-46.40625"
       cy="13.298975"
       cx="-46.40625"
       spreadMethod="pad"
       gradientTransform="matrix(2.166319,0,0,-2.90941,-70.02178,136.0728)"
       gradientUnits="userSpaceOnUse"
       id="radialGradient9819"
       xlink:href="#linearGradient6454"
       inkscape:collect="always" />
    <radialGradient
       r="22.594551"
       fy="13.298975"
       fx="-46.40625"
       cy="13.298975"
       cx="-46.40625"
       spreadMethod="pad"
       gradientTransform="matrix(2.166319,0,0,-2.90941,-44.99192,111.045)"
       gradientUnits="userSpaceOnUse"
       id="radialGradient9817"
       xlink:href="#linearGradient6454"
       inkscape:collect="always" />
    <radialGradient
       r="22.594551"
       fy="13.298975"
       fx="-46.40625"
       cy="13.298975"
       cx="-46.40625"
       spreadMethod="pad"
       gradientTransform="matrix(2.166319,0,0,2.700123,147.3058,-63.33593)"
       gradientUnits="userSpaceOnUse"
       id="radialGradient9815"
       xlink:href="#linearGradient6454"
       inkscape:collect="always" />
    <radialGradient
       r="22.594551"
       fy="13.298975"
       fx="-46.40625"
       cy="13.298975"
       cx="-46.40625"
       spreadMethod="pad"
       gradientTransform="matrix(2.166319,0,0,2.700123,147.3058,-63.33593)"
       gradientUnits="userSpaceOnUse"
       id="radialGradient9813"
       xlink:href="#linearGradient6454"
       inkscape:collect="always" />
    <radialGradient
       r="22.594551"
       fy="13.298975"
       fx="-46.40625"
       cy="13.298975"
       cx="-46.40625"
       spreadMethod="pad"
       gradientTransform="matrix(2.166319,0,0,2.700123,147.3058,-63.33593)"
       gradientUnits="userSpaceOnUse"
       id="radialGradient9811"
       xlink:href="#linearGradient6454"
       inkscape:collect="always" />
    <radialGradient
       r="22.594551"
       fy="13.298975"
       fx="-46.40625"
       cy="13.298975"
       cx="-46.40625"
       spreadMethod="pad"
       gradientTransform="matrix(2.166319,0,0,2.700123,147.3058,-63.33593)"
       gradientUnits="userSpaceOnUse"
       id="radialGradient9809"
       xlink:href="#linearGradient6454"
       inkscape:collect="always" />
    <radialGradient
       r="22.594551"
       fy="13.298975"
       fx="-46.40625"
       cy="13.298975"
       cx="-46.40625"
       spreadMethod="pad"
       gradientTransform="matrix(2.166319,0,0,2.700123,147.3058,-63.33593)"
       gradientUnits="userSpaceOnUse"
       id="radialGradient9807"
       xlink:href="#linearGradient6454"
       inkscape:collect="always" />
    <radialGradient
       r="22.594551"
       fy="13.298975"
       fx="-46.40625"
       cy="13.298975"
       cx="-46.40625"
       spreadMethod="pad"
       gradientTransform="matrix(2.166319,0,0,2.700123,147.3058,-63.33593)"
       gradientUnits="userSpaceOnUse"
       id="radialGradient9805"
       xlink:href="#linearGradient6454"
       inkscape:collect="always" />
    <radialGradient
       r="22.594551"
       fy="13.298975"
       fx="-46.40625"
       cy="13.298975"
       cx="-46.40625"
       spreadMethod="pad"
       gradientTransform="matrix(2.166319,0,0,2.700123,147.3058,-63.33593)"
       gradientUnits="userSpaceOnUse"
       id="radialGradient9803"
       xlink:href="#linearGradient6454"
       inkscape:collect="always" />
    <radialGradient
       r="22.594551"
       fy="13.298975"
       fx="-46.40625"
       cy="13.298975"
       cx="-46.40625"
       spreadMethod="pad"
       gradientTransform="matrix(2.166319,0,0,2.700123,147.3058,-63.33593)"
       gradientUnits="userSpaceOnUse"
       id="radialGradient9801"
       xlink:href="#linearGradient6454"
       inkscape:collect="always" />
    <radialGradient
       r="22.594551"
       fy="13.298975"
       fx="-46.40625"
       cy="13.298975"
       cx="-46.40625"
       spreadMethod="pad"
       gradientTransform="matrix(2.166319,0,0,2.700123,147.3058,-63.33593)"
       gradientUnits="userSpaceOnUse"
       id="radialGradient9799"
       xlink:href="#linearGradient6454"
       inkscape:collect="always" />
    <radialGradient
       r="22.594551"
       fy="13.298975"
       fx="-46.40625"
       cy="13.298975"
       cx="-46.40625"
       spreadMethod="pad"
       gradientTransform="matrix(2.166319,0,0,2.700123,147.3058,-63.33593)"
       gradientUnits="userSpaceOnUse"
       id="radialGradient9797"
       xlink:href="#linearGradient6454"
       inkscape:collect="always" />
    <radialGradient
       r="22.594551"
       fy="13.298975"
       fx="-46.40625"
       cy="13.298975"
       cx="-46.40625"
       spreadMethod="pad"
       gradientTransform="matrix(2.166319,0,0,2.700123,147.3058,-63.33593)"
       gradientUnits="userSpaceOnUse"
       id="radialGradient9795"
       xlink:href="#linearGradient6454"
       inkscape:collect="always" />
    <radialGradient
       r="22.594551"
       fy="13.298975"
       fx="-46.40625"
       cy="13.298975"
       cx="-46.40625"
       spreadMethod="pad"
       gradientTransform="matrix(2.166319,0,0,2.700123,147.3058,-63.33593)"
       gradientUnits="userSpaceOnUse"
       id="radialGradient9793"
       xlink:href="#linearGradient6454"
       inkscape:collect="always" />
    <radialGradient
       r="22.594551"
       fy="13.298975"
       fx="-46.40625"
       cy="13.298975"
       cx="-46.40625"
       spreadMethod="pad"
       gradientTransform="matrix(2.166319,0,0,2.700123,147.3058,-63.33593)"
       gradientUnits="userSpaceOnUse"
       id="radialGradient9791"
       xlink:href="#linearGradient6454"
       inkscape:collect="always" />
    <radialGradient
       r="22.594551"
       fy="13.298975"
       fx="-46.40625"
       cy="13.298975"
       cx="-46.40625"
       spreadMethod="pad"
       gradientTransform="matrix(2.166319,0,0,2.700123,147.3058,-63.33593)"
       gradientUnits="userSpaceOnUse"
       id="radialGradient9789"
       xlink:href="#linearGradient6454"
       inkscape:collect="always" />
    <linearGradient
       id="linearGradient6454">
      <stop
         style="stop-color:#275abf;stop-opacity:1;"
         offset="0"
         id="stop6456" />
      <stop
         style="stop-color:#8dc8ef;stop-opacity:0.48627451;"
         offset="1"
         id="stop6458" />
    </linearGradient>
    <linearGradient
       id="linearGradient3095">
      <stop
         id="stop5778"
         offset="0"
         style="stop-color:#7c7c7c;stop-opacity:1;" />
      <stop
         style="stop-color:#616161;stop-opacity:0;"
         offset="1"
         id="stop5780" />
      <stop
         style="stop-color:#000000;stop-opacity:0.63716817;"
         offset="1"
         id="stop3099" />
    </linearGradient>
    <linearGradient
       id="linearGradient11661">
      <stop
         style="stop-color:#ff0d0d;stop-opacity:1;"
         offset="0"
         id="stop11663" />
      <stop
         style="stop-color:#caff0d;stop-opacity:1;"
         offset="1"
         id="stop11665" />
    </linearGradient>
    <linearGradient
       id="linearGradient2263">
      <stop
         id="stop2265"
         offset="0"
         style="stop-color:#999999;stop-opacity:1;" />
      <stop
         id="stop2267"
         offset="1"
         style="stop-color:#999999;stop-opacity:0;" />
    </linearGradient>
    <linearGradient
       id="linearGradient11690">
      <stop
         id="stop11692"
         offset="0"
         style="stop-color:#275abf;stop-opacity:1;" />
      <stop
         id="stop11694"
         offset="1"
         style="stop-color:#8dc8ef;stop-opacity:1;" />
    </linearGradient>
    <linearGradient
       id="linearGradient11704">
      <stop
         id="stop11706"
         offset="0"
         style="stop-color:#ff0dce;stop-opacity:1;" />
      <stop
         id="stop11708"
         offset="1"
         style="stop-color:#0ddfff;stop-opacity:1;" />
    </linearGradient>
    <linearGradient
       id="linearGradient2437">
      <stop
         id="stop2439"
         offset="0"
         style="stop-color:#000000;stop-opacity:1;" />
      <stop
         id="stop2441"
         offset="1"
         style="stop-color:#4d4d4d;stop-opacity:0.79646015;" />
    </linearGradient>
    <linearGradient
       id="linearGradient2445">
      <stop
         style="stop-color:#d4d55d;stop-opacity:1;"
         offset="0"
         id="stop2447" />
      <stop
         style="stop-color:#999999;stop-opacity:0;"
         offset="1"
         id="stop2449" />
    </linearGradient>
    <linearGradient
       id="linearGradient5162">
      <stop
         style="stop-color:#fa3e3e;stop-opacity:1;"
         offset="0"
         id="stop5164" />
      <stop
         style="stop-color:#fa3e3e;stop-opacity:0;"
         offset="1"
         id="stop5166" />
    </linearGradient>
    <linearGradient
       inkscape:collect="always"
       xlink:href="#linearGradient2437"
       id="linearGradient7743"
       gradientUnits="userSpaceOnUse"
       x1="27.277344"
       y1="56.068359"
       x2="58"
       y2="56.068359"
       gradientTransform="translate(-1.916561e-6,-2.075844e-7)" />
    <linearGradient
       inkscape:collect="always"
       xlink:href="#linearGradient2437"
       id="linearGradient7962"
       gradientUnits="userSpaceOnUse"
       gradientTransform="translate(64.55053,13)"
       x1="27.277344"
       y1="56.068359"
       x2="58"
       y2="56.068359" />
    <radialGradient
       inkscape:collect="always"
       xlink:href="#linearGradient2263"
       id="radialGradient8847"
       cx="23.5"
       cy="59.72612"
       fx="23.5"
       fy="59.72612"
       r="19.5"
       gradientTransform="matrix(1,0,0,0.139801,0,51.37635)"
       gradientUnits="userSpaceOnUse" />
    <radialGradient
       r="30.5"
       fy="21.252115"
       fx="26.5"
       cy="21.252115"
       cx="26.5"
       gradientTransform="matrix(1.970587,0,0,1.970861,-57.17633,-6.38846)"
       gradientUnits="userSpaceOnUse"
       id="radialGradient9074"
       xlink:href="#linearGradient9949"
       inkscape:collect="always" />
    <radialGradient
       gradientUnits="userSpaceOnUse"
       gradientTransform="matrix(1.970587,0,0,1.567132,-57.17633,2.19164)"
       r="30.5"
       fy="17.748411"
       fx="13.189239"
       cy="17.748411"
       cx="13.189239"
       id="radialGradient9070"
       xlink:href="#linearGradient9064"
       inkscape:collect="always" />
    <linearGradient
       y2="26.942563"
       x2="52"
       y1="26.942563"
       x1="9.5"
       gradientTransform="matrix(2.970674,-3.494418e-7,0,2.140511,-85.4099,-14.88906)"
       gradientUnits="userSpaceOnUse"
       id="linearGradient8187"
       xlink:href="#linearGradient4377"
       inkscape:collect="always" />
    <linearGradient
       y2="13.686072"
       x2="64.197304"
       y1="13.686072"
       x1="0.19730139"
       gradientUnits="userSpaceOnUse"
       id="linearGradient8184"
       xlink:href="#linearGradient4377"
       inkscape:collect="always"
       gradientTransform="matrix(1.970587,0,0,1.970861,-57.17633,-6.38846)" />
    <linearGradient
       y2="13.686072"
       x2="64.197304"
       y1="13.686072"
       x1="0.19730139"
       gradientUnits="userSpaceOnUse"
       id="linearGradient8182"
       xlink:href="#linearGradient3871"
       inkscape:collect="always"
       gradientTransform="matrix(1.970587,0,0,1.970861,-57.17633,-6.38846)" />
    <linearGradient
       y2="26.942563"
       x2="52"
       y1="26.942563"
       x1="9.5"
       gradientTransform="matrix(2.970676,-2.960916e-7,-3.464598e-8,2.140509,-85.4099,-14.88906)"
       gradientUnits="userSpaceOnUse"
       id="linearGradient8179"
       xlink:href="#linearGradient4377"
       inkscape:collect="always" />
    <linearGradient
       y2="26.942563"
       x2="52"
       y1="26.942563"
       x1="9.5"
       gradientUnits="userSpaceOnUse"
       id="linearGradient8176"
       xlink:href="#linearGradient4377"
       inkscape:collect="always"
       gradientTransform="matrix(1.970587,0,0,1.970861,-57.17633,-6.38846)" />
    <linearGradient
       y2="26.942563"
       x2="52"
       y1="26.942563"
       x1="9.5"
       gradientUnits="userSpaceOnUse"
       id="linearGradient8173"
       xlink:href="#linearGradient4377"
       inkscape:collect="always"
       gradientTransform="matrix(1.970587,0,0,1.970861,-57.17633,-6.38846)" />
    <linearGradient
       y2="26.942563"
       x2="52"
       y1="26.942563"
       x1="9.5"
       gradientTransform="matrix(2.911156,-0.487293,1.421468e-2,2.140397,-85.14605,-14.07893)"
       gradientUnits="userSpaceOnUse"
       id="linearGradient8170"
       xlink:href="#linearGradient4377"
       inkscape:collect="always" />
    <radialGradient
       r="23.293833"
       fy="43.337364"
       fx="-34.128174"
       cy="43.337364"
       cx="-34.128174"
       gradientTransform="matrix(2.823472,0,0,0.437048,-157.9709,61.39085)"
       gradientUnits="userSpaceOnUse"
       id="radialGradient8146"
       xlink:href="#linearGradient3095"
       inkscape:collect="always" />
    <radialGradient
       r="22.594551"
       fy="13.298975"
       fx="-46.40625"
       cy="13.298975"
       cx="-46.40625"
       spreadMethod="pad"
       gradientTransform="matrix(2.823472,0,0,-3.409428,-109.2919,87.06259)"
       gradientUnits="userSpaceOnUse"
       id="radialGradient8144"
       xlink:href="#linearGradient6454"
       inkscape:collect="always" />
    <radialGradient
       r="22.594551"
       fy="13.298975"
       fx="-46.40625"
       cy="13.298975"
       cx="-46.40625"
       spreadMethod="pad"
       gradientTransform="matrix(2.823472,0,0,-3.409428,-70.25375,91.96453)"
       gradientUnits="userSpaceOnUse"
       id="radialGradient8142"
       xlink:href="#linearGradient6454"
       inkscape:collect="always" />
    <radialGradient
       r="22.594551"
       fy="13.298975"
       fx="-46.40625"
       cy="13.298975"
       cx="-46.40625"
       spreadMethod="pad"
       gradientTransform="matrix(2.823472,0,0,3.164172,155.8713,-15.59907)"
       gradientUnits="userSpaceOnUse"
       id="radialGradient8140"
       xlink:href="#linearGradient6454"
       inkscape:collect="always" />
    <radialGradient
       r="22.594551"
       fy="13.298975"
       fx="-46.40625"
       cy="13.298975"
       cx="-46.40625"
       spreadMethod="pad"
       gradientTransform="matrix(2.823472,0,0,3.164172,155.8713,-15.59907)"
       gradientUnits="userSpaceOnUse"
       id="radialGradient8138"
       xlink:href="#linearGradient6454"
       inkscape:collect="always" />
    <radialGradient
       r="22.594551"
       fy="13.298975"
       fx="-46.40625"
       cy="13.298975"
       cx="-46.40625"
       spreadMethod="pad"
       gradientTransform="matrix(2.823472,0,0,3.164172,155.8713,-15.59907)"
       gradientUnits="userSpaceOnUse"
       id="radialGradient8136"
       xlink:href="#linearGradient6454"
       inkscape:collect="always" />
    <radialGradient
       r="22.594551"
       fy="13.298975"
       fx="-46.40625"
       cy="13.298975"
       cx="-46.40625"
       spreadMethod="pad"
       gradientTransform="matrix(2.823472,0,0,3.164172,155.8713,-15.59907)"
       gradientUnits="userSpaceOnUse"
       id="radialGradient8134"
       xlink:href="#linearGradient6454"
       inkscape:collect="always" />
    <radialGradient
       r="22.594551"
       fy="13.298975"
       fx="-46.40625"
       cy="13.298975"
       cx="-46.40625"
       spreadMethod="pad"
       gradientTransform="matrix(2.823472,0,0,3.164172,155.8713,-15.59907)"
       gradientUnits="userSpaceOnUse"
       id="radialGradient8132"
       xlink:href="#linearGradient6454"
       inkscape:collect="always" />
    <radialGradient
       r="22.594551"
       fy="13.298975"
       fx="-46.40625"
       cy="13.298975"
       cx="-46.40625"
       spreadMethod="pad"
       gradientTransform="matrix(2.823472,0,0,3.164172,155.8713,-15.59907)"
       gradientUnits="userSpaceOnUse"
       id="radialGradient8130"
       xlink:href="#linearGradient6454"
       inkscape:collect="always" />
    <radialGradient
       r="22.594551"
       fy="13.298975"
       fx="-46.40625"
       cy="13.298975"
       cx="-46.40625"
       spreadMethod="pad"
       gradientTransform="matrix(2.823472,0,0,3.164172,155.8713,-15.59907)"
       gradientUnits="userSpaceOnUse"
       id="radialGradient8128"
       xlink:href="#linearGradient6454"
       inkscape:collect="always" />
    <radialGradient
       r="22.594551"
       fy="13.298975"
       fx="-46.40625"
       cy="13.298975"
       cx="-46.40625"
       spreadMethod="pad"
       gradientTransform="matrix(2.823472,0,0,3.164172,155.8713,-15.59907)"
       gradientUnits="userSpaceOnUse"
       id="radialGradient8126"
       xlink:href="#linearGradient6454"
       inkscape:collect="always" />
    <radialGradient
       r="22.594551"
       fy="13.298975"
       fx="-46.40625"
       cy="13.298975"
       cx="-46.40625"
       spreadMethod="pad"
       gradientTransform="matrix(2.823472,0,0,3.164172,155.8713,-15.59907)"
       gradientUnits="userSpaceOnUse"
       id="radialGradient8124"
       xlink:href="#linearGradient6454"
       inkscape:collect="always" />
    <radialGradient
       r="22.594551"
       fy="13.298975"
       fx="-46.40625"
       cy="13.298975"
       cx="-46.40625"
       spreadMethod="pad"
       gradientTransform="matrix(2.823472,0,0,3.164172,155.8713,-15.59907)"
       gradientUnits="userSpaceOnUse"
       id="radialGradient8122"
       xlink:href="#linearGradient6454"
       inkscape:collect="always" />
    <radialGradient
       r="22.594551"
       fy="13.298975"
       fx="-46.40625"
       cy="13.298975"
       cx="-46.40625"
       spreadMethod="pad"
       gradientTransform="matrix(2.823472,0,0,3.164172,155.8713,-15.59907)"
       gradientUnits="userSpaceOnUse"
       id="radialGradient8120"
       xlink:href="#linearGradient6454"
       inkscape:collect="always" />
    <radialGradient
       r="22.594551"
       fy="13.298975"
       fx="-46.40625"
       cy="13.298975"
       cx="-46.40625"
       spreadMethod="pad"
       gradientTransform="matrix(2.823472,0,0,3.164172,155.8713,-15.59907)"
       gradientUnits="userSpaceOnUse"
       id="radialGradient8118"
       xlink:href="#linearGradient6454"
       inkscape:collect="always" />
    <radialGradient
       r="22.594551"
       fy="13.298975"
       fx="-46.40625"
       cy="13.298975"
       cx="-46.40625"
       spreadMethod="pad"
       gradientTransform="matrix(2.823472,0,0,3.164172,155.8713,-15.59907)"
       gradientUnits="userSpaceOnUse"
       id="radialGradient8116"
       xlink:href="#linearGradient6454"
       inkscape:collect="always" />
    <radialGradient
       r="22.594551"
       fy="13.298975"
       fx="-46.40625"
       cy="13.298975"
       cx="-46.40625"
       spreadMethod="pad"
       gradientTransform="matrix(2.823472,0,0,3.164172,155.8713,-15.59907)"
       gradientUnits="userSpaceOnUse"
       id="radialGradient8114"
       xlink:href="#linearGradient6454"
       inkscape:collect="always" />
    <linearGradient
       id="linearGradient4128">
      <stop
         style="stop-color:#d8b03c;stop-opacity:1;"
         offset="0"
         id="stop4130" />
      <stop
         style="stop-color:#4997e6;stop-opacity:0.56470591;"
         offset="1"
         id="stop4132" />
    </linearGradient>
    <linearGradient
       id="linearGradient4377">
      <stop
         id="stop4379"
         offset="0"
         style="stop-color:#000000;stop-opacity:1;" />
      <stop
         id="stop4381"
         offset="1"
         style="stop-color:#000000;stop-opacity:0.64601767;" />
    </linearGradient>
    <linearGradient
       id="linearGradient5256">
      <stop
         style="stop-color:#f0f0f4;stop-opacity:1;"
         offset="0"
         id="stop5258" />
      <stop
         style="stop-color:#ededed;stop-opacity:0.29019609;"
         offset="1"
         id="stop5260" />
    </linearGradient>
    <linearGradient
       id="linearGradient3871">
      <stop
         style="stop-color:#3453bc;stop-opacity:1;"
         offset="0"
         id="stop3873" />
      <stop
         style="stop-color:#ffffff;stop-opacity:0.88495576;"
         offset="1"
         id="stop3875" />
    </linearGradient>
    <linearGradient
       id="linearGradient9780">
      <stop
         id="stop9782"
         offset="0"
         style="stop-color:#275abf;stop-opacity:1;" />
      <stop
         id="stop9784"
         offset="1"
         style="stop-color:#8dc8ef;stop-opacity:0.48627451;" />
    </linearGradient>
    <linearGradient
       id="linearGradient9772">
      <stop
         style="stop-color:#7c7c7c;stop-opacity:1;"
         offset="0"
         id="stop9774" />
      <stop
         id="stop9776"
         offset="1"
         style="stop-color:#616161;stop-opacity:0;" />
      <stop
         id="stop9778"
         offset="1"
         style="stop-color:#000000;stop-opacity:0.63716817;" />
    </linearGradient>
    <linearGradient
       id="linearGradient9064">
      <stop
         id="stop9066"
         offset="0"
         style="stop-color:#ffffff;stop-opacity:0.79607844;" />
      <stop
         id="stop9068"
         offset="1"
         style="stop-color:#ffffff;stop-opacity:0;" />
    </linearGradient>
    <linearGradient
       id="linearGradient9949">
      <stop
         style="stop-color:#7c7c7c;stop-opacity:1;"
         offset="0"
         id="stop9951" />
      <stop
         style="stop-color:#bcbcbc;stop-opacity:0.59292036;"
         offset="1"
         id="stop9953" />
    </linearGradient>
    <linearGradient
       inkscape:collect="always"
       xlink:href="#linearGradient4998"
       id="linearGradient10752"
       x1="6"
       y1="49.205563"
       x2="26"
       y2="49.205563"
       gradientUnits="userSpaceOnUse"
       spreadMethod="pad" />
    <radialGradient
       inkscape:collect="always"
       xlink:href="#linearGradient9949"
       id="radialGradient10914"
       gradientUnits="userSpaceOnUse"
       gradientTransform="matrix(1.970587,0,0,1.970861,-84.09495,-43.67575)"
       cx="26.5"
       cy="21.252115"
       fx="26.5"
       fy="21.252115"
       r="30.5" />
    <linearGradient
       inkscape:collect="always"
       xlink:href="#linearGradient4377"
       id="linearGradient10916"
       gradientUnits="userSpaceOnUse"
       gradientTransform="matrix(2.970674,-3.494418e-7,0,2.140511,-112.3285,-52.17635)"
       x1="9.5"
       y1="26.942563"
       x2="52"
       y2="26.942563" />
    <linearGradient
       inkscape:collect="always"
       xlink:href="#linearGradient3871"
       id="linearGradient10918"
       gradientUnits="userSpaceOnUse"
       gradientTransform="matrix(1.970587,0,0,1.970861,-84.09495,-43.67575)"
       x1="0.19730139"
       y1="13.686072"
       x2="64.197304"
       y2="13.686072" />
    <linearGradient
       inkscape:collect="always"
       xlink:href="#linearGradient4377"
       id="linearGradient10920"
       gradientUnits="userSpaceOnUse"
       gradientTransform="matrix(1.970587,0,0,1.970861,-84.09495,-43.67575)"
       x1="0.19730139"
       y1="13.686072"
       x2="64.197304"
       y2="13.686072" />
    <linearGradient
       inkscape:collect="always"
       xlink:href="#linearGradient4377"
       id="linearGradient10922"
       gradientUnits="userSpaceOnUse"
       gradientTransform="matrix(2.970676,-2.960916e-7,-3.464598e-8,2.140509,-112.3285,-52.17635)"
       x1="9.5"
       y1="26.942563"
       x2="52"
       y2="26.942563" />
    <linearGradient
       inkscape:collect="always"
       xlink:href="#linearGradient4377"
       id="linearGradient10924"
       gradientUnits="userSpaceOnUse"
       gradientTransform="matrix(1.970587,0,0,1.970861,-84.09495,-43.67575)"
       x1="9.5"
       y1="26.942563"
       x2="52"
       y2="26.942563" />
    <linearGradient
       inkscape:collect="always"
       xlink:href="#linearGradient4377"
       id="linearGradient10926"
       gradientUnits="userSpaceOnUse"
       gradientTransform="matrix(1.970587,0,0,1.970861,-84.09495,-43.67575)"
       x1="9.5"
       y1="26.942563"
       x2="52"
       y2="26.942563" />
    <linearGradient
       inkscape:collect="always"
       xlink:href="#linearGradient4377"
       id="linearGradient10928"
       gradientUnits="userSpaceOnUse"
       gradientTransform="matrix(2.911156,-0.487293,1.421468e-2,2.140397,-111.352,-51.11794)"
       x1="9.5"
       y1="26.942563"
       x2="52"
       y2="26.942563" />
    <radialGradient
       inkscape:collect="always"
       xlink:href="#linearGradient6454"
       id="radialGradient10930"
       gradientUnits="userSpaceOnUse"
       gradientTransform="matrix(2.823472,0,0,3.164172,117.3021,-68.55359)"
       spreadMethod="pad"
       cx="-46.40625"
       cy="13.298975"
       fx="-46.40625"
       fy="13.298975"
       r="22.594551" />
    <radialGradient
       inkscape:collect="always"
       xlink:href="#linearGradient6454"
       id="radialGradient10932"
       gradientUnits="userSpaceOnUse"
       gradientTransform="matrix(2.823472,0,0,3.164172,117.3021,-68.55359)"
       spreadMethod="pad"
       cx="-46.40625"
       cy="13.298975"
       fx="-46.40625"
       fy="13.298975"
       r="22.594551" />
    <radialGradient
       inkscape:collect="always"
       xlink:href="#linearGradient6454"
       id="radialGradient10934"
       gradientUnits="userSpaceOnUse"
       gradientTransform="matrix(2.823472,0,0,3.164172,117.3021,-68.55359)"
       spreadMethod="pad"
       cx="-46.40625"
       cy="13.298975"
       fx="-46.40625"
       fy="13.298975"
       r="22.594551" />
    <radialGradient
       inkscape:collect="always"
       xlink:href="#linearGradient6454"
       id="radialGradient10936"
       gradientUnits="userSpaceOnUse"
       gradientTransform="matrix(2.823472,0,0,3.164172,117.3021,-68.55359)"
       spreadMethod="pad"
       cx="-46.40625"
       cy="13.298975"
       fx="-46.40625"
       fy="13.298975"
       r="22.594551" />
    <radialGradient
       inkscape:collect="always"
       xlink:href="#linearGradient6454"
       id="radialGradient10938"
       gradientUnits="userSpaceOnUse"
       gradientTransform="matrix(2.823472,0,0,3.164172,117.3021,-68.55359)"
       spreadMethod="pad"
       cx="-46.40625"
       cy="13.298975"
       fx="-46.40625"
       fy="13.298975"
       r="22.594551" />
    <radialGradient
       inkscape:collect="always"
       xlink:href="#linearGradient6454"
       id="radialGradient10940"
       gradientUnits="userSpaceOnUse"
       gradientTransform="matrix(2.823472,0,0,3.164172,117.3021,-68.55359)"
       spreadMethod="pad"
       cx="-46.40625"
       cy="13.298975"
       fx="-46.40625"
       fy="13.298975"
       r="22.594551" />
    <radialGradient
       inkscape:collect="always"
       xlink:href="#linearGradient6454"
       id="radialGradient10942"
       gradientUnits="userSpaceOnUse"
       gradientTransform="matrix(2.823472,0,0,3.164172,117.3021,-68.55359)"
       spreadMethod="pad"
       cx="-46.40625"
       cy="13.298975"
       fx="-46.40625"
       fy="13.298975"
       r="22.594551" />
    <radialGradient
       inkscape:collect="always"
       xlink:href="#linearGradient6454"
       id="radialGradient10944"
       gradientUnits="userSpaceOnUse"
       gradientTransform="matrix(2.823472,0,0,3.164172,117.3021,-68.55359)"
       spreadMethod="pad"
       cx="-46.40625"
       cy="13.298975"
       fx="-46.40625"
       fy="13.298975"
       r="22.594551" />
    <radialGradient
       inkscape:collect="always"
       xlink:href="#linearGradient6454"
       id="radialGradient10946"
       gradientUnits="userSpaceOnUse"
       gradientTransform="matrix(2.823472,0,0,3.164172,117.3021,-68.55359)"
       spreadMethod="pad"
       cx="-46.40625"
       cy="13.298975"
       fx="-46.40625"
       fy="13.298975"
       r="22.594551" />
    <radialGradient
       inkscape:collect="always"
       xlink:href="#linearGradient6454"
       id="radialGradient10948"
       gradientUnits="userSpaceOnUse"
       gradientTransform="matrix(2.823472,0,0,3.164172,117.3021,-68.55359)"
       spreadMethod="pad"
       cx="-46.40625"
       cy="13.298975"
       fx="-46.40625"
       fy="13.298975"
       r="22.594551" />
    <radialGradient
       inkscape:collect="always"
       xlink:href="#linearGradient6454"
       id="radialGradient10950"
       gradientUnits="userSpaceOnUse"
       gradientTransform="matrix(2.823472,0,0,3.164172,117.3021,-68.55359)"
       spreadMethod="pad"
       cx="-46.40625"
       cy="13.298975"
       fx="-46.40625"
       fy="13.298975"
       r="22.594551" />
    <radialGradient
       inkscape:collect="always"
       xlink:href="#linearGradient6454"
       id="radialGradient10952"
       gradientUnits="userSpaceOnUse"
       gradientTransform="matrix(2.823472,0,0,3.164172,117.3021,-68.55359)"
       spreadMethod="pad"
       cx="-46.40625"
       cy="13.298975"
       fx="-46.40625"
       fy="13.298975"
       r="22.594551" />
    <radialGradient
       inkscape:collect="always"
       xlink:href="#linearGradient6454"
       id="radialGradient10954"
       gradientUnits="userSpaceOnUse"
       gradientTransform="matrix(2.823472,0,0,3.164172,117.3021,-68.55359)"
       spreadMethod="pad"
       cx="-46.40625"
       cy="13.298975"
       fx="-46.40625"
       fy="13.298975"
       r="22.594551" />
    <radialGradient
       inkscape:collect="always"
       xlink:href="#linearGradient6454"
       id="radialGradient10956"
       gradientUnits="userSpaceOnUse"
       gradientTransform="matrix(2.823472,0,0,3.164172,117.3021,-68.55359)"
       spreadMethod="pad"
       cx="-46.40625"
       cy="13.298975"
       fx="-46.40625"
       fy="13.298975"
       r="22.594551" />
    <radialGradient
       inkscape:collect="always"
       xlink:href="#linearGradient6454"
       id="radialGradient10958"
       gradientUnits="userSpaceOnUse"
       gradientTransform="matrix(2.823472,0,0,-3.409428,-93.41327,121.6029)"
       spreadMethod="pad"
       cx="-46.40625"
       cy="13.298975"
       fx="-46.40625"
       fy="13.298975"
       r="22.594551" />
    <radialGradient
       inkscape:collect="always"
       xlink:href="#linearGradient6454"
       id="radialGradient10960"
       gradientUnits="userSpaceOnUse"
       gradientTransform="matrix(2.823472,0,0,-3.409428,-157.2214,146.5338)"
       spreadMethod="pad"
       cx="-46.40625"
       cy="13.298975"
       fx="-46.40625"
       fy="13.298975"
       r="22.594551" />
    <radialGradient
       inkscape:collect="always"
       xlink:href="#linearGradient3095"
       id="radialGradient10962"
       gradientUnits="userSpaceOnUse"
       gradientTransform="matrix(2.823472,0,0,0.437048,-196.5401,8.436335)"
       cx="-34.128174"
       cy="43.337364"
       fx="-34.128174"
       fy="43.337364"
       r="23.293833" />
    <radialGradient
       inkscape:collect="always"
       xlink:href="#linearGradient9064"
       id="radialGradient10964"
       gradientUnits="userSpaceOnUse"
       gradientTransform="matrix(1.970587,0,0,1.567132,-84.09495,-35.09565)"
       cx="13.189239"
       cy="17.748411"
       fx="13.189239"
       fy="17.748411"
       r="30.5" />
    <radialGradient
       inkscape:collect="always"
       xlink:href="#linearGradient9772"
       id="radialGradient10976"
       cx="21.889879"
       cy="53.444656"
       fx="21.889879"
       fy="53.444656"
       r="18.5"
       gradientTransform="matrix(1.194432,-0.908822,0.236282,0.310536,-18.06725,61.92046)"
       gradientUnits="userSpaceOnUse" />
  </defs>
  <sodipodi:namedview
     id="base"
     pagecolor="#ffffff"
     bordercolor="#666666"
     borderopacity="1.0"
     inkscape:pageopacity="0.0"
     inkscape:pageshadow="2"
     inkscape:zoom="12.921875"
     inkscape:cx="32.244674"
     inkscape:cy="25.211357"
     inkscape:current-layer="layer1"
     showgrid="true"
     inkscape:document-units="px"
     inkscape:grid-bbox="true"
     inkscape:window-width="1400"
     inkscape:window-height="994"
     inkscape:window-x="-4"
     inkscape:window-y="-4" />
  <metadata
     id="metadata3250">
    <rdf:RDF>
      <cc:Work
         rdf:about="">
        <dc:format>image/svg+xml</dc:format>
        <dc:type
           rdf:resource="http://purl.org/dc/dcmitype/StillImage" />
      </cc:Work>
    </rdf:RDF>
  </metadata>
  <g
     id="layer1"
     inkscape:label="Layer 1"
     inkscape:groupmode="layer">
    <text
       xml:space="preserve"
       style="font-size:8px;font-style:normal;font-variant:normal;font-weight:normal;font-stretch:normal;text-align:start;line-height:125%;writing-mode:lr-tb;text-anchor:start;fill:#ffffff;fill-opacity:1;stroke:none;stroke-width:1px;stroke-linecap:butt;stroke-linejoin:miter;stroke-opacity:1;font-family:Agency FB"
       x="74.003258"
       y="50.643883"
       id="text3382"
       sodipodi:linespacing="125%"><tspan
         sodipodi:role="line"
         id="tspan3384"
         x="74.003258"
         y="50.643883">GameLoader</tspan></text>
    <path
       sodipodi:type="arc"
       style="fill:url(#radialGradient6050);fill-opacity:1;fill-rule:evenodd;stroke:none;stroke-width:1;stroke-linecap:butt;stroke-linejoin:miter;stroke-miterlimit:4;stroke-dasharray:none;stroke-dashoffset:0;stroke-opacity:1"
       id="path5169"
       sodipodi:cx="18.418379"
       sodipodi:cy="48.599758"
       sodipodi:rx="16.715841"
       sodipodi:ry="2.1668682"
       d="M 35.13422,48.599758 A 16.715841,2.1668682 0 1 1 35.13366,48.582012"
       sodipodi:start="0"
       sodipodi:end="6.2749955"
       sodipodi:open="true"
       transform="matrix(1,0,0,1.461495,68.789,-8.66459)" />
    <use
       x="0"
       y="0"
       xlink:href="#path5169"
       id="use6056"
       transform="matrix(1.166558,0,0,0.94731,10.25907,18.45283)"
       width="64"
       height="64" />
    <rect
       style="opacity:1;fill:url(#radialGradient8847);fill-opacity:1;fill-rule:evenodd;stroke:none;stroke-width:2;stroke-linecap:square;stroke-linejoin:round;stroke-miterlimit:4;stroke-dasharray:none;stroke-dashoffset:0;stroke-opacity:1"
       id="rect7964"
       width="39"
       height="5.4522371"
       x="-44"
       y="57" />
    <g
       inkscape:label="Layer 1"
       id="g9824"
       transform="matrix(0.507463,0,0,0.507392,29.01493,3.241501)">
      <rect
         ry="1.3726919"
         rx="22.722502"
         y="20"
         x="4"
         height="48.50423"
         width="61"
         id="rect9072"
         style="opacity:1;fill:url(#radialGradient9074);fill-opacity:1;fill-rule:evenodd;stroke:none;stroke-width:3;stroke-linecap:round;stroke-linejoin:round;stroke-miterlimit:4;stroke-dasharray:none;stroke-dashoffset:0;stroke-opacity:1" />
      <path
         sodipodi:nodetypes="ccccc"
         id="path3221"
         d="M 56.41436,14.171567 L 56.41436,54.193129 L 1.860064,54.203521 L 1.6686449,13.796478 L 56.41436,14.171567 z "
         style="fill:#dfdfd0;fill-opacity:1;fill-rule:evenodd;stroke:url(#linearGradient8187);stroke-width:3.34071565;stroke-linecap:round;stroke-linejoin:round;stroke-miterlimit:4;stroke-dasharray:none;stroke-opacity:1" />
      <rect
         rx="3.9402752"
         ry="3.940824"
         y="1.8053811"
         x="1.8041301"
         height="12.370909"
         width="54.358643"
         id="rect1594"
         style="fill:url(#linearGradient8182);fill-opacity:1;fill-rule:evenodd;stroke:url(#linearGradient8184);stroke-width:3.5789485;stroke-linecap:butt;stroke-linejoin:miter;stroke-miterlimit:4;stroke-dasharray:none;stroke-dashoffset:0;stroke-opacity:1" />
      <path
         id="path4436"
         d="M 42.239233,9.0279023 C 39.009762,9.0397023 39.009762,9.0397023 39.009762,9.0397023"
         style="fill:none;fill-opacity:0.75;fill-rule:evenodd;stroke:url(#linearGradient8179);stroke-width:1.90512073;stroke-linecap:round;stroke-linejoin:round;stroke-miterlimit:4;stroke-dasharray:none;stroke-opacity:1" />
      <path
         id="path6474"
         d="M 49.58823,6.0159193 L 53.012513,9.3536303"
         style="fill:none;fill-opacity:0.75;fill-rule:evenodd;stroke:url(#linearGradient8176);stroke-width:1.90512049;stroke-linecap:round;stroke-linejoin:round;stroke-miterlimit:4;stroke-dasharray:none;stroke-opacity:1" />
      <path
         id="path6476"
         d="M 49.669877,9.2583103 L 52.990686,6.1244853"
         style="fill:none;fill-opacity:0.75;fill-rule:evenodd;stroke:url(#linearGradient8173);stroke-width:1.90512049;stroke-linecap:round;stroke-linejoin:round;stroke-miterlimit:4;stroke-dasharray:none;stroke-opacity:1" />
      <rect
         transform="matrix(0.999953,9.736962e-3,1.927501e-2,0.999814,0,0)"
         ry="3.9406991"
         rx="0"
         y="5.1645141"
         x="44.331387"
         height="3.4139819"
         width="3.1961172"
         id="rect6478"
         style="opacity:0.4;fill:none;fill-opacity:1;fill-rule:evenodd;stroke:url(#linearGradient8170);stroke-width:1.90551591;stroke-linecap:round;stroke-linejoin:round;stroke-miterlimit:4;stroke-dasharray:none;stroke-dashoffset:0;stroke-opacity:1" />
      <g
         transform="matrix(0.697931,0,0,0.704138,-30.36398,25.30608)"
         id="g4477">
        <path
           style="fill:url(#radialGradient8114);fill-opacity:1;fill-rule:evenodd;stroke:none;stroke-width:1px;stroke-linecap:butt;stroke-linejoin:miter;stroke-opacity:1"
           d="M 77.884711,24.72709 L 76.365969,28.964543 L 77.365969,31.223545 L 79.896803,31.223545 L 81.908895,30.29548 L 83.365969,27.511285 L 84.365969,26.58322 L 85.365969,28.43935 C 85.365969,28.43935 84.333321,29.357315 84.849645,29.826398 C 85.365969,30.29548 85.778303,32.15161 85.778303,32.15161 L 87.365969,33.079675 L 88.873829,33.079675 C 88.873829,33.079675 90.365969,32.15161 90.365969,32.15161 C 90.365969,32.15161 90.405872,30.688252 90.885921,29.826398 C 91.365969,28.964543 91.365969,27.959045 91.365969,27.959045 L 91.814578,26.58322 L 92.898013,27.511285 C 92.898013,27.511285 91.821834,28.56167 93.365969,28.964543 C 94.910104,29.367415 95.838762,30.29548 95.838762,30.29548 L 98.365969,30.29548 L 99.365969,29.367415 L 99.365969,28.43935 L 99.365969,26.58322 L 98.365969,25.655155 L 98.365969,24.72709 L 97.365969,23.362487 L 98.365969,21.942895 L 99.365969,22.87096 L 101.36597,23.799025 L 104.36597,23.362487 L 105.36597,20.489637 L 102.8037,19.1587 L 101.36597,17.30257 L 101.36597,16.754933 L 105.36597,16.374505 L 106.36597,15.44644 L 107.36597,14.518375 L 107.36597,12.662245 C 107.36597,12.662245 106.98266,12.171841 105.89922,11.73418 C 104.81579,11.296519 103.36597,10.806115 103.36597,10.806115 L 102.36597,10.291022 L 101.36597,10.291022 C 101.36597,10.291022 102.36597,8.949985 102.36597,8.949985 L 104.36597,7.561815 L 106.36597,5.237725 L 105.36597,3.381595 C 105.36597,3.381595 105.36597,3.7979333 103.36597,3.381595 C 101.36597,2.9652567 100.36597,3.381595 100.36597,3.381595 L 99.365969,4.30966 L 98.934288,2.45353 L 100.36597,-0.33066496 L 100.7916,-3.11486 L 98.779512,-4.042925 L 96.365969,-2.186795 L 94.365969,-1.25873 L 93.365969,-0.33066496 L 93.365969,-2.186795 L 94.365969,-4.97099 L 94.365969,-6.8271203 L 92.365969,-7.7551853 C 92.365969,-7.7551853 91.405872,-7.9268823 90.885921,-7.3770013 C 90.365969,-6.8271203 90.239004,-5.8990553 89.802487,-5.8990553 C 89.365969,-5.8990553 89.365969,-4.97099 88.365969,-4.042925 C 87.365969,-3.11486 87.365969,-3.11486 87.365969,-3.11486 L 86.365969,-4.97099 L 85.778303,-7.2333593 C 85.778303,-7.2333593 86.365969,-7.2715133 84.365969,-7.7551853 C 82.365969,-8.2388563 81.365969,-8.1333683 81.365969,-7.7551853 C 81.365969,-7.3770013 80.365969,-5.8990553 80.365969,-4.97099 C 80.365969,-4.042925 80.365969,-2.186795 80.365969,-2.186795 L 78.365969,-3.11486 L 76.365969,-4.97099 L 73.365969,-4.97099 L 73.860528,-1.25873 L 74.365969,1.0979045 L 71.365969,0.59740004 L 68.365969,0.092407437 C 68.365969,0.092407437 67.365969,1.4659881 67.365969,1.9597586 C 67.365969,2.45353 68.365969,4.6889657 68.365969,4.6889657 C 68.365969,4.6889657 69.365969,4.30966 70.365969,5.237725 C 71.365969,6.16579 71.848436,8.02192 71.848436,8.02192 L 68.365969,8.02192 L 65.365969,8.949985 L 65.365969,10.806115 L 68.365969,12.662245 L 68.907686,14.518375 C 68.907686,14.518375 67.365969,16.207296 66.365969,16.754933 C 65.365969,17.30257 66.365969,19.1587 66.365969,19.1587 L 69.365969,19.627782 L 73.365969,19.1587 L 70.365969,21.942895 L 69.365969,23.799025 L 69.836344,25.655155 L 71.365969,26.58322 L 74.365969,26.58322 L 75.365969,24.224341 L 77.884711,24.72709 z "
           id="path6385" />
        <path
           style="fill:url(#radialGradient8116);fill-opacity:1;fill-rule:evenodd;stroke:none;stroke-width:2.7361536;stroke-linecap:round;stroke-linejoin:round;stroke-miterlimit:4;stroke-dasharray:none;stroke-opacity:1"
           d="M 88.959719,34.384766 C 88.917585,34.376926 88.875872,34.367248 88.834719,34.355764 L 88.709719,34.355764 L 86.865969,34.355764 C 86.613679,34.360381 86.364928,34.300158 86.147219,34.181752 C 86.147219,34.181752 85.838688,33.966269 85.553469,33.688718 C 85.26825,33.411166 84.912117,33.015103 84.584719,32.44163 C 83.929923,31.294684 83.365969,29.491849 83.365969,26.815236 C 83.306269,26.330163 83.551527,25.856282 83.996821,25.596319 C 84.442115,25.336356 85.008573,25.336356 85.453867,25.596319 C 85.899161,25.856282 86.144419,26.330163 86.084719,26.815236 C 86.084719,29.155492 86.602958,30.518167 87.022219,31.252547 C 87.195567,31.556185 87.311271,31.707578 87.428469,31.832588 L 88.459719,31.832588 C 88.577023,31.707678 88.723214,31.557336 88.897219,31.252547 C 89.31648,30.518167 89.80347,29.155492 89.803469,26.815236 C 89.803469,26.110472 90.419077,25.539147 91.178469,25.539147 C 91.937861,25.539147 92.553469,26.110472 92.553469,26.815236 C 92.55347,29.491849 91.958265,31.294684 91.303469,32.44163 C 90.976071,33.015103 90.619938,33.411166 90.334719,33.688718 C 90.247398,33.773691 90.22983,33.767428 90.147219,33.833728 C 90.136971,33.843551 90.126553,33.853219 90.115969,33.86273 C 90.094747,33.879304 90.104485,33.905859 90.084719,33.920734 C 90.018604,33.985721 89.945281,34.044049 89.865969,34.094746 C 89.826122,34.125935 89.784387,34.154984 89.740969,34.181752 C 89.71059,34.202274 89.679314,34.221625 89.647219,34.239756 C 89.606644,34.261054 89.564923,34.280415 89.522219,34.29776 C 89.481066,34.309244 89.439353,34.318922 89.397219,34.326762 C 89.386803,34.326873 89.376385,34.326873 89.365969,34.326762 C 89.324816,34.338246 89.283103,34.347924 89.240969,34.355764 C 89.148551,34.374428 89.054297,34.384146 88.959719,34.384766 z "
           id="path25847" />
        <path
           style="fill:url(#radialGradient8118);fill-opacity:1;fill-rule:evenodd;stroke:none;stroke-width:2.7361536;stroke-linecap:round;stroke-linejoin:round;stroke-miterlimit:4;stroke-dasharray:none;stroke-opacity:1"
           d="M 78.990969,33.079675 C 78.862162,33.067289 78.735903,33.037994 78.615969,32.992669 C 78.528587,32.962021 78.444817,32.923149 78.365969,32.876661 L 78.303469,32.847659 C 78.281968,32.828954 78.261124,32.809609 78.240969,32.789655 L 76.584719,32.064604 C 76.354166,31.961767 76.159293,31.801007 76.022219,31.600571 C 76.022219,31.600571 75.845838,31.325726 75.709719,30.962527 C 75.5736,30.599328 75.445497,30.076341 75.397219,29.425419 C 75.300662,28.123575 75.549569,26.257912 76.709719,23.828027 C 77.020379,23.187332 77.831863,22.901669 78.522219,23.189982 C 79.212575,23.478295 79.520379,24.231405 79.209719,24.8721 C 78.198984,26.989042 78.053182,28.404868 78.115969,29.251407 C 78.143136,29.617698 78.216789,29.839518 78.272219,30.00546 L 79.178469,30.411488 C 79.332867,30.348716 79.522263,30.290959 79.803469,30.092466 C 80.4883,29.609069 81.542734,28.613156 82.553469,26.496214 C 82.723507,26.046782 83.15027,25.723469 83.658776,25.658841 C 84.167283,25.594212 84.671993,25.799139 84.965967,26.189597 C 85.25994,26.580055 85.293725,27.090363 85.053469,27.511285 C 83.893319,29.941171 82.562398,31.344267 81.459719,32.122608 C 80.90838,32.511778 80.43891,32.740421 80.053469,32.876661 C 79.931089,32.919918 79.912378,32.907684 79.803469,32.934665 C 79.793221,32.944488 79.782803,32.954156 79.772219,32.963667 C 79.56249,33.013167 79.272219,33.079675 79.272219,33.079675 C 79.230574,33.081442 79.188864,33.081442 79.147219,33.079675 C 79.095178,33.082437 79.04301,33.082437 78.990969,33.079675 L 78.990969,33.079675 z "
           id="path25849" />
        <path
           style="fill:url(#radialGradient8120);fill-opacity:1;fill-rule:evenodd;stroke:none;stroke-width:2.7361536;stroke-linecap:round;stroke-linejoin:round;stroke-miterlimit:4;stroke-dasharray:none;stroke-opacity:1"
           d="M 71.115969,27.859309 C 70.999145,27.849118 70.998906,27.81931 70.897219,27.801305 C 70.842253,27.791573 70.819519,27.811402 70.772219,27.801305 C 70.676531,27.791211 70.582258,27.771768 70.490969,27.743301 C 70.464548,27.735953 70.334719,27.714299 70.334719,27.714299 C 70.23515,27.676396 70.140748,27.627723 70.053469,27.569289 C 70.032373,27.560117 70.011533,27.550447 69.990969,27.540287 C 69.99085,27.53062 69.99085,27.520952 69.990969,27.511285 C 69.969873,27.502113 69.949033,27.492443 69.928469,27.482283 C 69.873405,27.447205 69.821182,27.408432 69.772219,27.366275 C 69.761272,27.34719 69.750852,27.327849 69.740969,27.308271 C 69.695545,27.26283 69.653766,27.214364 69.615969,27.163261 L 68.365969,25.684157 C 68.220713,25.516086 68.123927,25.316477 68.084719,25.104116 C 68.084719,25.104116 68.019826,24.762668 68.053469,24.379066 C 68.087112,23.995463 68.189811,23.482739 68.428469,22.87096 C 68.905784,21.647403 69.941942,20.048073 72.053469,18.317641 C 72.405764,17.960095 72.94659,17.819764 73.44761,17.955895 C 73.94863,18.092027 74.322514,18.480894 74.411408,18.958315 C 74.500301,19.435737 74.288711,19.918497 73.865969,20.202773 C 72.042516,21.697123 71.330132,22.922711 71.022219,23.712019 C 70.883999,24.066334 70.854819,24.321012 70.834719,24.495074 L 71.522219,25.307131 C 71.686807,25.313641 71.87636,25.311569 72.209719,25.249127 C 73.026951,25.096049 74.386266,24.626328 76.209719,23.131978 C 76.779263,22.667474 77.646711,22.719413 78.147219,23.247986 C 78.647727,23.77656 78.591763,24.581608 78.022219,25.046112 C 75.910691,26.776544 74.089746,27.490659 72.740969,27.743301 C 72.06658,27.869622 71.526431,27.895117 71.115969,27.859309 z "
           id="path25851" />
        <path
           style="fill:url(#radialGradient8122);fill-opacity:1;fill-rule:evenodd;stroke:none;stroke-width:2.7361536;stroke-linecap:round;stroke-linejoin:round;stroke-miterlimit:4;stroke-dasharray:none;stroke-opacity:1"
           d="M 69.397219,21.333852 C 68.407221,21.359974 67.562575,21.265582 66.897219,21.101836 C 66.231863,20.93809 65.749528,20.72129 65.397219,20.521795 C 65.256295,20.441998 65.249914,20.422877 65.147219,20.347783 C 65.020312,20.287535 64.90433,20.209252 64.803469,20.115767 C 64.801805,20.114302 64.772219,20.086765 64.772219,20.086765 C 64.750718,20.06806 64.729874,20.048715 64.709719,20.028761 C 64.699135,20.01925 64.688717,20.009582 64.678469,19.999759 C 64.656968,19.981054 64.636124,19.961709 64.615969,19.941755 C 64.605022,19.92267 64.594602,19.903329 64.584719,19.883751 C 64.573772,19.864666 64.563352,19.845325 64.553469,19.825747 C 64.542522,19.806662 64.532102,19.787321 64.522219,19.767743 C 64.511272,19.748658 64.500852,19.729317 64.490969,19.709739 C 64.480022,19.690654 64.469602,19.671313 64.459719,19.651735 C 64.448772,19.63265 64.438352,19.613309 64.428469,19.59373 C 64.427993,19.574398 64.427993,19.555059 64.428469,19.535726 C 64.42835,19.526059 64.42835,19.516391 64.428469,19.506724 C 64.399817,19.431383 64.378891,19.353699 64.365969,19.274708 L 63.865969,17.476582 C 63.807455,17.267367 63.807455,17.047753 63.865969,16.838538 C 63.865969,16.838538 63.980004,16.508634 64.178469,16.171491 C 64.376934,15.834348 64.692317,15.414218 65.178469,14.953405 C 66.150772,14.03178 67.787082,12.984636 70.459719,12.285219 C 71.193222,12.09301 71.955737,12.489042 72.162844,13.169781 C 72.369951,13.850519 71.943222,14.558182 71.209719,14.750391 C 68.920634,15.349435 67.726326,16.143985 67.115969,16.722529 C 66.849218,16.975377 66.739874,17.156589 66.647219,17.30257 L 66.928469,18.404647 C 67.077358,18.481055 67.275872,18.581966 67.615969,18.665665 C 68.42389,18.864497 69.826884,18.97469 72.115969,18.375645 C 72.596719,18.214482 73.134178,18.315461 73.509531,18.63747 C 73.884884,18.959478 74.035531,19.448812 73.900138,19.906251 C 73.764746,20.36369 73.365895,20.712941 72.865969,20.811816 C 71.52965,21.161525 70.387217,21.30773 69.397219,21.333852 z "
           id="path25853" />
        <path
           style="fill:url(#radialGradient8124);fill-opacity:1;fill-rule:evenodd;stroke:none;stroke-width:2.7361536;stroke-linecap:round;stroke-linejoin:round;stroke-miterlimit:4;stroke-dasharray:none;stroke-opacity:1"
           d="M 70.522219,14.837397 C 70.490603,14.828781 70.459333,14.819107 70.428469,14.808395 C 67.702427,14.33894 65.98194,13.470683 64.928469,12.633243 C 64.401734,12.214523 64.032039,11.822214 63.803469,11.502164 C 63.715206,11.378575 63.73657,11.346176 63.678469,11.241145 C 63.670599,11.226918 63.654484,11.225648 63.647219,11.212143 C 63.548615,11.090094 63.474514,10.952553 63.428469,10.806115 C 63.427993,10.786782 63.427993,10.767443 63.428469,10.748111 C 63.417885,10.7386 63.407467,10.728932 63.397219,10.719109 C 63.396743,10.699776 63.396743,10.680437 63.397219,10.661105 C 63.386272,10.64202 63.375852,10.622679 63.365969,10.603101 C 63.365493,10.583768 63.365493,10.564429 63.365969,10.545097 C 63.365493,10.525764 63.365493,10.506425 63.365969,10.487093 C 63.365493,10.46776 63.365493,10.448421 63.365969,10.429089 C 63.364898,10.400095 63.364898,10.371076 63.365969,10.342083 C 63.365493,10.32275 63.365493,10.303411 63.365969,10.284078 C 63.365493,10.264746 63.365493,10.245407 63.365969,10.226074 C 63.374417,10.186971 63.384845,10.148259 63.397219,10.110066 C 63.413505,10.05074 63.434393,9.992584 63.459719,9.936054 L 63.772219,8.137928 C 63.811427,7.925568 63.908213,7.725959 64.053469,7.557887 C 64.053469,7.557887 64.28404,7.292728 64.615969,7.064853 C 64.947898,6.836978 65.437477,6.559233 66.084719,6.339802 C 67.379204,5.9009416 69.327428,5.6673319 72.053469,6.136788 C 72.552257,6.201366 72.972495,6.515026 73.147438,6.953312 C 73.322381,7.391597 73.223742,7.883643 72.89066,8.234211 C 72.557578,8.584779 72.043909,8.737188 71.553469,8.630963 C 69.220795,8.229249 67.811261,8.450465 67.022219,8.717969 C 66.690305,8.830496 66.508547,8.947566 66.365969,9.036991 L 66.178469,10.16807 C 66.28392,10.304213 66.429247,10.467149 66.709719,10.690107 C 67.366759,11.212411 68.595795,11.912508 70.928469,12.314221 C 71.679231,12.418334 72.196902,13.067566 72.084719,13.764322 C 71.972536,14.461078 71.272981,14.94151 70.522219,14.837397 z "
           id="path25855" />
        <path
           style="fill:url(#radialGradient8126);fill-opacity:1;fill-rule:evenodd;stroke:none;stroke-width:2.7361536;stroke-linecap:round;stroke-linejoin:round;stroke-miterlimit:4;stroke-dasharray:none;stroke-opacity:1"
           d="M 71.365969,8.340942 C 71.10436,8.319753 70.854847,8.229141 70.647219,8.079924 C 68.387281,6.534431 67.232884,5.025871 66.647219,3.8456275 C 66.354387,3.2555062 66.215027,2.746147 66.147219,2.3665239 C 66.13319,2.2879808 66.155025,2.2940569 66.147219,2.2215137 C 66.143966,2.1912876 66.118354,2.1920365 66.115969,2.1635097 C 66.115493,2.1441772 66.115493,2.1248381 66.115969,2.1055056 C 66.078605,1.9632518 66.068032,1.8160728 66.084719,1.6704752 C 66.083648,1.6414815 66.083648,1.6124627 66.084719,1.5834691 C 66.084243,1.5641365 66.084243,1.5447975 66.084719,1.525465 C 66.094602,1.5058865 66.105022,1.4865457 66.115969,1.4674609 C 66.115493,1.4481284 66.115493,1.4287894 66.115969,1.4094569 C 66.125852,1.3898784 66.136272,1.3705375 66.147219,1.3514528 C 66.146743,1.3321203 66.146743,1.3127813 66.147219,1.2934487 C 66.157102,1.2738703 66.167522,1.2545294 66.178469,1.2354447 C 66.188352,1.2158662 66.198772,1.1965254 66.209719,1.1774406 C 66.219602,1.1578622 66.230022,1.1385213 66.240969,1.1194366 C 66.250852,1.0998581 66.261272,1.0805172 66.272219,1.0614325 C 66.282467,1.0516099 66.292885,1.0419413 66.303469,1.0324305 C 66.323006,1.0026442 66.343857,0.97361814 66.365969,0.94542444 L 67.522219,-0.67868936 C 67.663651,-0.86843316 67.858115,-1.0188289 68.084719,-1.1137198 C 68.084719,-1.1137198 68.429476,-1.2752059 68.834719,-1.3457361 C 69.239962,-1.4162662 69.80733,-1.4432284 70.490969,-1.3747381 C 71.858246,-1.2377585 73.731032,-0.65807426 75.990969,0.88742034 C 76.433816,1.1380498 76.685875,1.5995339 76.641901,2.0791829 C 76.597927,2.558832 76.265482,2.9741615 75.783376,3.1517532 C 75.301271,3.3293459 74.752411,3.23866 74.365969,2.9175625 C 72.418124,1.5854978 71.036414,1.231261 70.209719,1.1484386 C 69.872917,1.114696 69.685842,1.1279581 69.522219,1.1484386 L 68.865969,2.0475016 C 68.901544,2.2188335 68.947454,2.4619605 69.115969,2.8015544 C 69.492168,3.5596795 70.324375,4.717719 72.272219,6.049782 C 72.76445,6.384155 72.958714,6.980552 72.748506,7.511996 C 72.538297,8.04344 71.974399,8.381544 71.365969,8.340942 z "
           id="path25857" />
        <path
           style="fill:url(#radialGradient8128);fill-opacity:1;fill-rule:evenodd;stroke:none;stroke-width:2.7361536;stroke-linecap:round;stroke-linejoin:round;stroke-miterlimit:4;stroke-dasharray:none;stroke-opacity:1"
           d="M 74.772219,3.1205767 C 74.320726,3.0756324 73.922673,2.8257314 73.709719,2.45353 C 72.336199,0.13005064 71.948451,-1.6939071 71.928469,-2.9988519 C 71.918478,-3.6513243 71.981743,-4.1633303 72.084719,-4.5359596 C 72.127978,-4.6924981 72.161729,-4.7103764 72.209719,-4.8259799 C 72.217091,-4.8748388 72.227526,-4.9232578 72.240969,-4.97099 C 72.263994,-5.0509799 72.295393,-5.1286887 72.334719,-5.2030063 C 72.335515,-5.2045273 72.365969,-5.2320083 72.365969,-5.2320083 C 72.375253,-5.26135 72.385677,-5.2903706 72.397219,-5.3190144 C 72.407467,-5.328837 72.417885,-5.3385056 72.428469,-5.3480164 C 72.448624,-5.3679707 72.469468,-5.3873153 72.490969,-5.4060205 C 72.501217,-5.4158431 72.511635,-5.4255117 72.522219,-5.4350225 C 72.542374,-5.4549768 72.563218,-5.4743214 72.584719,-5.4930266 C 72.594967,-5.5028492 72.605385,-5.5125178 72.615969,-5.5220286 C 72.636124,-5.5419829 72.656968,-5.5613275 72.678469,-5.5800323 C 72.688717,-5.5898553 72.699135,-5.5995243 72.709719,-5.6090343 C 72.729874,-5.6289893 72.750718,-5.6483333 72.772219,-5.6670393 C 72.782467,-5.6768613 72.792885,-5.6865303 72.803469,-5.6960413 C 72.824033,-5.7062003 72.844873,-5.7158703 72.865969,-5.7250433 C 72.92598,-5.7584523 72.988663,-5.7875393 73.053469,-5.8120493 L 74.709719,-6.7691163 C 74.936497,-6.8928253 75.196893,-6.9532413 75.459719,-6.9431283 C 75.459719,-6.9431283 75.843869,-6.9302833 76.240969,-6.8271203 C 76.638069,-6.7239563 77.155608,-6.5306463 77.740969,-6.1890753 C 78.911692,-5.5059341 80.336201,-4.220256 81.709719,-1.8967747 C 82.072156,-1.2801052 81.827312,-0.50751886 81.162844,-0.17115376 C 80.498376,0.16521134 79.665906,-0.062019863 79.303469,-0.67868936 C 78.10861,-2.6999463 76.994798,-3.6212847 76.272219,-4.042925 C 75.980932,-4.2128973 75.805528,-4.2832038 75.647219,-4.3329453 L 74.740969,-3.8109088 C 74.700116,-3.6404232 74.641551,-3.3980127 74.647219,-3.0278539 C 74.660217,-2.1790262 74.921109,-0.78580936 76.115969,1.2354447 C 76.367946,1.6506238 76.348252,2.1617798 76.064968,2.5591967 C 75.781683,2.9566136 75.282499,3.1733855 74.772219,3.1205767 z "
           id="path25859" />
        <path
           style="fill:url(#radialGradient8130);fill-opacity:1;fill-rule:evenodd;stroke:none;stroke-width:2.7361536;stroke-linecap:round;stroke-linejoin:round;stroke-miterlimit:4;stroke-dasharray:none;stroke-opacity:1"
           d="M 80.584719,-0.44667306 C 79.932267,-0.52641616 79.433413,-1.0259342 79.397219,-1.6357564 C 79.158344,-4.3023693 79.567036,-6.1240593 80.115969,-7.3201543 C 80.390435,-7.9182023 80.701355,-8.3546363 80.959719,-8.6542483 C 81.033477,-8.7397813 81.044402,-8.7300473 81.115969,-8.7992583 C 81.145686,-8.8296493 81.176972,-8.8586853 81.209719,-8.8862643 C 81.222322,-8.8975263 81.229177,-8.9049673 81.240969,-8.9152663 C 81.310951,-9.0125433 81.39508,-9.1003803 81.490969,-9.1762843 C 81.521348,-9.1968063 81.552624,-9.2161573 81.584719,-9.2342883 C 81.595135,-9.2343993 81.605553,-9.2343993 81.615969,-9.2342883 C 81.646348,-9.2548103 81.677624,-9.2741613 81.709719,-9.2922923 C 81.720135,-9.2924033 81.730553,-9.2924033 81.740969,-9.2922923 C 81.771348,-9.3128143 81.802624,-9.3321653 81.834719,-9.3502963 C 81.845135,-9.3504073 81.855553,-9.3504073 81.865969,-9.3502963 C 81.876385,-9.3504073 81.886803,-9.3504073 81.897219,-9.3502963 C 81.968274,-9.3752343 82.041444,-9.3946363 82.115969,-9.4083013 C 82.146833,-9.4190123 82.178103,-9.4286863 82.209719,-9.4373033 C 82.23055,-9.4377443 82.251388,-9.4377443 82.272219,-9.4373033 L 82.397219,-9.4373033 L 84.334719,-9.6113153 C 84.594497,-9.6302463 84.854699,-9.5799373 85.084719,-9.4663053 C 85.084719,-9.4663053 85.430847,-9.3134883 85.740969,-9.0602763 C 86.051091,-8.8070643 86.425346,-8.4157603 86.803469,-7.8711933 C 87.559716,-6.7820583 88.283346,-5.056424 88.522219,-2.3898092 C 88.603132,-1.9217044 88.396323,-1.4507531 87.985898,-1.168485 C 87.575473,-0.88621676 87.029796,-0.83964926 86.570788,-1.0477205 C 86.11178,-1.2557917 85.815896,-1.6838441 85.803469,-2.157793 C 85.594645,-4.4889605 84.97258,-5.8144893 84.490969,-6.5080973 C 84.292483,-6.7939533 84.149068,-6.9163663 84.022219,-7.0301343 L 82.990969,-6.9431283 C 82.884502,-6.8076913 82.762423,-6.6532003 82.615969,-6.3340853 C 82.262818,-5.5645878 81.907143,-4.1699344 82.115969,-1.8387706 C 82.15944,-1.453374 82.010911,-1.0706502 81.712639,-0.79948346 C 81.414367,-0.52831686 80.999003,-0.39839236 80.584719,-0.44667306 z "
           id="path25861" />
        <path
           style="fill:url(#radialGradient8132);fill-opacity:1;fill-rule:evenodd;stroke:none;stroke-width:2.7361536;stroke-linecap:round;stroke-linejoin:round;stroke-miterlimit:4;stroke-dasharray:none;stroke-opacity:1"
           d="M 93.397219,0.53939594 C 92.960817,0.52054424 92.560353,0.30941594 92.319446,-0.028817363 C 92.078538,-0.36704976 92.026156,-0.79171556 92.178469,-1.1717239 C 92.996994,-3.3681169 93.003952,-4.8007226 92.865969,-5.6380363 C 92.80643,-5.9993303 92.716832,-6.2031673 92.647219,-6.3630873 L 91.647219,-6.7111123 C 91.498753,-6.6338343 91.338919,-6.5488133 91.084719,-6.3340853 C 90.443088,-5.7920853 89.528241,-4.7022085 88.709719,-2.5058173 C 88.468094,-1.8410964 87.691588,-1.4840178 86.975344,-1.7082615 C 86.2591,-1.9325052 85.874344,-2.6531532 86.115969,-3.3178742 C 87.054316,-5.8357983 88.214487,-7.3231223 89.240969,-8.1902153 C 89.75421,-8.6237623 90.245257,-8.9212483 90.615969,-9.0892783 C 90.72662,-9.1394323 90.734,-9.1124383 90.834719,-9.1472823 C 90.878535,-9.1624403 90.889202,-9.1639853 90.928469,-9.1762843 C 90.938717,-9.1861073 90.949135,-9.1957763 90.959719,-9.2052863 C 91.124301,-9.2867233 91.305087,-9.3360703 91.490969,-9.3502963 C 91.574128,-9.3573773 91.65781,-9.3573773 91.740969,-9.3502963 C 91.836657,-9.3402023 91.93093,-9.3207593 92.022219,-9.2922923 C 92.053835,-9.2836763 92.085105,-9.2740023 92.115969,-9.2632903 L 92.397219,-9.1472823 L 94.115969,-8.5382403 C 94.350201,-8.4558873 94.55558,-8.3154423 94.709719,-8.1322113 C 94.709719,-8.1322113 94.947522,-7.8743063 95.115969,-7.5231693 C 95.284416,-7.1720313 95.447233,-6.6597283 95.553469,-6.0150633 C 95.765941,-4.7257321 95.679319,-2.8485898 94.740969,-0.33066496 C 94.55036,0.20371304 94.00342,0.55784964 93.397219,0.53939594 z "
           id="path25863" />
        <path
           style="fill:url(#radialGradient8134);fill-opacity:1;fill-rule:evenodd;stroke:none;stroke-width:2.7361536;stroke-linecap:round;stroke-linejoin:round;stroke-miterlimit:4;stroke-dasharray:none;stroke-opacity:1"
           d="M 97.772219,4.9767067 C 97.267319,4.8995019 96.85104,4.5672779 96.693176,4.1155441 C 96.535312,3.6638112 96.662252,3.1680807 97.022219,2.8305564 C 98.707145,1.1849561 99.347919,-0.096486363 99.584719,-0.91070556 C 99.691486,-1.2778157 99.705416,-1.5185669 99.709719,-1.6937605 L 98.959719,-2.4188113 C 98.795408,-2.4127751 98.581723,-2.4263351 98.240969,-2.3318052 C 97.438878,-2.1092941 96.14464,-1.5122337 94.459719,0.13336754 C 94.142486,0.52283834 93.61274,0.70901744 93.097105,0.61225834 C 92.581469,0.51549924 92.171275,0.15294044 92.042002,-0.32031706 C 91.912729,-0.79357356 92.087275,-1.2937051 92.490969,-1.6067544 C 94.438277,-3.5086194 96.140248,-4.4019368 97.459719,-4.7679758 C 98.119454,-4.9509958 98.67246,-5.0007243 99.084719,-4.9999921 C 99.211707,-4.9997665 99.225146,-4.9815226 99.334719,-4.97099 C 99.388727,-4.9657984 99.413446,-4.9770104 99.459719,-4.97099 C 99.607976,-4.9737854 99.755736,-4.9541958 99.897219,-4.912986 C 99.950535,-4.8966446 100.00272,-4.877274 100.05347,-4.8549819 C 100.16389,-4.8192375 100.26891,-4.7705039 100.36597,-4.7099717 C 100.42218,-4.6656242 100.47443,-4.617129 100.52222,-4.5649616 C 100.55497,-4.5373823 100.58625,-4.5083468 100.61597,-4.4779555 C 100.66139,-4.4325146 100.70317,-4.3840483 100.74097,-4.3329453 L 102.05347,-3.085858 C 102.20998,-2.9208731 102.31766,-2.7210078 102.36597,-2.5058173 C 102.36597,-2.5058173 102.459,-2.1656602 102.45972,-1.7807666 C 102.46044,-1.3958729 102.39263,-0.87257236 102.20972,-0.24365886 C 101.8439,1.014168 100.96953,2.6688151 99.022219,4.5706783 C 98.708591,4.8966212 98.236409,5.049996 97.772219,4.9767067 z "
           id="path25865" />
        <path
           style="fill:url(#radialGradient8136);fill-opacity:1;fill-rule:evenodd;stroke:none;stroke-width:2.7361536;stroke-linecap:round;stroke-linejoin:round;stroke-miterlimit:4;stroke-dasharray:none;stroke-opacity:1"
           d="M 100.49097,10.951125 C 99.83009,10.940621 99.271791,10.493155 99.164372,9.887882 C 99.056953,9.282609 99.43113,8.692606 100.05347,8.485952 C 102.28187,7.69381 103.40114,6.796544 103.95972,6.16579 C 104.21765,5.8745307 104.32005,5.6529988 104.39722,5.4987433 L 103.99097,4.4836722 C 103.83704,4.4203986 103.65189,4.3354268 103.30347,4.280658 C 102.48236,4.1515855 101.06312,4.1555622 98.834719,4.9477047 C 98.127104,5.2039824 97.329611,4.8793666 97.053469,4.2226539 C 96.777327,3.5659412 97.127104,2.8258159 97.834719,2.5695381 C 100.43329,1.6458081 102.41587,1.544275 103.77222,1.7574812 C 104.45039,1.8640844 104.96469,2.0521901 105.33472,2.2215137 C 105.46332,2.2803605 105.45247,2.3069319 105.55347,2.3665239 C 105.57348,2.3783298 105.59747,2.3552201 105.61597,2.3665239 C 105.70469,2.406363 105.78851,2.4549815 105.86597,2.5115341 C 105.88195,2.5228333 105.95505,2.5660959 105.95972,2.5695381 C 105.9703,2.5790489 105.98072,2.5887175 105.99097,2.5985402 C 106.01247,2.6172453 106.03331,2.6365899 106.05347,2.6565442 C 106.06405,2.666055 106.07447,2.6757236 106.08472,2.6855462 C 106.10622,2.7042514 106.12706,2.723596 106.14722,2.7435503 C 106.15817,2.762635 106.16859,2.7819759 106.17847,2.8015544 C 106.19997,2.8202595 106.22081,2.8396041 106.24097,2.8595584 C 106.30619,2.9496374 106.3587,3.0471055 106.39722,3.1495787 L 106.42847,3.2075828 C 106.44191,3.2553151 106.45235,3.3037341 106.45972,3.352593 L 107.14722,5.1217169 C 107.22157,5.3374976 107.23236,5.567809 107.17847,5.7887636 C 107.17847,5.7887636 107.09559,6.104118 106.92847,6.45581 C 106.76135,6.807502 106.49556,7.261688 106.05347,7.760902 C 105.16929,8.759328 103.62079,9.911389 101.02222,10.835117 C 100.85533,10.906504 100.67465,10.945958 100.49097,10.951125 L 100.49097,10.951125 z "
           id="path25867" />
        <path
           style="fill:url(#radialGradient8138);fill-opacity:1;fill-rule:evenodd;stroke:none;stroke-width:2.7361536;stroke-linecap:round;stroke-linejoin:round;stroke-miterlimit:4;stroke-dasharray:none;stroke-opacity:1"
           d="M 102.49097,25.249127 C 101.11622,25.229047 99.194776,24.828403 96.803469,23.480003 C 96.15626,23.111603 95.953389,22.326032 96.350344,21.72538 C 96.747299,21.124728 97.59376,20.936451 98.240969,21.30485 C 100.29823,22.464888 101.69173,22.713819 102.52222,22.72595 C 102.85982,22.730881 103.04806,22.702296 103.20972,22.667946 L 103.80347,21.681877 C 103.75279,21.514776 103.65677,21.307934 103.45972,20.985828 C 103.01864,20.264806 102.07947,19.187654 100.02222,18.027621 C 99.37501,17.659221 99.172139,16.87365 99.569094,16.272998 C 99.966049,15.672346 100.81251,15.484069 101.45972,15.852468 C 103.85103,17.200865 105.14462,18.610646 105.83472,19.738741 C 106.17977,20.302788 106.38939,20.786876 106.49097,21.15984 C 106.53151,21.308673 106.50462,21.330867 106.52222,21.44986 C 106.5227,21.469193 106.5227,21.488532 106.52222,21.507865 C 106.52518,21.530584 106.5512,21.545841 106.55347,21.565869 C 106.59083,21.708122 106.60141,21.855301 106.58472,22.000899 C 106.5852,22.020231 106.5852,22.039571 106.58472,22.058903 C 106.56447,22.189854 106.52229,22.317065 106.45972,22.43593 C 106.43331,22.496073 106.40197,22.554248 106.36597,22.609942 L 106.33472,22.638944 C 106.32484,22.658522 106.31442,22.677863 106.30347,22.696948 L 105.36597,24.321062 C 105.24193,24.528193 105.05791,24.698977 104.83472,24.814096 C 104.83472,24.814096 104.51265,24.97055 104.11597,25.075114 C 103.71929,25.179679 103.17834,25.259167 102.49097,25.249127 z "
           id="path25871" />
        <path
           style="fill:url(#radialGradient8140);fill-opacity:1;fill-rule:evenodd;stroke:none;stroke-width:2.7361536;stroke-linecap:round;stroke-linejoin:round;stroke-miterlimit:4;stroke-dasharray:none;stroke-opacity:1"
           d="M 97.334719,31.71658 C 97.334719,31.71658 96.958997,31.756671 96.553469,31.687578 C 96.147941,31.618484 95.605939,31.456626 94.990969,31.165541 C 93.76103,30.583371 92.224073,29.42069 90.647219,27.221265 C 90.338466,26.843569 90.282142,26.337702 90.501154,25.909395 C 90.720165,25.481087 91.178032,25.201681 91.688545,25.184808 C 92.199058,25.167934 92.677182,25.416404 92.928469,25.829167 C 94.297935,27.739324 95.486222,28.546136 96.240969,28.903382 C 96.544563,29.047083 96.73583,29.070413 96.897219,29.106397 L 97.772219,28.526356 C 97.79771,28.352586 97.81083,28.110917 97.772219,27.743301 C 97.683558,26.899147 97.297938,25.535167 95.928469,23.625013 C 95.505626,23.040378 95.673519,22.248315 96.303469,21.855889 C 96.933419,21.463463 97.786876,21.619279 98.209719,22.203913 C 99.786577,24.403337 100.35458,26.21267 100.49097,27.511285 C 100.55917,28.160592 100.52895,28.668993 100.45972,29.048393 C 100.44207,29.145102 100.42005,29.137864 100.39722,29.222405 C 100.39116,29.281011 100.38072,29.339155 100.36597,29.396417 C 100.35738,29.49502 100.3364,29.592353 100.30347,29.686437 C 100.29359,29.706016 100.28317,29.725357 100.27222,29.744441 C 100.24448,29.794658 100.21316,29.843102 100.17847,29.889452 C 100.16919,29.918793 100.15876,29.947814 100.14722,29.976458 C 100.12706,29.996412 100.10622,30.015757 100.08472,30.034462 C 100.07484,30.05404 100.06442,30.073381 100.05347,30.092466 C 100.03331,30.11242 100.01247,30.131765 99.990969,30.15047 C 99.980721,30.160293 99.970303,30.169961 99.959719,30.179472 C 99.939564,30.199426 99.91872,30.218771 99.897219,30.237476 C 99.886971,30.247299 99.876553,30.256967 99.865969,30.266478 C 99.825394,30.287776 99.783673,30.307136 99.740969,30.324482 L 99.615969,30.411488 C 99.605553,30.411599 99.595135,30.411599 99.584719,30.411488 L 98.053469,31.484563 C 97.842347,31.623424 97.593123,31.703875 97.334719,31.71658 z "
           id="path25873" />
        <path
           transform="matrix(1.66537,0,0,-1.786687,55.31318,55.66649)"
           sodipodi:open="true"
           sodipodi:end="6.2749955"
           sodipodi:start="0"
           d="M 24.29988,24.377268 A 5.9588876,5.5719466 0 1 1 24.29968,24.331635"
           sodipodi:ry="5.5719466"
           sodipodi:rx="5.9588876"
           sodipodi:cy="24.377268"
           sodipodi:cx="18.340992"
           id="path25875"
           style="fill:url(#radialGradient8142);fill-opacity:1;fill-rule:evenodd;stroke:#d36964;stroke-width:1.73318982;stroke-linecap:round;stroke-linejoin:round;stroke-miterlimit:4;stroke-dasharray:none;stroke-dashoffset:0;stroke-opacity:1"
           sodipodi:type="arc" />
        <path
           sodipodi:type="arc"
           style="fill:url(#radialGradient8144);fill-opacity:1;fill-rule:evenodd;stroke:#d36964;stroke-width:1.73318982;stroke-linecap:round;stroke-linejoin:round;stroke-miterlimit:4;stroke-dasharray:none;stroke-dashoffset:0;stroke-opacity:1"
           id="path25877"
           sodipodi:cx="18.340992"
           sodipodi:cy="24.377268"
           sodipodi:rx="5.9588876"
           sodipodi:ry="5.5719466"
           d="M 24.29988,24.377268 A 5.9588876,5.5719466 0 1 1 24.29968,24.331635"
           sodipodi:start="0"
           sodipodi:end="6.2749955"
           sodipodi:open="true"
           transform="matrix(0.804706,0,0,-0.890422,71.2447,33.9864)" />
        <path
           sodipodi:type="arc"
           style="opacity:0.70070424;fill:url(#radialGradient8146);fill-opacity:1;fill-rule:evenodd;stroke:#969696;stroke-width:0;stroke-linecap:round;stroke-linejoin:round;stroke-miterlimit:4;stroke-dasharray:none;stroke-dashoffset:0;stroke-opacity:1"
           id="path3317"
           sodipodi:cx="-34.128174"
           sodipodi:cy="43.337364"
           sodipodi:rx="23.293833"
           sodipodi:ry="3.637243"
           d="M -10.834341,43.337364 A 23.293833,3.637243 0 1 1 -10.835122,43.307576"
           sodipodi:start="0"
           sodipodi:end="6.2749955"
           sodipodi:open="true"
           inkscape:export-filename="Z:\Visual Studio 2008\Projects\GameLoader 2008\Resources\Inkscape\Icons\Profile11+.png"
           inkscape:export-xdpi="123.63788"
           inkscape:export-ydpi="123.63788"
           transform="translate(119.5542,-4.04327)" />
      </g>
      <rect
         ry="1.3726919"
         rx="22.722502"
         y="-1.5042305"
         x="-2"
         height="48.50423"
         width="61"
         id="rect8189"
         style="opacity:1;fill:url(#radialGradient9070);fill-opacity:1;fill-rule:evenodd;stroke:none;stroke-width:3;stroke-linecap:round;stroke-linejoin:round;stroke-miterlimit:4;stroke-dasharray:none;stroke-dashoffset:0;stroke-opacity:1" />
    </g>
    <g
       id="g9858"
       transform="translate(60.43106,-2.499383)">
      <path
         id="path9852"
         d="M 5.0881096,48.993954 L 35.060621,48.993954"
         style="fill:none;fill-opacity:0.75;fill-rule:evenodd;stroke:#000000;stroke-width:1.01662922px;stroke-linecap:butt;stroke-linejoin:miter;stroke-opacity:1" />
      <path
         style="fill:none;fill-opacity:0.75;fill-rule:evenodd;stroke:#000000;stroke-width:1.01662922px;stroke-linecap:butt;stroke-linejoin:miter;stroke-opacity:1"
         d="M 20.074365,63.98021 L 20.074365,34.007698"
         id="path9854" />
      <path
         transform="matrix(0.952123,0,0,1.085536,1.19369,-8.496032)"
         sodipodi:open="true"
         sodipodi:end="6.5831384"
         sodipodi:start="0.30157389"
         d="M 28.826635,55.420206 A 9.4413548,8.2418375 0 1 1 28.831169,55.407447"
         sodipodi:ry="8.2418375"
         sodipodi:rx="9.4413548"
         sodipodi:cy="52.972187"
         sodipodi:cx="19.811367"
         id="path9856"
         style="opacity:1;fill:none;fill-opacity:1;fill-rule:evenodd;stroke:#000000;stroke-width:2;stroke-linecap:square;stroke-linejoin:round;stroke-miterlimit:4;stroke-dasharray:none;stroke-dashoffset:0;stroke-opacity:1"
         sodipodi:type="arc" />
    </g>
    <rect
       style="opacity:1;fill:url(#radialGradient10976);fill-opacity:1;fill-rule:evenodd;stroke:none;stroke-width:2;stroke-linecap:square;stroke-linejoin:round;stroke-miterlimit:4;stroke-dasharray:none;stroke-dashoffset:0;stroke-opacity:1"
       id="rect10966"
       width="47"
       height="39.04353"
       x="3"
       y="24.420797" />
    <path
       style="fill:url(#linearGradient10752);fill-opacity:1.0;fill-rule:evenodd;stroke:none;stroke-width:4;stroke-linecap:butt;stroke-linejoin:round;stroke-opacity:1;stroke-miterlimit:4;stroke-dasharray:none"
       d="M 42.535671,20.82346 C 42.535671,20.82346 10.272069,16.738815 11.285369,16.738815 C 12.298669,16.738815 23.814993,27.091899 23.814993,27.091899 C 17.700939,28.021932 9.2988291,32.972387 0.5114873,42.131802 L 17,63 C 22.166058,51.77295 23.500916,39.800605 31.993953,35.423217 L 39.152358,51.856107 L 42.535671,20.82346 z "
       id="path9863"
       sodipodi:nodetypes="cscccccc" />
  </g>
</svg>
